%!PS-Adobe-2.0 EPSF-1.2
%%Creator: MATLAB, The MathWorks, Inc. Version 8.2.0.701 (R2013b). Operating System: Linux 3.2.0-61-generic #92-Ubuntu SMP Mon Mar 31 23:47:59 UTC 2014 x86_64.
%%Title: ../graphs/dist_4.eps
%%CreationDate: 04/29/2014  20:05:02
%%DocumentNeededFonts: Helvetica
%%DocumentProcessColors: Cyan Magenta Yellow Black
%%Extensions: CMYK
%%Pages: 1
%%BoundingBox:    55   199   553   602
%%EndComments

%%BeginProlog
% MathWorks dictionary
/MathWorks 160 dict begin
% definition operators
/bdef {bind def} bind def
/ldef {load def} bind def
/xdef {exch def} bdef
/xstore {exch store} bdef
% operator abbreviations
/c  /clip ldef
/cc /concat ldef
/cp /closepath ldef
/gr /grestore ldef
/gs /gsave ldef
/mt /moveto ldef
/np /newpath ldef
/cm /currentmatrix ldef
/sm /setmatrix ldef
/rm /rmoveto ldef
/rl /rlineto ldef
/s {show newpath} bdef
/sc {setcmykcolor} bdef
/sr /setrgbcolor ldef
/sg /setgray ldef
/w /setlinewidth ldef
/j /setlinejoin ldef
/cap /setlinecap ldef
/rc {rectclip} bdef
/rf {rectfill} bdef
% page state control
/pgsv () def
/bpage {/pgsv save def} bdef
/epage {pgsv restore} bdef
/bplot /gsave ldef
/eplot {stroke grestore} bdef
% orientation switch
/portraitMode 0 def /landscapeMode 1 def /rotateMode 2 def
% coordinate system mappings
/dpi2point 0 def
% font control
/FontSize 0 def
/FMS {/FontSize xstore findfont [FontSize 0 0 FontSize neg 0 0]
  makefont setfont} bdef
/reencode {exch dup where {pop load} {pop StandardEncoding} ifelse
  exch dup 3 1 roll findfont dup length dict begin
  { 1 index /FID ne {def}{pop pop} ifelse } forall
  /Encoding exch def currentdict end definefont pop} bdef
/isroman {findfont /CharStrings get /Agrave known} bdef
/FMSR {3 1 roll 1 index dup isroman {reencode} {pop pop} ifelse
  exch FMS} bdef
/csm {1 dpi2point div -1 dpi2point div scale neg translate
 dup landscapeMode eq {pop -90 rotate}
  {rotateMode eq {90 rotate} if} ifelse} bdef
% line types: solid, dotted, dashed, dotdash
/SO { [] 0 setdash } bdef
/DO { [.5 dpi2point mul 4 dpi2point mul] 0 setdash } bdef
/DA { [6 dpi2point mul] 0 setdash } bdef
/DD { [.5 dpi2point mul 4 dpi2point mul 6 dpi2point mul 4
  dpi2point mul] 0 setdash } bdef
% macros for lines and objects
/L {lineto stroke} bdef
/MP {3 1 roll moveto 1 sub {rlineto} repeat} bdef
/AP {{rlineto} repeat} bdef
/PDlw -1 def
/W {/PDlw currentlinewidth def setlinewidth} def
/PP {closepath eofill} bdef
/DP {closepath stroke} bdef
/MR {4 -2 roll moveto dup  0 exch rlineto exch 0 rlineto
  neg 0 exch rlineto closepath} bdef
/FR {MR stroke} bdef
/PR {MR fill} bdef
/L1i {{currentfile picstr readhexstring pop} image} bdef
/tMatrix matrix def
/MakeOval {newpath tMatrix currentmatrix pop translate scale
0 0 1 0 360 arc tMatrix setmatrix} bdef
/FO {MakeOval stroke} bdef
/PO {MakeOval fill} bdef
/PD {currentlinewidth 2 div 0 360 arc fill
   PDlw -1 eq not {PDlw w /PDlw -1 def} if} def
/FA {newpath tMatrix currentmatrix pop translate scale
  0 0 1 5 -2 roll arc tMatrix setmatrix stroke} bdef
/PA {newpath tMatrix currentmatrix pop	translate 0 0 moveto scale
  0 0 1 5 -2 roll arc closepath tMatrix setmatrix fill} bdef
/FAn {newpath tMatrix currentmatrix pop translate scale
  0 0 1 5 -2 roll arcn tMatrix setmatrix stroke} bdef
/PAn {newpath tMatrix currentmatrix pop translate 0 0 moveto scale
  0 0 1 5 -2 roll arcn closepath tMatrix setmatrix fill} bdef
/vradius 0 def /hradius 0 def /lry 0 def
/lrx 0 def /uly 0 def /ulx 0 def /rad 0 def
/MRR {/vradius xdef /hradius xdef /lry xdef /lrx xdef /uly xdef
  /ulx xdef newpath tMatrix currentmatrix pop ulx hradius add uly
  vradius add translate hradius vradius scale 0 0 1 180 270 arc 
  tMatrix setmatrix lrx hradius sub uly vradius add translate
  hradius vradius scale 0 0 1 270 360 arc tMatrix setmatrix
  lrx hradius sub lry vradius sub translate hradius vradius scale
  0 0 1 0 90 arc tMatrix setmatrix ulx hradius add lry vradius sub
  translate hradius vradius scale 0 0 1 90 180 arc tMatrix setmatrix
  closepath} bdef
/FRR {MRR stroke } bdef
/PRR {MRR fill } bdef
/MlrRR {/lry xdef /lrx xdef /uly xdef /ulx xdef /rad lry uly sub 2 div def
  newpath tMatrix currentmatrix pop ulx rad add uly rad add translate
  rad rad scale 0 0 1 90 270 arc tMatrix setmatrix lrx rad sub lry rad
  sub translate rad rad scale 0 0 1 270 90 arc tMatrix setmatrix
  closepath} bdef
/FlrRR {MlrRR stroke } bdef
/PlrRR {MlrRR fill } bdef
/MtbRR {/lry xdef /lrx xdef /uly xdef /ulx xdef /rad lrx ulx sub 2 div def
  newpath tMatrix currentmatrix pop ulx rad add uly rad add translate
  rad rad scale 0 0 1 180 360 arc tMatrix setmatrix lrx rad sub lry rad
  sub translate rad rad scale 0 0 1 0 180 arc tMatrix setmatrix
  closepath} bdef
/FtbRR {MtbRR stroke } bdef
/PtbRR {MtbRR fill } bdef
/stri 6 array def /dtri 6 array def
/smat 6 array def /dmat 6 array def
/tmat1 6 array def /tmat2 6 array def /dif 3 array def
/asub {/ind2 exch def /ind1 exch def dup dup
  ind1 get exch ind2 get sub exch } bdef
/tri_to_matrix {
  2 0 asub 3 1 asub 4 0 asub 5 1 asub
  dup 0 get exch 1 get 7 -1 roll astore } bdef
/compute_transform {
  dmat dtri tri_to_matrix tmat1 invertmatrix 
  smat stri tri_to_matrix tmat2 concatmatrix } bdef
/ds {stri astore pop} bdef
/dt {dtri astore pop} bdef
/db {2 copy /cols xdef /rows xdef mul dup 3 mul string
  currentfile exch readhexstring pop
  dup 0 3 index getinterval /rbmap xdef
  dup 2 index dup getinterval /gbmap xdef
  1 index dup 2 mul exch getinterval /bbmap xdef pop pop}bdef
/it {gs np dtri aload pop moveto lineto lineto cp c
  cols rows 8 compute_transform 
  rbmap gbmap bbmap true 3 colorimage gr}bdef
/il {newpath moveto lineto stroke}bdef
currentdict end def
%%EndProlog

%%BeginSetup
MathWorks begin

0 cap

end
%%EndSetup

%%Page: 1 1
%%BeginPageSetup
%%PageBoundingBox:    55   199   553   602
MathWorks begin
bpage
%%EndPageSetup

%%BeginObject: obj1
bplot

/dpi2point 12 def
portraitMode 0216 7344 csm

  446   110  5979  4845 MR c np
76 dict begin %Colortable dictionary
/c0 { 0.000000 0.000000 0.000000 sr} bdef
/c1 { 1.000000 1.000000 1.000000 sr} bdef
/c2 { 0.900000 0.000000 0.000000 sr} bdef
/c3 { 0.000000 0.820000 0.000000 sr} bdef
/c4 { 0.000000 0.000000 0.800000 sr} bdef
/c5 { 0.910000 0.820000 0.320000 sr} bdef
/c6 { 1.000000 0.260000 0.820000 sr} bdef
/c7 { 0.000000 0.820000 0.820000 sr} bdef
c0
1 j
1 sg
   0    0 6913 5186 PR
6 w
0 1770 2283 0 0 -1770 899 2158 4 MP
PP
-2283 0 0 1770 2283 0 0 -1770 899 2158 5 MP stroke
4 w
DO
SO
6 w
0 sg
 899 2158 mt 3182 2158 L
 899  388 mt 3182  388 L
 899 2158 mt  899  388 L
3182 2158 mt 3182  388 L
 899 2158 mt 3182 2158 L
 899 2158 mt  899  388 L
 899 2158 mt  899 2135 L
 899  389 mt  899  411 L
%%IncludeResource: font Helvetica
/Helvetica /ISOLatin1Encoding 120 FMSR

 866 2303 mt 
(0) s
1660 2158 mt 1660 2135 L
1660  389 mt 1660  411 L
1510 2303 mt 
(0.005) s
2421 2158 mt 2421 2135 L
2421  389 mt 2421  411 L
2305 2303 mt 
(0.01) s
3182 2158 mt 3182 2135 L
3182  389 mt 3182  411 L
3032 2303 mt 
(0.015) s
 899 2158 mt  921 2158 L
3182 2158 mt 3159 2158 L
 798 2202 mt 
(0) s
 899 1715 mt  921 1715 L
3182 1715 mt 3159 1715 L
 731 1759 mt 
(50) s
 899 1273 mt  921 1273 L
3182 1273 mt 3159 1273 L
 664 1317 mt 
(100) s
 899  831 mt  921  831 L
3182  831 mt 3159  831 L
 664  875 mt 
(150) s
 899  389 mt  921  389 L
3182  389 mt 3159  389 L
 664  433 mt 
(200) s
 899 2158 mt 3182 2158 L
 899  388 mt 3182  388 L
 899 2158 mt  899  388 L
3182 2158 mt 3182  388 L
24 w
/c8 { 1.000000 0.000000 0.000000 sr} bdef
c8
0 -1416 899 2158 2 MP stroke
/c9 { 0.000000 0.000000 0.562500 sr} bdef
c9
0 1407 13 0 0 -1407 899 2158 4 MP
PP
6 w
0 sg
-13 0 0 1407 13 0 0 -1407 899 2158 5 MP stroke
c9
0 0 14 0 0 0 912 2158 4 MP
PP
0 sg
-14 0 0 0 14 0 0 0 912 2158 5 MP stroke
c9
0 0 13 0 0 0 926 2158 4 MP
PP
0 sg
-13 0 0 0 13 0 0 0 926 2158 5 MP stroke
c9
0 0 14 0 0 0 939 2158 4 MP
PP
0 sg
-14 0 0 0 14 0 0 0 939 2158 5 MP stroke
c9
0 0 13 0 0 0 953 2158 4 MP
PP
0 sg
-13 0 0 0 13 0 0 0 953 2158 5 MP stroke
c9
0 0 14 0 0 0 966 2158 4 MP
PP
0 sg
-14 0 0 0 14 0 0 0 966 2158 5 MP stroke
c9
0 0 13 0 0 0 980 2158 4 MP
PP
0 sg
-13 0 0 0 13 0 0 0 980 2158 5 MP stroke
c9
0 0 14 0 0 0 993 2158 4 MP
PP
0 sg
-14 0 0 0 14 0 0 0 993 2158 5 MP stroke
c9
0 0 13 0 0 0 1007 2158 4 MP
PP
0 sg
-13 0 0 0 13 0 0 0 1007 2158 5 MP stroke
c9
0 0 14 0 0 0 1020 2158 4 MP
PP
0 sg
-14 0 0 0 14 0 0 0 1020 2158 5 MP stroke
c9
0 0 13 0 0 0 1034 2158 4 MP
PP
0 sg
-13 0 0 0 13 0 0 0 1034 2158 5 MP stroke
c9
0 0 14 0 0 0 1047 2158 4 MP
PP
0 sg
-14 0 0 0 14 0 0 0 1047 2158 5 MP stroke
c9
0 0 13 0 0 0 1061 2158 4 MP
PP
0 sg
-13 0 0 0 13 0 0 0 1061 2158 5 MP stroke
c9
0 0 14 0 0 0 1074 2158 4 MP
PP
0 sg
-14 0 0 0 14 0 0 0 1074 2158 5 MP stroke
c9
0 0 13 0 0 0 1088 2158 4 MP
PP
0 sg
-13 0 0 0 13 0 0 0 1088 2158 5 MP stroke
c9
0 0 14 0 0 0 1101 2158 4 MP
PP
0 sg
-14 0 0 0 14 0 0 0 1101 2158 5 MP stroke
c9
0 0 14 0 0 0 1115 2158 4 MP
PP
0 sg
-14 0 0 0 14 0 0 0 1115 2158 5 MP stroke
c9
0 0 13 0 0 0 1129 2158 4 MP
PP
0 sg
-13 0 0 0 13 0 0 0 1129 2158 5 MP stroke
c9
0 0 14 0 0 0 1142 2158 4 MP
PP
0 sg
-14 0 0 0 14 0 0 0 1142 2158 5 MP stroke
c9
0 0 13 0 0 0 1156 2158 4 MP
PP
0 sg
-13 0 0 0 13 0 0 0 1156 2158 5 MP stroke
c9
0 0 14 0 0 0 1169 2158 4 MP
PP
0 sg
-14 0 0 0 14 0 0 0 1169 2158 5 MP stroke
c9
0 0 13 0 0 0 1183 2158 4 MP
PP
0 sg
-13 0 0 0 13 0 0 0 1183 2158 5 MP stroke
c9
0 0 14 0 0 0 1196 2158 4 MP
PP
0 sg
-14 0 0 0 14 0 0 0 1196 2158 5 MP stroke
c9
0 0 13 0 0 0 1210 2158 4 MP
PP
0 sg
-13 0 0 0 13 0 0 0 1210 2158 5 MP stroke
c9
0 0 14 0 0 0 1223 2158 4 MP
PP
0 sg
-14 0 0 0 14 0 0 0 1223 2158 5 MP stroke
c9
0 0 13 0 0 0 1237 2158 4 MP
PP
0 sg
-13 0 0 0 13 0 0 0 1237 2158 5 MP stroke
c9
0 0 14 0 0 0 1250 2158 4 MP
PP
0 sg
-14 0 0 0 14 0 0 0 1250 2158 5 MP stroke
c9
0 0 13 0 0 0 1264 2158 4 MP
PP
0 sg
-13 0 0 0 13 0 0 0 1264 2158 5 MP stroke
c9
0 0 14 0 0 0 1277 2158 4 MP
PP
0 sg
-14 0 0 0 14 0 0 0 1277 2158 5 MP stroke
c9
0 0 13 0 0 0 1291 2158 4 MP
PP
0 sg
-13 0 0 0 13 0 0 0 1291 2158 5 MP stroke
c9
0 0 14 0 0 0 1304 2158 4 MP
PP
0 sg
-14 0 0 0 14 0 0 0 1304 2158 5 MP stroke
c9
0 0 13 0 0 0 1318 2158 4 MP
PP
0 sg
-13 0 0 0 13 0 0 0 1318 2158 5 MP stroke
c9
0 0 14 0 0 0 1331 2158 4 MP
PP
0 sg
-14 0 0 0 14 0 0 0 1331 2158 5 MP stroke
c9
0 0 14 0 0 0 1345 2158 4 MP
PP
0 sg
-14 0 0 0 14 0 0 0 1345 2158 5 MP stroke
c9
0 0 13 0 0 0 1359 2158 4 MP
PP
0 sg
-13 0 0 0 13 0 0 0 1359 2158 5 MP stroke
c9
0 0 14 0 0 0 1372 2158 4 MP
PP
0 sg
-14 0 0 0 14 0 0 0 1372 2158 5 MP stroke
c9
0 0 13 0 0 0 1386 2158 4 MP
PP
0 sg
-13 0 0 0 13 0 0 0 1386 2158 5 MP stroke
c9
0 275 14 0 0 -275 1399 2158 4 MP
PP
0 sg
-14 0 0 275 14 0 0 -275 1399 2158 5 MP stroke
c9
0 0 13 0 0 0 1413 2158 4 MP
PP
0 sg
-13 0 0 0 13 0 0 0 1413 2158 5 MP stroke
c9
0 0 14 0 0 0 1426 2158 4 MP
PP
0 sg
-14 0 0 0 14 0 0 0 1426 2158 5 MP stroke
c9
0 0 13 0 0 0 1440 2158 4 MP
PP
0 sg
-13 0 0 0 13 0 0 0 1440 2158 5 MP stroke
c9
0 0 14 0 0 0 1453 2158 4 MP
PP
0 sg
-14 0 0 0 14 0 0 0 1453 2158 5 MP stroke
c9
0 0 13 0 0 0 1467 2158 4 MP
PP
0 sg
-13 0 0 0 13 0 0 0 1467 2158 5 MP stroke
c9
0 0 14 0 0 0 1480 2158 4 MP
PP
0 sg
-14 0 0 0 14 0 0 0 1480 2158 5 MP stroke
c9
0 0 13 0 0 0 1494 2158 4 MP
PP
0 sg
-13 0 0 0 13 0 0 0 1494 2158 5 MP stroke
c9
0 0 14 0 0 0 1507 2158 4 MP
PP
0 sg
-14 0 0 0 14 0 0 0 1507 2158 5 MP stroke
c9
0 0 13 0 0 0 1521 2158 4 MP
PP
0 sg
-13 0 0 0 13 0 0 0 1521 2158 5 MP stroke
c9
0 0 14 0 0 0 1534 2158 4 MP
PP
0 sg
-14 0 0 0 14 0 0 0 1534 2158 5 MP stroke
c9
0 0 13 0 0 0 1548 2158 4 MP
PP
0 sg
-13 0 0 0 13 0 0 0 1548 2158 5 MP stroke
c9
0 0 14 0 0 0 1561 2158 4 MP
PP
0 sg
-14 0 0 0 14 0 0 0 1561 2158 5 MP stroke
c9
0 0 14 0 0 0 1575 2158 4 MP
PP
0 sg
-14 0 0 0 14 0 0 0 1575 2158 5 MP stroke
c9
0 0 13 0 0 0 1589 2158 4 MP
PP
0 sg
-13 0 0 0 13 0 0 0 1589 2158 5 MP stroke
c9
0 0 14 0 0 0 1602 2158 4 MP
PP
0 sg
-14 0 0 0 14 0 0 0 1602 2158 5 MP stroke
c9
0 0 13 0 0 0 1616 2158 4 MP
PP
0 sg
-13 0 0 0 13 0 0 0 1616 2158 5 MP stroke
c9
0 0 14 0 0 0 1629 2158 4 MP
PP
0 sg
-14 0 0 0 14 0 0 0 1629 2158 5 MP stroke
c9
0 0 13 0 0 0 1643 2158 4 MP
PP
0 sg
-13 0 0 0 13 0 0 0 1643 2158 5 MP stroke
c9
0 0 14 0 0 0 1656 2158 4 MP
PP
0 sg
-14 0 0 0 14 0 0 0 1656 2158 5 MP stroke
c9
0 0 13 0 0 0 1670 2158 4 MP
PP
0 sg
-13 0 0 0 13 0 0 0 1670 2158 5 MP stroke
c9
0 0 14 0 0 0 1683 2158 4 MP
PP
0 sg
-14 0 0 0 14 0 0 0 1683 2158 5 MP stroke
c9
0 0 13 0 0 0 1697 2158 4 MP
PP
0 sg
-13 0 0 0 13 0 0 0 1697 2158 5 MP stroke
c9
0 0 14 0 0 0 1710 2158 4 MP
PP
0 sg
-14 0 0 0 14 0 0 0 1710 2158 5 MP stroke
c9
0 0 13 0 0 0 1724 2158 4 MP
PP
0 sg
-13 0 0 0 13 0 0 0 1724 2158 5 MP stroke
c9
0 0 14 0 0 0 1737 2158 4 MP
PP
0 sg
-14 0 0 0 14 0 0 0 1737 2158 5 MP stroke
c9
0 0 13 0 0 0 1751 2158 4 MP
PP
0 sg
-13 0 0 0 13 0 0 0 1751 2158 5 MP stroke
c9
0 0 14 0 0 0 1764 2158 4 MP
PP
0 sg
-14 0 0 0 14 0 0 0 1764 2158 5 MP stroke
c9
0 0 13 0 0 0 1778 2158 4 MP
PP
0 sg
-13 0 0 0 13 0 0 0 1778 2158 5 MP stroke
c9
0 0 14 0 0 0 1791 2158 4 MP
PP
0 sg
-14 0 0 0 14 0 0 0 1791 2158 5 MP stroke
c9
0 0 14 0 0 0 1805 2158 4 MP
PP
0 sg
-14 0 0 0 14 0 0 0 1805 2158 5 MP stroke
c9
0 0 13 0 0 0 1819 2158 4 MP
PP
0 sg
-13 0 0 0 13 0 0 0 1819 2158 5 MP stroke
c9
0 0 14 0 0 0 1832 2158 4 MP
PP
0 sg
-14 0 0 0 14 0 0 0 1832 2158 5 MP stroke
c9
0 0 13 0 0 0 1846 2158 4 MP
PP
0 sg
-13 0 0 0 13 0 0 0 1846 2158 5 MP stroke
c9
0 0 14 0 0 0 1859 2158 4 MP
PP
0 sg
-14 0 0 0 14 0 0 0 1859 2158 5 MP stroke
c9
0 0 13 0 0 0 1873 2158 4 MP
PP
0 sg
-13 0 0 0 13 0 0 0 1873 2158 5 MP stroke
c9
0 0 14 0 0 0 1886 2158 4 MP
PP
0 sg
-14 0 0 0 14 0 0 0 1886 2158 5 MP stroke
c9
0 36 13 0 0 -36 1900 2158 4 MP
PP
0 sg
-13 0 0 36 13 0 0 -36 1900 2158 5 MP stroke
c9
0 0 14 0 0 0 1913 2158 4 MP
PP
0 sg
-14 0 0 0 14 0 0 0 1913 2158 5 MP stroke
c9
0 0 13 0 0 0 1927 2158 4 MP
PP
0 sg
-13 0 0 0 13 0 0 0 1927 2158 5 MP stroke
c9
0 0 14 0 0 0 1940 2158 4 MP
PP
0 sg
-14 0 0 0 14 0 0 0 1940 2158 5 MP stroke
c9
0 0 13 0 0 0 1954 2158 4 MP
PP
0 sg
-13 0 0 0 13 0 0 0 1954 2158 5 MP stroke
c9
0 0 14 0 0 0 1967 2158 4 MP
PP
0 sg
-14 0 0 0 14 0 0 0 1967 2158 5 MP stroke
c9
0 0 13 0 0 0 1981 2158 4 MP
PP
0 sg
-13 0 0 0 13 0 0 0 1981 2158 5 MP stroke
c9
0 0 14 0 0 0 1994 2158 4 MP
PP
0 sg
-14 0 0 0 14 0 0 0 1994 2158 5 MP stroke
c9
0 0 13 0 0 0 2008 2158 4 MP
PP
0 sg
-13 0 0 0 13 0 0 0 2008 2158 5 MP stroke
c9
0 0 14 0 0 0 2021 2158 4 MP
PP
0 sg
-14 0 0 0 14 0 0 0 2021 2158 5 MP stroke
c9
0 0 14 0 0 0 2035 2158 4 MP
PP
0 sg
-14 0 0 0 14 0 0 0 2035 2158 5 MP stroke
c9
0 0 13 0 0 0 2049 2158 4 MP
PP
0 sg
-13 0 0 0 13 0 0 0 2049 2158 5 MP stroke
c9
0 0 14 0 0 0 2062 2158 4 MP
PP
0 sg
-14 0 0 0 14 0 0 0 2062 2158 5 MP stroke
c9
0 0 13 0 0 0 2076 2158 4 MP
PP
0 sg
-13 0 0 0 13 0 0 0 2076 2158 5 MP stroke
c9
0 0 14 0 0 0 2089 2158 4 MP
PP
0 sg
-14 0 0 0 14 0 0 0 2089 2158 5 MP stroke
c9
0 0 13 0 0 0 2103 2158 4 MP
PP
0 sg
-13 0 0 0 13 0 0 0 2103 2158 5 MP stroke
c9
0 0 14 0 0 0 2116 2158 4 MP
PP
0 sg
-14 0 0 0 14 0 0 0 2116 2158 5 MP stroke
c9
0 0 13 0 0 0 2130 2158 4 MP
PP
0 sg
-13 0 0 0 13 0 0 0 2130 2158 5 MP stroke
c9
0 0 14 0 0 0 2143 2158 4 MP
PP
0 sg
-14 0 0 0 14 0 0 0 2143 2158 5 MP stroke
c9
0 0 13 0 0 0 2157 2158 4 MP
PP
0 sg
-13 0 0 0 13 0 0 0 2157 2158 5 MP stroke
c9
0 0 14 0 0 0 2170 2158 4 MP
PP
0 sg
-14 0 0 0 14 0 0 0 2170 2158 5 MP stroke
c9
0 0 13 0 0 0 2184 2158 4 MP
PP
0 sg
-13 0 0 0 13 0 0 0 2184 2158 5 MP stroke
c9
0 0 14 0 0 0 2197 2158 4 MP
PP
0 sg
-14 0 0 0 14 0 0 0 2197 2158 5 MP stroke
c9
0 0 13 0 0 0 2211 2158 4 MP
PP
0 sg
-13 0 0 0 13 0 0 0 2211 2158 5 MP stroke
c9
0 0 14 0 0 0 2224 2158 4 MP
PP
0 sg
-14 0 0 0 14 0 0 0 2224 2158 5 MP stroke
c9
0 0 13 0 0 0 2238 2158 4 MP
PP
0 sg
-13 0 0 0 13 0 0 0 2238 2158 5 MP stroke
c9
0 0 14 0 0 0 2251 2158 4 MP
PP
0 sg
-14 0 0 0 14 0 0 0 2251 2158 5 MP stroke
c9
0 0 14 0 0 0 2265 2158 4 MP
PP
0 sg
-14 0 0 0 14 0 0 0 2265 2158 5 MP stroke
c9
0 0 13 0 0 0 2279 2158 4 MP
PP
0 sg
-13 0 0 0 13 0 0 0 2279 2158 5 MP stroke
c9
0 0 14 0 0 0 2292 2158 4 MP
PP
0 sg
-14 0 0 0 14 0 0 0 2292 2158 5 MP stroke
c9
0 0 13 0 0 0 2306 2158 4 MP
PP
0 sg
-13 0 0 0 13 0 0 0 2306 2158 5 MP stroke
c9
0 0 14 0 0 0 2319 2158 4 MP
PP
0 sg
-14 0 0 0 14 0 0 0 2319 2158 5 MP stroke
c9
0 0 13 0 0 0 2333 2158 4 MP
PP
0 sg
-13 0 0 0 13 0 0 0 2333 2158 5 MP stroke
c9
0 0 14 0 0 0 2346 2158 4 MP
PP
0 sg
-14 0 0 0 14 0 0 0 2346 2158 5 MP stroke
c9
0 0 13 0 0 0 2360 2158 4 MP
PP
0 sg
-13 0 0 0 13 0 0 0 2360 2158 5 MP stroke
c9
0 0 14 0 0 0 2373 2158 4 MP
PP
0 sg
-14 0 0 0 14 0 0 0 2373 2158 5 MP stroke
c9
0 0 13 0 0 0 2387 2158 4 MP
PP
0 sg
-13 0 0 0 13 0 0 0 2387 2158 5 MP stroke
c9
0 0 14 0 0 0 2400 2158 4 MP
PP
0 sg
-14 0 0 0 14 0 0 0 2400 2158 5 MP stroke
c9
0 0 13 0 0 0 2414 2158 4 MP
PP
0 sg
-13 0 0 0 13 0 0 0 2414 2158 5 MP stroke
c9
0 0 14 0 0 0 2427 2158 4 MP
PP
0 sg
-14 0 0 0 14 0 0 0 2427 2158 5 MP stroke
c9
0 0 13 0 0 0 2441 2158 4 MP
PP
0 sg
-13 0 0 0 13 0 0 0 2441 2158 5 MP stroke
c9
0 0 14 0 0 0 2454 2158 4 MP
PP
0 sg
-14 0 0 0 14 0 0 0 2454 2158 5 MP stroke
c9
0 0 13 0 0 0 2468 2158 4 MP
PP
0 sg
-13 0 0 0 13 0 0 0 2468 2158 5 MP stroke
c9
0 0 14 0 0 0 2481 2158 4 MP
PP
0 sg
-14 0 0 0 14 0 0 0 2481 2158 5 MP stroke
c9
0 0 14 0 0 0 2495 2158 4 MP
PP
0 sg
-14 0 0 0 14 0 0 0 2495 2158 5 MP stroke
c9
0 0 13 0 0 0 2509 2158 4 MP
PP
0 sg
-13 0 0 0 13 0 0 0 2509 2158 5 MP stroke
c9
0 0 14 0 0 0 2522 2158 4 MP
PP
0 sg
-14 0 0 0 14 0 0 0 2522 2158 5 MP stroke
c9
0 0 13 0 0 0 2536 2158 4 MP
PP
0 sg
-13 0 0 0 13 0 0 0 2536 2158 5 MP stroke
c9
0 0 14 0 0 0 2549 2158 4 MP
PP
0 sg
-14 0 0 0 14 0 0 0 2549 2158 5 MP stroke
c9
0 0 13 0 0 0 2563 2158 4 MP
PP
0 sg
-13 0 0 0 13 0 0 0 2563 2158 5 MP stroke
c9
0 0 14 0 0 0 2576 2158 4 MP
PP
0 sg
-14 0 0 0 14 0 0 0 2576 2158 5 MP stroke
c9
0 0 13 0 0 0 2590 2158 4 MP
PP
0 sg
-13 0 0 0 13 0 0 0 2590 2158 5 MP stroke
c9
0 0 14 0 0 0 2603 2158 4 MP
PP
0 sg
-14 0 0 0 14 0 0 0 2603 2158 5 MP stroke
c9
0 0 13 0 0 0 2617 2158 4 MP
PP
0 sg
-13 0 0 0 13 0 0 0 2617 2158 5 MP stroke
c9
0 0 14 0 0 0 2630 2158 4 MP
PP
0 sg
-14 0 0 0 14 0 0 0 2630 2158 5 MP stroke
c9
0 0 13 0 0 0 2644 2158 4 MP
PP
0 sg
-13 0 0 0 13 0 0 0 2644 2158 5 MP stroke
c9
0 0 14 0 0 0 2657 2158 4 MP
PP
0 sg
-14 0 0 0 14 0 0 0 2657 2158 5 MP stroke
c9
0 0 13 0 0 0 2671 2158 4 MP
PP
0 sg
-13 0 0 0 13 0 0 0 2671 2158 5 MP stroke
c9
0 0 14 0 0 0 2684 2158 4 MP
PP
0 sg
-14 0 0 0 14 0 0 0 2684 2158 5 MP stroke
c9
0 0 13 0 0 0 2698 2158 4 MP
PP
0 sg
-13 0 0 0 13 0 0 0 2698 2158 5 MP stroke
c9
0 0 14 0 0 0 2711 2158 4 MP
PP
0 sg
-14 0 0 0 14 0 0 0 2711 2158 5 MP stroke
c9
0 0 14 0 0 0 2725 2158 4 MP
PP
0 sg
-14 0 0 0 14 0 0 0 2725 2158 5 MP stroke
c9
0 0 13 0 0 0 2739 2158 4 MP
PP
0 sg
-13 0 0 0 13 0 0 0 2739 2158 5 MP stroke
c9
0 0 14 0 0 0 2752 2158 4 MP
PP
0 sg
-14 0 0 0 14 0 0 0 2752 2158 5 MP stroke
c9
0 0 13 0 0 0 2766 2158 4 MP
PP
0 sg
-13 0 0 0 13 0 0 0 2766 2158 5 MP stroke
c9
0 0 14 0 0 0 2779 2158 4 MP
PP
0 sg
-14 0 0 0 14 0 0 0 2779 2158 5 MP stroke
c9
0 0 13 0 0 0 2793 2158 4 MP
PP
0 sg
-13 0 0 0 13 0 0 0 2793 2158 5 MP stroke
c9
0 0 14 0 0 0 2806 2158 4 MP
PP
0 sg
-14 0 0 0 14 0 0 0 2806 2158 5 MP stroke
c9
0 0 13 0 0 0 2820 2158 4 MP
PP
0 sg
-13 0 0 0 13 0 0 0 2820 2158 5 MP stroke
c9
0 0 14 0 0 0 2833 2158 4 MP
PP
0 sg
-14 0 0 0 14 0 0 0 2833 2158 5 MP stroke
c9
0 0 13 0 0 0 2847 2158 4 MP
PP
0 sg
-13 0 0 0 13 0 0 0 2847 2158 5 MP stroke
c9
0 0 14 0 0 0 2860 2158 4 MP
PP
0 sg
-14 0 0 0 14 0 0 0 2860 2158 5 MP stroke
c9
0 0 13 0 0 0 2874 2158 4 MP
PP
0 sg
-13 0 0 0 13 0 0 0 2874 2158 5 MP stroke
c9
0 0 14 0 0 0 2887 2158 4 MP
PP
0 sg
-14 0 0 0 14 0 0 0 2887 2158 5 MP stroke
c9
0 0 13 0 0 0 2901 2158 4 MP
PP
0 sg
-13 0 0 0 13 0 0 0 2901 2158 5 MP stroke
c9
0 9 14 0 0 -9 2914 2158 4 MP
PP
0 sg
-14 0 0 9 14 0 0 -9 2914 2158 5 MP stroke
1819 2446 mt 
(Time \(s\)) s
 582 1434 mt  -90 rotate
(Count) s
90 rotate
1938  294 mt 
(n=2) s
1 sg
0 1769 2284 0 0 -1769 3942 2158 4 MP
PP
-2284 0 0 1769 2284 0 0 -1769 3942 2158 5 MP stroke
4 w
DO
SO
6 w
0 sg
3942 2158 mt 6226 2158 L
3942  389 mt 6226  389 L
3942 2158 mt 3942  389 L
6226 2158 mt 6226  389 L
3942 2158 mt 6226 2158 L
3942 2158 mt 3942  389 L
3942 2158 mt 3942 2135 L
3942  389 mt 3942  411 L
3909 2303 mt 
(0) s
4398 2158 mt 4398 2135 L
4398  389 mt 4398  411 L
4248 2303 mt 
(0.005) s
4855 2158 mt 4855 2135 L
4855  389 mt 4855  411 L
4739 2303 mt 
(0.01) s
5312 2158 mt 5312 2135 L
5312  389 mt 5312  411 L
5162 2303 mt 
(0.015) s
5769 2158 mt 5769 2135 L
5769  389 mt 5769  411 L
5653 2303 mt 
(0.02) s
6226 2158 mt 6226 2135 L
6226  389 mt 6226  411 L
6076 2303 mt 
(0.025) s
3942 2158 mt 3964 2158 L
6226 2158 mt 6203 2158 L
3841 2202 mt 
(0) s
3942 1715 mt 3964 1715 L
6226 1715 mt 6203 1715 L
3774 1759 mt 
(20) s
3942 1273 mt 3964 1273 L
6226 1273 mt 6203 1273 L
3774 1317 mt 
(40) s
3942  831 mt 3964  831 L
6226  831 mt 6203  831 L
3774  875 mt 
(60) s
3942  389 mt 3964  389 L
6226  389 mt 6203  389 L
3774  433 mt 
(80) s
3942 2158 mt 6226 2158 L
3942  389 mt 6226  389 L
3942 2158 mt 3942  389 L
6226 2158 mt 6226  389 L
24 w
c8
0 -1769 4246 2158 2 MP stroke
c9
0 1615 14 0 0 -1615 3942 2158 4 MP
PP
6 w
0 sg
-14 0 0 1615 14 0 0 -1615 3942 2158 5 MP stroke
c9
0 0 14 0 0 0 3956 2158 4 MP
PP
0 sg
-14 0 0 0 14 0 0 0 3956 2158 5 MP stroke
c9
0 0 14 0 0 0 3970 2158 4 MP
PP
0 sg
-14 0 0 0 14 0 0 0 3970 2158 5 MP stroke
c9
0 0 14 0 0 0 3984 2158 4 MP
PP
0 sg
-14 0 0 0 14 0 0 0 3984 2158 5 MP stroke
c9
0 0 15 0 0 0 3998 2158 4 MP
PP
0 sg
-15 0 0 0 15 0 0 0 3998 2158 5 MP stroke
c9
0 0 14 0 0 0 4013 2158 4 MP
PP
0 sg
-14 0 0 0 14 0 0 0 4013 2158 5 MP stroke
c9
0 0 14 0 0 0 4027 2158 4 MP
PP
0 sg
-14 0 0 0 14 0 0 0 4027 2158 5 MP stroke
c9
0 0 14 0 0 0 4041 2158 4 MP
PP
0 sg
-14 0 0 0 14 0 0 0 4041 2158 5 MP stroke
c9
0 0 14 0 0 0 4055 2158 4 MP
PP
0 sg
-14 0 0 0 14 0 0 0 4055 2158 5 MP stroke
c9
0 0 15 0 0 0 4069 2158 4 MP
PP
0 sg
-15 0 0 0 15 0 0 0 4069 2158 5 MP stroke
c9
0 0 14 0 0 0 4084 2158 4 MP
PP
0 sg
-14 0 0 0 14 0 0 0 4084 2158 5 MP stroke
c9
0 0 14 0 0 0 4098 2158 4 MP
PP
0 sg
-14 0 0 0 14 0 0 0 4098 2158 5 MP stroke
c9
0 0 14 0 0 0 4112 2158 4 MP
PP
0 sg
-14 0 0 0 14 0 0 0 4112 2158 5 MP stroke
c9
0 0 14 0 0 0 4126 2158 4 MP
PP
0 sg
-14 0 0 0 14 0 0 0 4126 2158 5 MP stroke
c9
0 0 15 0 0 0 4140 2158 4 MP
PP
0 sg
-15 0 0 0 15 0 0 0 4140 2158 5 MP stroke
c9
0 0 14 0 0 0 4155 2158 4 MP
PP
0 sg
-14 0 0 0 14 0 0 0 4155 2158 5 MP stroke
c9
0 0 14 0 0 0 4169 2158 4 MP
PP
0 sg
-14 0 0 0 14 0 0 0 4169 2158 5 MP stroke
c9
0 0 14 0 0 0 4183 2158 4 MP
PP
0 sg
-14 0 0 0 14 0 0 0 4183 2158 5 MP stroke
c9
0 0 15 0 0 0 4197 2158 4 MP
PP
0 sg
-15 0 0 0 15 0 0 0 4197 2158 5 MP stroke
c9
0 0 14 0 0 0 4212 2158 4 MP
PP
0 sg
-14 0 0 0 14 0 0 0 4212 2158 5 MP stroke
c9
0 0 14 0 0 0 4226 2158 4 MP
PP
0 sg
-14 0 0 0 14 0 0 0 4226 2158 5 MP stroke
c9
0 266 14 0 0 -266 4240 2158 4 MP
PP
0 sg
-14 0 0 266 14 0 0 -266 4240 2158 5 MP stroke
c9
0 0 14 0 0 0 4254 2158 4 MP
PP
0 sg
-14 0 0 0 14 0 0 0 4254 2158 5 MP stroke
c9
0 0 15 0 0 0 4268 2158 4 MP
PP
0 sg
-15 0 0 0 15 0 0 0 4268 2158 5 MP stroke
c9
0 0 14 0 0 0 4283 2158 4 MP
PP
0 sg
-14 0 0 0 14 0 0 0 4283 2158 5 MP stroke
c9
0 0 14 0 0 0 4297 2158 4 MP
PP
0 sg
-14 0 0 0 14 0 0 0 4297 2158 5 MP stroke
c9
0 0 14 0 0 0 4311 2158 4 MP
PP
0 sg
-14 0 0 0 14 0 0 0 4311 2158 5 MP stroke
c9
0 0 14 0 0 0 4325 2158 4 MP
PP
0 sg
-14 0 0 0 14 0 0 0 4325 2158 5 MP stroke
c9
0 0 15 0 0 0 4339 2158 4 MP
PP
0 sg
-15 0 0 0 15 0 0 0 4339 2158 5 MP stroke
c9
0 0 14 0 0 0 4354 2158 4 MP
PP
0 sg
-14 0 0 0 14 0 0 0 4354 2158 5 MP stroke
c9
0 0 14 0 0 0 4368 2158 4 MP
PP
0 sg
-14 0 0 0 14 0 0 0 4368 2158 5 MP stroke
c9
0 0 14 0 0 0 4382 2158 4 MP
PP
0 sg
-14 0 0 0 14 0 0 0 4382 2158 5 MP stroke
c9
0 0 14 0 0 0 4396 2158 4 MP
PP
0 sg
-14 0 0 0 14 0 0 0 4396 2158 5 MP stroke
c9
0 0 15 0 0 0 4410 2158 4 MP
PP
0 sg
-15 0 0 0 15 0 0 0 4410 2158 5 MP stroke
c9
0 0 14 0 0 0 4425 2158 4 MP
PP
0 sg
-14 0 0 0 14 0 0 0 4425 2158 5 MP stroke
c9
0 0 14 0 0 0 4439 2158 4 MP
PP
0 sg
-14 0 0 0 14 0 0 0 4439 2158 5 MP stroke
c9
0 0 14 0 0 0 4453 2158 4 MP
PP
0 sg
-14 0 0 0 14 0 0 0 4453 2158 5 MP stroke
c9
0 0 15 0 0 0 4467 2158 4 MP
PP
0 sg
-15 0 0 0 15 0 0 0 4467 2158 5 MP stroke
c9
0 0 14 0 0 0 4482 2158 4 MP
PP
0 sg
-14 0 0 0 14 0 0 0 4482 2158 5 MP stroke
c9
0 0 14 0 0 0 4496 2158 4 MP
PP
0 sg
-14 0 0 0 14 0 0 0 4496 2158 5 MP stroke
c9
0 0 14 0 0 0 4510 2158 4 MP
PP
0 sg
-14 0 0 0 14 0 0 0 4510 2158 5 MP stroke
c9
0 0 14 0 0 0 4524 2158 4 MP
PP
0 sg
-14 0 0 0 14 0 0 0 4524 2158 5 MP stroke
c9
0 1150 15 0 0 -1150 4538 2158 4 MP
PP
0 sg
-15 0 0 1150 15 0 0 -1150 4538 2158 5 MP stroke
c9
0 0 14 0 0 0 4553 2158 4 MP
PP
0 sg
-14 0 0 0 14 0 0 0 4553 2158 5 MP stroke
c9
0 0 14 0 0 0 4567 2158 4 MP
PP
0 sg
-14 0 0 0 14 0 0 0 4567 2158 5 MP stroke
c9
0 0 14 0 0 0 4581 2158 4 MP
PP
0 sg
-14 0 0 0 14 0 0 0 4581 2158 5 MP stroke
c9
0 0 14 0 0 0 4595 2158 4 MP
PP
0 sg
-14 0 0 0 14 0 0 0 4595 2158 5 MP stroke
c9
0 0 15 0 0 0 4609 2158 4 MP
PP
0 sg
-15 0 0 0 15 0 0 0 4609 2158 5 MP stroke
c9
0 0 14 0 0 0 4624 2158 4 MP
PP
0 sg
-14 0 0 0 14 0 0 0 4624 2158 5 MP stroke
c9
0 0 14 0 0 0 4638 2158 4 MP
PP
0 sg
-14 0 0 0 14 0 0 0 4638 2158 5 MP stroke
c9
0 0 14 0 0 0 4652 2158 4 MP
PP
0 sg
-14 0 0 0 14 0 0 0 4652 2158 5 MP stroke
c9
0 0 15 0 0 0 4666 2158 4 MP
PP
0 sg
-15 0 0 0 15 0 0 0 4666 2158 5 MP stroke
c9
0 0 14 0 0 0 4681 2158 4 MP
PP
0 sg
-14 0 0 0 14 0 0 0 4681 2158 5 MP stroke
c9
0 0 14 0 0 0 4695 2158 4 MP
PP
0 sg
-14 0 0 0 14 0 0 0 4695 2158 5 MP stroke
c9
0 0 14 0 0 0 4709 2158 4 MP
PP
0 sg
-14 0 0 0 14 0 0 0 4709 2158 5 MP stroke
c9
0 0 14 0 0 0 4723 2158 4 MP
PP
0 sg
-14 0 0 0 14 0 0 0 4723 2158 5 MP stroke
c9
0 0 15 0 0 0 4737 2158 4 MP
PP
0 sg
-15 0 0 0 15 0 0 0 4737 2158 5 MP stroke
c9
0 0 14 0 0 0 4752 2158 4 MP
PP
0 sg
-14 0 0 0 14 0 0 0 4752 2158 5 MP stroke
c9
0 0 14 0 0 0 4766 2158 4 MP
PP
0 sg
-14 0 0 0 14 0 0 0 4766 2158 5 MP stroke
c9
0 0 14 0 0 0 4780 2158 4 MP
PP
0 sg
-14 0 0 0 14 0 0 0 4780 2158 5 MP stroke
c9
0 0 14 0 0 0 4794 2158 4 MP
PP
0 sg
-14 0 0 0 14 0 0 0 4794 2158 5 MP stroke
c9
0 0 15 0 0 0 4808 2158 4 MP
PP
0 sg
-15 0 0 0 15 0 0 0 4808 2158 5 MP stroke
c9
0 0 14 0 0 0 4823 2158 4 MP
PP
0 sg
-14 0 0 0 14 0 0 0 4823 2158 5 MP stroke
c9
0 0 14 0 0 0 4837 2158 4 MP
PP
0 sg
-14 0 0 0 14 0 0 0 4837 2158 5 MP stroke
c9
0 111 14 0 0 -111 4851 2158 4 MP
PP
0 sg
-14 0 0 111 14 0 0 -111 4851 2158 5 MP stroke
c9
0 0 14 0 0 0 4865 2158 4 MP
PP
0 sg
-14 0 0 0 14 0 0 0 4865 2158 5 MP stroke
c9
0 0 15 0 0 0 4879 2158 4 MP
PP
0 sg
-15 0 0 0 15 0 0 0 4879 2158 5 MP stroke
c9
0 0 14 0 0 0 4894 2158 4 MP
PP
0 sg
-14 0 0 0 14 0 0 0 4894 2158 5 MP stroke
c9
0 0 14 0 0 0 4908 2158 4 MP
PP
0 sg
-14 0 0 0 14 0 0 0 4908 2158 5 MP stroke
c9
0 0 14 0 0 0 4922 2158 4 MP
PP
0 sg
-14 0 0 0 14 0 0 0 4922 2158 5 MP stroke
c9
0 0 15 0 0 0 4936 2158 4 MP
PP
0 sg
-15 0 0 0 15 0 0 0 4936 2158 5 MP stroke
c9
0 0 14 0 0 0 4951 2158 4 MP
PP
0 sg
-14 0 0 0 14 0 0 0 4951 2158 5 MP stroke
c9
0 0 14 0 0 0 4965 2158 4 MP
PP
0 sg
-14 0 0 0 14 0 0 0 4965 2158 5 MP stroke
c9
0 0 14 0 0 0 4979 2158 4 MP
PP
0 sg
-14 0 0 0 14 0 0 0 4979 2158 5 MP stroke
c9
0 0 14 0 0 0 4993 2158 4 MP
PP
0 sg
-14 0 0 0 14 0 0 0 4993 2158 5 MP stroke
c9
0 0 15 0 0 0 5007 2158 4 MP
PP
0 sg
-15 0 0 0 15 0 0 0 5007 2158 5 MP stroke
c9
0 0 14 0 0 0 5022 2158 4 MP
PP
0 sg
-14 0 0 0 14 0 0 0 5022 2158 5 MP stroke
c9
0 0 14 0 0 0 5036 2158 4 MP
PP
0 sg
-14 0 0 0 14 0 0 0 5036 2158 5 MP stroke
c9
0 0 14 0 0 0 5050 2158 4 MP
PP
0 sg
-14 0 0 0 14 0 0 0 5050 2158 5 MP stroke
c9
0 0 14 0 0 0 5064 2158 4 MP
PP
0 sg
-14 0 0 0 14 0 0 0 5064 2158 5 MP stroke
c9
0 0 15 0 0 0 5078 2158 4 MP
PP
0 sg
-15 0 0 0 15 0 0 0 5078 2158 5 MP stroke
c9
0 0 14 0 0 0 5093 2158 4 MP
PP
0 sg
-14 0 0 0 14 0 0 0 5093 2158 5 MP stroke
c9
0 0 14 0 0 0 5107 2158 4 MP
PP
0 sg
-14 0 0 0 14 0 0 0 5107 2158 5 MP stroke
c9
0 0 14 0 0 0 5121 2158 4 MP
PP
0 sg
-14 0 0 0 14 0 0 0 5121 2158 5 MP stroke
c9
0 0 15 0 0 0 5135 2158 4 MP
PP
0 sg
-15 0 0 0 15 0 0 0 5135 2158 5 MP stroke
c9
0 89 14 0 0 -89 5150 2158 4 MP
PP
0 sg
-14 0 0 89 14 0 0 -89 5150 2158 5 MP stroke
c9
0 0 14 0 0 0 5164 2158 4 MP
PP
0 sg
-14 0 0 0 14 0 0 0 5164 2158 5 MP stroke
c9
0 0 14 0 0 0 5178 2158 4 MP
PP
0 sg
-14 0 0 0 14 0 0 0 5178 2158 5 MP stroke
c9
0 0 14 0 0 0 5192 2158 4 MP
PP
0 sg
-14 0 0 0 14 0 0 0 5192 2158 5 MP stroke
c9
0 0 15 0 0 0 5206 2158 4 MP
PP
0 sg
-15 0 0 0 15 0 0 0 5206 2158 5 MP stroke
c9
0 0 14 0 0 0 5221 2158 4 MP
PP
0 sg
-14 0 0 0 14 0 0 0 5221 2158 5 MP stroke
c9
0 0 14 0 0 0 5235 2158 4 MP
PP
0 sg
-14 0 0 0 14 0 0 0 5235 2158 5 MP stroke
c9
0 0 14 0 0 0 5249 2158 4 MP
PP
0 sg
-14 0 0 0 14 0 0 0 5249 2158 5 MP stroke
c9
0 0 14 0 0 0 5263 2158 4 MP
PP
0 sg
-14 0 0 0 14 0 0 0 5263 2158 5 MP stroke
c9
0 0 15 0 0 0 5277 2158 4 MP
PP
0 sg
-15 0 0 0 15 0 0 0 5277 2158 5 MP stroke
c9
0 0 14 0 0 0 5292 2158 4 MP
PP
0 sg
-14 0 0 0 14 0 0 0 5292 2158 5 MP stroke
c9
0 0 14 0 0 0 5306 2158 4 MP
PP
0 sg
-14 0 0 0 14 0 0 0 5306 2158 5 MP stroke
c9
0 0 14 0 0 0 5320 2158 4 MP
PP
0 sg
-14 0 0 0 14 0 0 0 5320 2158 5 MP stroke
c9
0 0 14 0 0 0 5334 2158 4 MP
PP
0 sg
-14 0 0 0 14 0 0 0 5334 2158 5 MP stroke
c9
0 0 15 0 0 0 5348 2158 4 MP
PP
0 sg
-15 0 0 0 15 0 0 0 5348 2158 5 MP stroke
c9
0 0 14 0 0 0 5363 2158 4 MP
PP
0 sg
-14 0 0 0 14 0 0 0 5363 2158 5 MP stroke
c9
0 0 14 0 0 0 5377 2158 4 MP
PP
0 sg
-14 0 0 0 14 0 0 0 5377 2158 5 MP stroke
c9
0 0 14 0 0 0 5391 2158 4 MP
PP
0 sg
-14 0 0 0 14 0 0 0 5391 2158 5 MP stroke
c9
0 0 15 0 0 0 5405 2158 4 MP
PP
0 sg
-15 0 0 0 15 0 0 0 5405 2158 5 MP stroke
c9
0 0 14 0 0 0 5420 2158 4 MP
PP
0 sg
-14 0 0 0 14 0 0 0 5420 2158 5 MP stroke
c9
0 0 14 0 0 0 5434 2158 4 MP
PP
0 sg
-14 0 0 0 14 0 0 0 5434 2158 5 MP stroke
c9
0 0 14 0 0 0 5448 2158 4 MP
PP
0 sg
-14 0 0 0 14 0 0 0 5448 2158 5 MP stroke
c9
0 23 14 0 0 -23 5462 2158 4 MP
PP
0 sg
-14 0 0 23 14 0 0 -23 5462 2158 5 MP stroke
c9
0 0 15 0 0 0 5476 2158 4 MP
PP
0 sg
-15 0 0 0 15 0 0 0 5476 2158 5 MP stroke
c9
0 0 14 0 0 0 5491 2158 4 MP
PP
0 sg
-14 0 0 0 14 0 0 0 5491 2158 5 MP stroke
c9
0 0 14 0 0 0 5505 2158 4 MP
PP
0 sg
-14 0 0 0 14 0 0 0 5505 2158 5 MP stroke
c9
0 0 14 0 0 0 5519 2158 4 MP
PP
0 sg
-14 0 0 0 14 0 0 0 5519 2158 5 MP stroke
c9
0 0 14 0 0 0 5533 2158 4 MP
PP
0 sg
-14 0 0 0 14 0 0 0 5533 2158 5 MP stroke
c9
0 0 15 0 0 0 5547 2158 4 MP
PP
0 sg
-15 0 0 0 15 0 0 0 5547 2158 5 MP stroke
c9
0 0 14 0 0 0 5562 2158 4 MP
PP
0 sg
-14 0 0 0 14 0 0 0 5562 2158 5 MP stroke
c9
0 0 14 0 0 0 5576 2158 4 MP
PP
0 sg
-14 0 0 0 14 0 0 0 5576 2158 5 MP stroke
c9
0 0 14 0 0 0 5590 2158 4 MP
PP
0 sg
-14 0 0 0 14 0 0 0 5590 2158 5 MP stroke
c9
0 0 15 0 0 0 5604 2158 4 MP
PP
0 sg
-15 0 0 0 15 0 0 0 5604 2158 5 MP stroke
c9
0 0 14 0 0 0 5619 2158 4 MP
PP
0 sg
-14 0 0 0 14 0 0 0 5619 2158 5 MP stroke
c9
0 0 14 0 0 0 5633 2158 4 MP
PP
0 sg
-14 0 0 0 14 0 0 0 5633 2158 5 MP stroke
c9
0 0 14 0 0 0 5647 2158 4 MP
PP
0 sg
-14 0 0 0 14 0 0 0 5647 2158 5 MP stroke
c9
0 0 14 0 0 0 5661 2158 4 MP
PP
0 sg
-14 0 0 0 14 0 0 0 5661 2158 5 MP stroke
c9
0 0 15 0 0 0 5675 2158 4 MP
PP
0 sg
-15 0 0 0 15 0 0 0 5675 2158 5 MP stroke
c9
0 0 14 0 0 0 5690 2158 4 MP
PP
0 sg
-14 0 0 0 14 0 0 0 5690 2158 5 MP stroke
c9
0 0 14 0 0 0 5704 2158 4 MP
PP
0 sg
-14 0 0 0 14 0 0 0 5704 2158 5 MP stroke
c9
0 0 14 0 0 0 5718 2158 4 MP
PP
0 sg
-14 0 0 0 14 0 0 0 5718 2158 5 MP stroke
c9
0 0 14 0 0 0 5732 2158 4 MP
PP
0 sg
-14 0 0 0 14 0 0 0 5732 2158 5 MP stroke
c9
0 0 15 0 0 0 5746 2158 4 MP
PP
0 sg
-15 0 0 0 15 0 0 0 5746 2158 5 MP stroke
c9
0 23 14 0 0 -23 5761 2158 4 MP
PP
0 sg
-14 0 0 23 14 0 0 -23 5761 2158 5 MP stroke
c9
0 0 14 0 0 0 5775 2158 4 MP
PP
0 sg
-14 0 0 0 14 0 0 0 5775 2158 5 MP stroke
c9
0 0 14 0 0 0 5789 2158 4 MP
PP
0 sg
-14 0 0 0 14 0 0 0 5789 2158 5 MP stroke
c9
0 0 14 0 0 0 5803 2158 4 MP
PP
0 sg
-14 0 0 0 14 0 0 0 5803 2158 5 MP stroke
c9
0 0 15 0 0 0 5817 2158 4 MP
PP
0 sg
-15 0 0 0 15 0 0 0 5817 2158 5 MP stroke
c9
0 0 14 0 0 0 5832 2158 4 MP
PP
0 sg
-14 0 0 0 14 0 0 0 5832 2158 5 MP stroke
c9
0 0 14 0 0 0 5846 2158 4 MP
PP
0 sg
-14 0 0 0 14 0 0 0 5846 2158 5 MP stroke
c9
0 0 14 0 0 0 5860 2158 4 MP
PP
0 sg
-14 0 0 0 14 0 0 0 5860 2158 5 MP stroke
c9
0 0 15 0 0 0 5874 2158 4 MP
PP
0 sg
-15 0 0 0 15 0 0 0 5874 2158 5 MP stroke
c9
0 0 14 0 0 0 5889 2158 4 MP
PP
0 sg
-14 0 0 0 14 0 0 0 5889 2158 5 MP stroke
c9
0 0 14 0 0 0 5903 2158 4 MP
PP
0 sg
-14 0 0 0 14 0 0 0 5903 2158 5 MP stroke
c9
0 0 14 0 0 0 5917 2158 4 MP
PP
0 sg
-14 0 0 0 14 0 0 0 5917 2158 5 MP stroke
c9
0 0 14 0 0 0 5931 2158 4 MP
PP
0 sg
-14 0 0 0 14 0 0 0 5931 2158 5 MP stroke
c9
0 0 15 0 0 0 5945 2158 4 MP
PP
0 sg
-15 0 0 0 15 0 0 0 5945 2158 5 MP stroke
c9
0 0 14 0 0 0 5960 2158 4 MP
PP
0 sg
-14 0 0 0 14 0 0 0 5960 2158 5 MP stroke
c9
0 0 14 0 0 0 5974 2158 4 MP
PP
0 sg
-14 0 0 0 14 0 0 0 5974 2158 5 MP stroke
c9
0 0 14 0 0 0 5988 2158 4 MP
PP
0 sg
-14 0 0 0 14 0 0 0 5988 2158 5 MP stroke
c9
0 0 14 0 0 0 6002 2158 4 MP
PP
0 sg
-14 0 0 0 14 0 0 0 6002 2158 5 MP stroke
c9
0 0 15 0 0 0 6016 2158 4 MP
PP
0 sg
-15 0 0 0 15 0 0 0 6016 2158 5 MP stroke
c9
0 0 14 0 0 0 6031 2158 4 MP
PP
0 sg
-14 0 0 0 14 0 0 0 6031 2158 5 MP stroke
c9
0 0 14 0 0 0 6045 2158 4 MP
PP
0 sg
-14 0 0 0 14 0 0 0 6045 2158 5 MP stroke
c9
0 45 14 0 0 -45 6059 2158 4 MP
PP
0 sg
-14 0 0 45 14 0 0 -45 6059 2158 5 MP stroke
4863 2446 mt 
(Time \(s\)) s
3692 1434 mt  -90 rotate
(Count) s
90 rotate
4981  294 mt 
(n=3) s
1 sg
0 1769 2283 0 0 -1769 899 4615 4 MP
PP
-2283 0 0 1769 2283 0 0 -1769 899 4615 5 MP stroke
4 w
DO
SO
6 w
0 sg
 899 4615 mt 3182 4615 L
 899 2846 mt 3182 2846 L
 899 4615 mt  899 2846 L
3182 4615 mt 3182 2846 L
 899 4615 mt 3182 4615 L
 899 4615 mt  899 2846 L
 899 4615 mt  899 4592 L
 899 2846 mt  899 2868 L
 866 4760 mt 
(0) s
1469 4615 mt 1469 4592 L
1469 2846 mt 1469 2868 L
1386 4760 mt 
(0.2) s
2040 4615 mt 2040 4592 L
2040 2846 mt 2040 2868 L
1957 4760 mt 
(0.4) s
2611 4615 mt 2611 4592 L
2611 2846 mt 2611 2868 L
2528 4760 mt 
(0.6) s
3182 4615 mt 3182 4592 L
3182 2846 mt 3182 2868 L
3099 4760 mt 
(0.8) s
 899 4615 mt  921 4615 L
3182 4615 mt 3159 4615 L
 798 4659 mt 
(0) s
 899 4362 mt  921 4362 L
3182 4362 mt 3159 4362 L
 731 4406 mt 
(10) s
 899 4109 mt  921 4109 L
3182 4109 mt 3159 4109 L
 731 4153 mt 
(20) s
 899 3856 mt  921 3856 L
3182 3856 mt 3159 3856 L
 731 3900 mt 
(30) s
 899 3604 mt  921 3604 L
3182 3604 mt 3159 3604 L
 731 3648 mt 
(40) s
 899 3351 mt  921 3351 L
3182 3351 mt 3159 3351 L
 731 3395 mt 
(50) s
 899 3098 mt  921 3098 L
3182 3098 mt 3159 3098 L
 731 3142 mt 
(60) s
 899 2846 mt  921 2846 L
3182 2846 mt 3159 2846 L
 731 2890 mt 
(70) s
 899 4615 mt 3182 4615 L
 899 2846 mt 3182 2846 L
 899 4615 mt  899 2846 L
3182 4615 mt 3182 2846 L
24 w
c8
0 -1769 937 4615 2 MP stroke
c9
0 1643 11 0 0 -1643 908 4615 4 MP
PP
6 w
0 sg
-11 0 0 1643 11 0 0 -1643 908 4615 5 MP stroke
c9
0 860 11 0 0 -860 919 4615 4 MP
PP
0 sg
-11 0 0 860 11 0 0 -860 919 4615 5 MP stroke
c9
0 582 11 0 0 -582 930 4615 4 MP
PP
0 sg
-11 0 0 582 11 0 0 -582 930 4615 5 MP stroke
c9
0 481 11 0 0 -481 941 4615 4 MP
PP
0 sg
-11 0 0 481 11 0 0 -481 941 4615 5 MP stroke
c9
0 329 11 0 0 -329 952 4615 4 MP
PP
0 sg
-11 0 0 329 11 0 0 -329 952 4615 5 MP stroke
c9
0 203 11 0 0 -203 963 4615 4 MP
PP
0 sg
-11 0 0 203 11 0 0 -203 963 4615 5 MP stroke
c9
0 203 11 0 0 -203 974 4615 4 MP
PP
0 sg
-11 0 0 203 11 0 0 -203 974 4615 5 MP stroke
c9
0 152 11 0 0 -152 985 4615 4 MP
PP
0 sg
-11 0 0 152 11 0 0 -152 985 4615 5 MP stroke
c9
0 76 11 0 0 -76 996 4615 4 MP
PP
0 sg
-11 0 0 76 11 0 0 -76 996 4615 5 MP stroke
c9
0 26 11 0 0 -26 1007 4615 4 MP
PP
0 sg
-11 0 0 26 11 0 0 -26 1007 4615 5 MP stroke
c9
0 0 11 0 0 0 1018 4615 4 MP
PP
0 sg
-11 0 0 0 11 0 0 0 1018 4615 5 MP stroke
c9
0 51 11 0 0 -51 1029 4615 4 MP
PP
0 sg
-11 0 0 51 11 0 0 -51 1029 4615 5 MP stroke
c9
0 76 11 0 0 -76 1040 4615 4 MP
PP
0 sg
-11 0 0 76 11 0 0 -76 1040 4615 5 MP stroke
c9
0 76 11 0 0 -76 1051 4615 4 MP
PP
0 sg
-11 0 0 76 11 0 0 -76 1051 4615 5 MP stroke
c9
0 0 12 0 0 0 1062 4615 4 MP
PP
0 sg
-12 0 0 0 12 0 0 0 1062 4615 5 MP stroke
c9
0 26 11 0 0 -26 1074 4615 4 MP
PP
0 sg
-11 0 0 26 11 0 0 -26 1074 4615 5 MP stroke
c9
0 26 11 0 0 -26 1085 4615 4 MP
PP
0 sg
-11 0 0 26 11 0 0 -26 1085 4615 5 MP stroke
c9
0 0 11 0 0 0 1096 4615 4 MP
PP
0 sg
-11 0 0 0 11 0 0 0 1096 4615 5 MP stroke
c9
0 26 11 0 0 -26 1107 4615 4 MP
PP
0 sg
-11 0 0 26 11 0 0 -26 1107 4615 5 MP stroke
c9
0 0 11 0 0 0 1118 4615 4 MP
PP
0 sg
-11 0 0 0 11 0 0 0 1118 4615 5 MP stroke
c9
0 0 11 0 0 0 1129 4615 4 MP
PP
0 sg
-11 0 0 0 11 0 0 0 1129 4615 5 MP stroke
c9
0 0 11 0 0 0 1140 4615 4 MP
PP
0 sg
-11 0 0 0 11 0 0 0 1140 4615 5 MP stroke
c9
0 26 11 0 0 -26 1151 4615 4 MP
PP
0 sg
-11 0 0 26 11 0 0 -26 1151 4615 5 MP stroke
c9
0 26 11 0 0 -26 1162 4615 4 MP
PP
0 sg
-11 0 0 26 11 0 0 -26 1162 4615 5 MP stroke
c9
0 0 11 0 0 0 1173 4615 4 MP
PP
0 sg
-11 0 0 0 11 0 0 0 1173 4615 5 MP stroke
c9
0 0 11 0 0 0 1184 4615 4 MP
PP
0 sg
-11 0 0 0 11 0 0 0 1184 4615 5 MP stroke
c9
0 0 11 0 0 0 1195 4615 4 MP
PP
0 sg
-11 0 0 0 11 0 0 0 1195 4615 5 MP stroke
c9
0 0 11 0 0 0 1206 4615 4 MP
PP
0 sg
-11 0 0 0 11 0 0 0 1206 4615 5 MP stroke
c9
0 0 11 0 0 0 1217 4615 4 MP
PP
0 sg
-11 0 0 0 11 0 0 0 1217 4615 5 MP stroke
c9
0 0 11 0 0 0 1228 4615 4 MP
PP
0 sg
-11 0 0 0 11 0 0 0 1228 4615 5 MP stroke
c9
0 0 11 0 0 0 1239 4615 4 MP
PP
0 sg
-11 0 0 0 11 0 0 0 1239 4615 5 MP stroke
c9
0 0 11 0 0 0 1250 4615 4 MP
PP
0 sg
-11 0 0 0 11 0 0 0 1250 4615 5 MP stroke
c9
0 0 11 0 0 0 1261 4615 4 MP
PP
0 sg
-11 0 0 0 11 0 0 0 1261 4615 5 MP stroke
c9
0 0 11 0 0 0 1272 4615 4 MP
PP
0 sg
-11 0 0 0 11 0 0 0 1272 4615 5 MP stroke
c9
0 26 11 0 0 -26 1283 4615 4 MP
PP
0 sg
-11 0 0 26 11 0 0 -26 1283 4615 5 MP stroke
c9
0 0 11 0 0 0 1294 4615 4 MP
PP
0 sg
-11 0 0 0 11 0 0 0 1294 4615 5 MP stroke
c9
0 0 11 0 0 0 1305 4615 4 MP
PP
0 sg
-11 0 0 0 11 0 0 0 1305 4615 5 MP stroke
c9
0 0 11 0 0 0 1316 4615 4 MP
PP
0 sg
-11 0 0 0 11 0 0 0 1316 4615 5 MP stroke
c9
0 26 11 0 0 -26 1327 4615 4 MP
PP
0 sg
-11 0 0 26 11 0 0 -26 1327 4615 5 MP stroke
c9
0 0 11 0 0 0 1338 4615 4 MP
PP
0 sg
-11 0 0 0 11 0 0 0 1338 4615 5 MP stroke
c9
0 0 11 0 0 0 1349 4615 4 MP
PP
0 sg
-11 0 0 0 11 0 0 0 1349 4615 5 MP stroke
c9
0 0 11 0 0 0 1360 4615 4 MP
PP
0 sg
-11 0 0 0 11 0 0 0 1360 4615 5 MP stroke
c9
0 0 11 0 0 0 1371 4615 4 MP
PP
0 sg
-11 0 0 0 11 0 0 0 1371 4615 5 MP stroke
c9
0 0 12 0 0 0 1382 4615 4 MP
PP
0 sg
-12 0 0 0 12 0 0 0 1382 4615 5 MP stroke
c9
0 0 11 0 0 0 1394 4615 4 MP
PP
0 sg
-11 0 0 0 11 0 0 0 1394 4615 5 MP stroke
c9
0 0 11 0 0 0 1405 4615 4 MP
PP
0 sg
-11 0 0 0 11 0 0 0 1405 4615 5 MP stroke
c9
0 0 11 0 0 0 1416 4615 4 MP
PP
0 sg
-11 0 0 0 11 0 0 0 1416 4615 5 MP stroke
c9
0 0 11 0 0 0 1427 4615 4 MP
PP
0 sg
-11 0 0 0 11 0 0 0 1427 4615 5 MP stroke
c9
0 0 11 0 0 0 1438 4615 4 MP
PP
0 sg
-11 0 0 0 11 0 0 0 1438 4615 5 MP stroke
c9
0 0 11 0 0 0 1449 4615 4 MP
PP
0 sg
-11 0 0 0 11 0 0 0 1449 4615 5 MP stroke
c9
0 0 11 0 0 0 1460 4615 4 MP
PP
0 sg
-11 0 0 0 11 0 0 0 1460 4615 5 MP stroke
c9
0 0 11 0 0 0 1471 4615 4 MP
PP
0 sg
-11 0 0 0 11 0 0 0 1471 4615 5 MP stroke
c9
0 26 11 0 0 -26 1482 4615 4 MP
PP
0 sg
-11 0 0 26 11 0 0 -26 1482 4615 5 MP stroke
c9
0 0 11 0 0 0 1493 4615 4 MP
PP
0 sg
-11 0 0 0 11 0 0 0 1493 4615 5 MP stroke
c9
0 0 11 0 0 0 1504 4615 4 MP
PP
0 sg
-11 0 0 0 11 0 0 0 1504 4615 5 MP stroke
c9
0 0 11 0 0 0 1515 4615 4 MP
PP
0 sg
-11 0 0 0 11 0 0 0 1515 4615 5 MP stroke
c9
0 0 11 0 0 0 1526 4615 4 MP
PP
0 sg
-11 0 0 0 11 0 0 0 1526 4615 5 MP stroke
c9
0 0 11 0 0 0 1537 4615 4 MP
PP
0 sg
-11 0 0 0 11 0 0 0 1537 4615 5 MP stroke
c9
0 0 11 0 0 0 1548 4615 4 MP
PP
0 sg
-11 0 0 0 11 0 0 0 1548 4615 5 MP stroke
c9
0 0 11 0 0 0 1559 4615 4 MP
PP
0 sg
-11 0 0 0 11 0 0 0 1559 4615 5 MP stroke
c9
0 0 11 0 0 0 1570 4615 4 MP
PP
0 sg
-11 0 0 0 11 0 0 0 1570 4615 5 MP stroke
c9
0 0 11 0 0 0 1581 4615 4 MP
PP
0 sg
-11 0 0 0 11 0 0 0 1581 4615 5 MP stroke
c9
0 0 11 0 0 0 1592 4615 4 MP
PP
0 sg
-11 0 0 0 11 0 0 0 1592 4615 5 MP stroke
c9
0 0 11 0 0 0 1603 4615 4 MP
PP
0 sg
-11 0 0 0 11 0 0 0 1603 4615 5 MP stroke
c9
0 0 11 0 0 0 1614 4615 4 MP
PP
0 sg
-11 0 0 0 11 0 0 0 1614 4615 5 MP stroke
c9
0 0 11 0 0 0 1625 4615 4 MP
PP
0 sg
-11 0 0 0 11 0 0 0 1625 4615 5 MP stroke
c9
0 0 11 0 0 0 1636 4615 4 MP
PP
0 sg
-11 0 0 0 11 0 0 0 1636 4615 5 MP stroke
c9
0 0 11 0 0 0 1647 4615 4 MP
PP
0 sg
-11 0 0 0 11 0 0 0 1647 4615 5 MP stroke
c9
0 0 11 0 0 0 1658 4615 4 MP
PP
0 sg
-11 0 0 0 11 0 0 0 1658 4615 5 MP stroke
c9
0 0 11 0 0 0 1669 4615 4 MP
PP
0 sg
-11 0 0 0 11 0 0 0 1669 4615 5 MP stroke
c9
0 0 11 0 0 0 1680 4615 4 MP
PP
0 sg
-11 0 0 0 11 0 0 0 1680 4615 5 MP stroke
c9
0 0 11 0 0 0 1691 4615 4 MP
PP
0 sg
-11 0 0 0 11 0 0 0 1691 4615 5 MP stroke
c9
0 0 12 0 0 0 1702 4615 4 MP
PP
0 sg
-12 0 0 0 12 0 0 0 1702 4615 5 MP stroke
c9
0 0 11 0 0 0 1714 4615 4 MP
PP
0 sg
-11 0 0 0 11 0 0 0 1714 4615 5 MP stroke
c9
0 0 11 0 0 0 1725 4615 4 MP
PP
0 sg
-11 0 0 0 11 0 0 0 1725 4615 5 MP stroke
c9
0 0 11 0 0 0 1736 4615 4 MP
PP
0 sg
-11 0 0 0 11 0 0 0 1736 4615 5 MP stroke
c9
0 0 11 0 0 0 1747 4615 4 MP
PP
0 sg
-11 0 0 0 11 0 0 0 1747 4615 5 MP stroke
c9
0 0 11 0 0 0 1758 4615 4 MP
PP
0 sg
-11 0 0 0 11 0 0 0 1758 4615 5 MP stroke
c9
0 0 11 0 0 0 1769 4615 4 MP
PP
0 sg
-11 0 0 0 11 0 0 0 1769 4615 5 MP stroke
c9
0 0 11 0 0 0 1780 4615 4 MP
PP
0 sg
-11 0 0 0 11 0 0 0 1780 4615 5 MP stroke
c9
0 0 11 0 0 0 1791 4615 4 MP
PP
0 sg
-11 0 0 0 11 0 0 0 1791 4615 5 MP stroke
c9
0 0 11 0 0 0 1802 4615 4 MP
PP
0 sg
-11 0 0 0 11 0 0 0 1802 4615 5 MP stroke
c9
0 0 11 0 0 0 1813 4615 4 MP
PP
0 sg
-11 0 0 0 11 0 0 0 1813 4615 5 MP stroke
c9
0 26 11 0 0 -26 1824 4615 4 MP
PP
0 sg
-11 0 0 26 11 0 0 -26 1824 4615 5 MP stroke
c9
0 0 11 0 0 0 1835 4615 4 MP
PP
0 sg
-11 0 0 0 11 0 0 0 1835 4615 5 MP stroke
c9
0 0 11 0 0 0 1846 4615 4 MP
PP
0 sg
-11 0 0 0 11 0 0 0 1846 4615 5 MP stroke
c9
0 0 11 0 0 0 1857 4615 4 MP
PP
0 sg
-11 0 0 0 11 0 0 0 1857 4615 5 MP stroke
c9
0 0 11 0 0 0 1868 4615 4 MP
PP
0 sg
-11 0 0 0 11 0 0 0 1868 4615 5 MP stroke
c9
0 0 11 0 0 0 1879 4615 4 MP
PP
0 sg
-11 0 0 0 11 0 0 0 1879 4615 5 MP stroke
c9
0 0 11 0 0 0 1890 4615 4 MP
PP
0 sg
-11 0 0 0 11 0 0 0 1890 4615 5 MP stroke
c9
0 0 11 0 0 0 1901 4615 4 MP
PP
0 sg
-11 0 0 0 11 0 0 0 1901 4615 5 MP stroke
c9
0 0 11 0 0 0 1912 4615 4 MP
PP
0 sg
-11 0 0 0 11 0 0 0 1912 4615 5 MP stroke
c9
0 0 11 0 0 0 1923 4615 4 MP
PP
0 sg
-11 0 0 0 11 0 0 0 1923 4615 5 MP stroke
c9
0 0 11 0 0 0 1934 4615 4 MP
PP
0 sg
-11 0 0 0 11 0 0 0 1934 4615 5 MP stroke
c9
0 0 11 0 0 0 1945 4615 4 MP
PP
0 sg
-11 0 0 0 11 0 0 0 1945 4615 5 MP stroke
c9
0 0 11 0 0 0 1956 4615 4 MP
PP
0 sg
-11 0 0 0 11 0 0 0 1956 4615 5 MP stroke
c9
0 0 11 0 0 0 1967 4615 4 MP
PP
0 sg
-11 0 0 0 11 0 0 0 1967 4615 5 MP stroke
c9
0 0 11 0 0 0 1978 4615 4 MP
PP
0 sg
-11 0 0 0 11 0 0 0 1978 4615 5 MP stroke
c9
0 0 11 0 0 0 1989 4615 4 MP
PP
0 sg
-11 0 0 0 11 0 0 0 1989 4615 5 MP stroke
c9
0 0 11 0 0 0 2000 4615 4 MP
PP
0 sg
-11 0 0 0 11 0 0 0 2000 4615 5 MP stroke
c9
0 0 11 0 0 0 2011 4615 4 MP
PP
0 sg
-11 0 0 0 11 0 0 0 2011 4615 5 MP stroke
c9
0 0 12 0 0 0 2022 4615 4 MP
PP
0 sg
-12 0 0 0 12 0 0 0 2022 4615 5 MP stroke
c9
0 0 11 0 0 0 2034 4615 4 MP
PP
0 sg
-11 0 0 0 11 0 0 0 2034 4615 5 MP stroke
c9
0 0 11 0 0 0 2045 4615 4 MP
PP
0 sg
-11 0 0 0 11 0 0 0 2045 4615 5 MP stroke
c9
0 0 11 0 0 0 2056 4615 4 MP
PP
0 sg
-11 0 0 0 11 0 0 0 2056 4615 5 MP stroke
c9
0 0 11 0 0 0 2067 4615 4 MP
PP
0 sg
-11 0 0 0 11 0 0 0 2067 4615 5 MP stroke
c9
0 0 11 0 0 0 2078 4615 4 MP
PP
0 sg
-11 0 0 0 11 0 0 0 2078 4615 5 MP stroke
c9
0 0 11 0 0 0 2089 4615 4 MP
PP
0 sg
-11 0 0 0 11 0 0 0 2089 4615 5 MP stroke
c9
0 0 11 0 0 0 2100 4615 4 MP
PP
0 sg
-11 0 0 0 11 0 0 0 2100 4615 5 MP stroke
c9
0 0 11 0 0 0 2111 4615 4 MP
PP
0 sg
-11 0 0 0 11 0 0 0 2111 4615 5 MP stroke
c9
0 0 11 0 0 0 2122 4615 4 MP
PP
0 sg
-11 0 0 0 11 0 0 0 2122 4615 5 MP stroke
c9
0 0 11 0 0 0 2133 4615 4 MP
PP
0 sg
-11 0 0 0 11 0 0 0 2133 4615 5 MP stroke
c9
0 0 11 0 0 0 2144 4615 4 MP
PP
0 sg
-11 0 0 0 11 0 0 0 2144 4615 5 MP stroke
c9
0 0 11 0 0 0 2155 4615 4 MP
PP
0 sg
-11 0 0 0 11 0 0 0 2155 4615 5 MP stroke
c9
0 0 11 0 0 0 2166 4615 4 MP
PP
0 sg
-11 0 0 0 11 0 0 0 2166 4615 5 MP stroke
c9
0 0 11 0 0 0 2177 4615 4 MP
PP
0 sg
-11 0 0 0 11 0 0 0 2177 4615 5 MP stroke
c9
0 0 11 0 0 0 2188 4615 4 MP
PP
0 sg
-11 0 0 0 11 0 0 0 2188 4615 5 MP stroke
c9
0 0 11 0 0 0 2199 4615 4 MP
PP
0 sg
-11 0 0 0 11 0 0 0 2199 4615 5 MP stroke
c9
0 0 11 0 0 0 2210 4615 4 MP
PP
0 sg
-11 0 0 0 11 0 0 0 2210 4615 5 MP stroke
c9
0 0 11 0 0 0 2221 4615 4 MP
PP
0 sg
-11 0 0 0 11 0 0 0 2221 4615 5 MP stroke
c9
0 0 11 0 0 0 2232 4615 4 MP
PP
0 sg
-11 0 0 0 11 0 0 0 2232 4615 5 MP stroke
c9
0 0 11 0 0 0 2243 4615 4 MP
PP
0 sg
-11 0 0 0 11 0 0 0 2243 4615 5 MP stroke
c9
0 0 11 0 0 0 2254 4615 4 MP
PP
0 sg
-11 0 0 0 11 0 0 0 2254 4615 5 MP stroke
c9
0 0 11 0 0 0 2265 4615 4 MP
PP
0 sg
-11 0 0 0 11 0 0 0 2265 4615 5 MP stroke
c9
0 0 11 0 0 0 2276 4615 4 MP
PP
0 sg
-11 0 0 0 11 0 0 0 2276 4615 5 MP stroke
c9
0 0 11 0 0 0 2287 4615 4 MP
PP
0 sg
-11 0 0 0 11 0 0 0 2287 4615 5 MP stroke
c9
0 0 11 0 0 0 2298 4615 4 MP
PP
0 sg
-11 0 0 0 11 0 0 0 2298 4615 5 MP stroke
c9
0 0 11 0 0 0 2309 4615 4 MP
PP
0 sg
-11 0 0 0 11 0 0 0 2309 4615 5 MP stroke
c9
0 0 11 0 0 0 2320 4615 4 MP
PP
0 sg
-11 0 0 0 11 0 0 0 2320 4615 5 MP stroke
c9
0 0 11 0 0 0 2331 4615 4 MP
PP
0 sg
-11 0 0 0 11 0 0 0 2331 4615 5 MP stroke
c9
0 0 12 0 0 0 2342 4615 4 MP
PP
0 sg
-12 0 0 0 12 0 0 0 2342 4615 5 MP stroke
c9
0 0 11 0 0 0 2354 4615 4 MP
PP
0 sg
-11 0 0 0 11 0 0 0 2354 4615 5 MP stroke
c9
0 0 11 0 0 0 2365 4615 4 MP
PP
0 sg
-11 0 0 0 11 0 0 0 2365 4615 5 MP stroke
c9
0 0 11 0 0 0 2376 4615 4 MP
PP
0 sg
-11 0 0 0 11 0 0 0 2376 4615 5 MP stroke
c9
0 0 11 0 0 0 2387 4615 4 MP
PP
0 sg
-11 0 0 0 11 0 0 0 2387 4615 5 MP stroke
c9
0 0 11 0 0 0 2398 4615 4 MP
PP
0 sg
-11 0 0 0 11 0 0 0 2398 4615 5 MP stroke
c9
0 0 11 0 0 0 2409 4615 4 MP
PP
0 sg
-11 0 0 0 11 0 0 0 2409 4615 5 MP stroke
c9
0 0 11 0 0 0 2420 4615 4 MP
PP
0 sg
-11 0 0 0 11 0 0 0 2420 4615 5 MP stroke
c9
0 0 11 0 0 0 2431 4615 4 MP
PP
0 sg
-11 0 0 0 11 0 0 0 2431 4615 5 MP stroke
c9
0 0 11 0 0 0 2442 4615 4 MP
PP
0 sg
-11 0 0 0 11 0 0 0 2442 4615 5 MP stroke
c9
0 0 11 0 0 0 2453 4615 4 MP
PP
0 sg
-11 0 0 0 11 0 0 0 2453 4615 5 MP stroke
c9
0 0 11 0 0 0 2464 4615 4 MP
PP
0 sg
-11 0 0 0 11 0 0 0 2464 4615 5 MP stroke
c9
0 0 11 0 0 0 2475 4615 4 MP
PP
0 sg
-11 0 0 0 11 0 0 0 2475 4615 5 MP stroke
c9
0 0 11 0 0 0 2486 4615 4 MP
PP
0 sg
-11 0 0 0 11 0 0 0 2486 4615 5 MP stroke
c9
0 0 11 0 0 0 2497 4615 4 MP
PP
0 sg
-11 0 0 0 11 0 0 0 2497 4615 5 MP stroke
c9
0 0 11 0 0 0 2508 4615 4 MP
PP
0 sg
-11 0 0 0 11 0 0 0 2508 4615 5 MP stroke
c9
0 0 11 0 0 0 2519 4615 4 MP
PP
0 sg
-11 0 0 0 11 0 0 0 2519 4615 5 MP stroke
c9
0 0 11 0 0 0 2530 4615 4 MP
PP
0 sg
-11 0 0 0 11 0 0 0 2530 4615 5 MP stroke
c9
0 26 11 0 0 -26 2541 4615 4 MP
PP
0 sg
-11 0 0 26 11 0 0 -26 2541 4615 5 MP stroke
c9
0 26 11 0 0 -26 2552 4615 4 MP
PP
0 sg
-11 0 0 26 11 0 0 -26 2552 4615 5 MP stroke
1819 4903 mt 
(Time \(s\)) s
 649 3891 mt  -90 rotate
(Count) s
90 rotate
1938 2751 mt 
(n=4) s
1 sg
0 1769 2284 0 0 -1769 3942 4615 4 MP
PP
-2284 0 0 1769 2284 0 0 -1769 3942 4615 5 MP stroke
4 w
DO
SO
6 w
0 sg
3942 4615 mt 6226 4615 L
3942 2846 mt 6226 2846 L
3942 4615 mt 3942 2846 L
6226 4615 mt 6226 2846 L
3942 4615 mt 6226 4615 L
3942 4615 mt 3942 2846 L
3942 4615 mt 3942 4592 L
3942 2846 mt 3942 2868 L
3909 4760 mt 
(0) s
4703 4615 mt 4703 4592 L
4703 2846 mt 4703 2868 L
4570 4760 mt 
(2000) s
5464 4615 mt 5464 4592 L
5464 2846 mt 5464 2868 L
5331 4760 mt 
(4000) s
6226 4615 mt 6226 4592 L
6226 2846 mt 6226 2868 L
6093 4760 mt 
(6000) s
3942 4615 mt 3964 4615 L
6226 4615 mt 6203 4615 L
3841 4659 mt 
(0) s
3942 4172 mt 3964 4172 L
6226 4172 mt 6203 4172 L
3774 4216 mt 
(20) s
3942 3730 mt 3964 3730 L
6226 3730 mt 6203 3730 L
3774 3774 mt 
(40) s
3942 3288 mt 3964 3288 L
6226 3288 mt 6203 3288 L
3774 3332 mt 
(60) s
3942 2846 mt 3964 2846 L
6226 2846 mt 6203 2846 L
3774 2890 mt 
(80) s
3942 4615 mt 6226 4615 L
3942 2846 mt 6226 2846 L
3942 4615 mt 3942 2846 L
6226 4615 mt 6226 2846 L
24 w
c8
0 -1769 3945 4615 2 MP stroke
c9
0 1570 15 0 0 -1570 3942 4615 4 MP
PP
6 w
0 sg
-15 0 0 1570 15 0 0 -1570 3942 4615 5 MP stroke
c9
0 266 15 0 0 -266 3957 4615 4 MP
PP
0 sg
-15 0 0 266 15 0 0 -266 3957 4615 5 MP stroke
c9
0 45 15 0 0 -45 3972 4615 4 MP
PP
0 sg
-15 0 0 45 15 0 0 -45 3972 4615 5 MP stroke
c9
0 23 15 0 0 -23 3987 4615 4 MP
PP
0 sg
-15 0 0 23 15 0 0 -23 3987 4615 5 MP stroke
c9
0 0 15 0 0 0 4002 4615 4 MP
PP
0 sg
-15 0 0 0 15 0 0 0 4002 4615 5 MP stroke
c9
0 67 15 0 0 -67 4017 4615 4 MP
PP
0 sg
-15 0 0 67 15 0 0 -67 4017 4615 5 MP stroke
c9
0 23 15 0 0 -23 4032 4615 4 MP
PP
0 sg
-15 0 0 23 15 0 0 -23 4032 4615 5 MP stroke
c9
0 23 15 0 0 -23 4047 4615 4 MP
PP
0 sg
-15 0 0 23 15 0 0 -23 4047 4615 5 MP stroke
c9
0 0 15 0 0 0 4062 4615 4 MP
PP
0 sg
-15 0 0 0 15 0 0 0 4062 4615 5 MP stroke
c9
0 0 15 0 0 0 4077 4615 4 MP
PP
0 sg
-15 0 0 0 15 0 0 0 4077 4615 5 MP stroke
c9
0 0 15 0 0 0 4092 4615 4 MP
PP
0 sg
-15 0 0 0 15 0 0 0 4092 4615 5 MP stroke
c9
0 0 16 0 0 0 4107 4615 4 MP
PP
0 sg
-16 0 0 0 16 0 0 0 4107 4615 5 MP stroke
c9
0 23 15 0 0 -23 4123 4615 4 MP
PP
0 sg
-15 0 0 23 15 0 0 -23 4123 4615 5 MP stroke
c9
0 0 15 0 0 0 4138 4615 4 MP
PP
0 sg
-15 0 0 0 15 0 0 0 4138 4615 5 MP stroke
c9
0 0 15 0 0 0 4153 4615 4 MP
PP
0 sg
-15 0 0 0 15 0 0 0 4153 4615 5 MP stroke
c9
0 0 15 0 0 0 4168 4615 4 MP
PP
0 sg
-15 0 0 0 15 0 0 0 4168 4615 5 MP stroke
c9
0 23 15 0 0 -23 4183 4615 4 MP
PP
0 sg
-15 0 0 23 15 0 0 -23 4183 4615 5 MP stroke
c9
0 0 15 0 0 0 4198 4615 4 MP
PP
0 sg
-15 0 0 0 15 0 0 0 4198 4615 5 MP stroke
c9
0 0 15 0 0 0 4213 4615 4 MP
PP
0 sg
-15 0 0 0 15 0 0 0 4213 4615 5 MP stroke
c9
0 0 15 0 0 0 4228 4615 4 MP
PP
0 sg
-15 0 0 0 15 0 0 0 4228 4615 5 MP stroke
c9
0 0 15 0 0 0 4243 4615 4 MP
PP
0 sg
-15 0 0 0 15 0 0 0 4243 4615 5 MP stroke
c9
0 0 15 0 0 0 4258 4615 4 MP
PP
0 sg
-15 0 0 0 15 0 0 0 4258 4615 5 MP stroke
c9
0 0 15 0 0 0 4273 4615 4 MP
PP
0 sg
-15 0 0 0 15 0 0 0 4273 4615 5 MP stroke
c9
0 0 16 0 0 0 4288 4615 4 MP
PP
0 sg
-16 0 0 0 16 0 0 0 4288 4615 5 MP stroke
c9
0 23 15 0 0 -23 4304 4615 4 MP
PP
0 sg
-15 0 0 23 15 0 0 -23 4304 4615 5 MP stroke
c9
0 23 15 0 0 -23 4319 4615 4 MP
PP
0 sg
-15 0 0 23 15 0 0 -23 4319 4615 5 MP stroke
c9
0 0 15 0 0 0 4334 4615 4 MP
PP
0 sg
-15 0 0 0 15 0 0 0 4334 4615 5 MP stroke
c9
0 0 15 0 0 0 4349 4615 4 MP
PP
0 sg
-15 0 0 0 15 0 0 0 4349 4615 5 MP stroke
c9
0 0 15 0 0 0 4364 4615 4 MP
PP
0 sg
-15 0 0 0 15 0 0 0 4364 4615 5 MP stroke
c9
0 0 15 0 0 0 4379 4615 4 MP
PP
0 sg
-15 0 0 0 15 0 0 0 4379 4615 5 MP stroke
c9
0 0 15 0 0 0 4394 4615 4 MP
PP
0 sg
-15 0 0 0 15 0 0 0 4394 4615 5 MP stroke
c9
0 0 15 0 0 0 4409 4615 4 MP
PP
0 sg
-15 0 0 0 15 0 0 0 4409 4615 5 MP stroke
c9
0 0 15 0 0 0 4424 4615 4 MP
PP
0 sg
-15 0 0 0 15 0 0 0 4424 4615 5 MP stroke
c9
0 0 15 0 0 0 4439 4615 4 MP
PP
0 sg
-15 0 0 0 15 0 0 0 4439 4615 5 MP stroke
c9
0 0 15 0 0 0 4454 4615 4 MP
PP
0 sg
-15 0 0 0 15 0 0 0 4454 4615 5 MP stroke
c9
0 0 16 0 0 0 4469 4615 4 MP
PP
0 sg
-16 0 0 0 16 0 0 0 4469 4615 5 MP stroke
c9
0 0 15 0 0 0 4485 4615 4 MP
PP
0 sg
-15 0 0 0 15 0 0 0 4485 4615 5 MP stroke
c9
0 23 15 0 0 -23 4500 4615 4 MP
PP
0 sg
-15 0 0 23 15 0 0 -23 4500 4615 5 MP stroke
c9
0 0 15 0 0 0 4515 4615 4 MP
PP
0 sg
-15 0 0 0 15 0 0 0 4515 4615 5 MP stroke
c9
0 23 15 0 0 -23 4530 4615 4 MP
PP
0 sg
-15 0 0 23 15 0 0 -23 4530 4615 5 MP stroke
c9
0 0 15 0 0 0 4545 4615 4 MP
PP
0 sg
-15 0 0 0 15 0 0 0 4545 4615 5 MP stroke
c9
0 0 15 0 0 0 4560 4615 4 MP
PP
0 sg
-15 0 0 0 15 0 0 0 4560 4615 5 MP stroke
c9
0 0 15 0 0 0 4575 4615 4 MP
PP
0 sg
-15 0 0 0 15 0 0 0 4575 4615 5 MP stroke
c9
0 0 15 0 0 0 4590 4615 4 MP
PP
0 sg
-15 0 0 0 15 0 0 0 4590 4615 5 MP stroke
c9
0 0 15 0 0 0 4605 4615 4 MP
PP
0 sg
-15 0 0 0 15 0 0 0 4605 4615 5 MP stroke
c9
0 0 15 0 0 0 4620 4615 4 MP
PP
0 sg
-15 0 0 0 15 0 0 0 4620 4615 5 MP stroke
c9
0 0 15 0 0 0 4635 4615 4 MP
PP
0 sg
-15 0 0 0 15 0 0 0 4635 4615 5 MP stroke
c9
0 0 16 0 0 0 4650 4615 4 MP
PP
0 sg
-16 0 0 0 16 0 0 0 4650 4615 5 MP stroke
c9
0 0 15 0 0 0 4666 4615 4 MP
PP
0 sg
-15 0 0 0 15 0 0 0 4666 4615 5 MP stroke
c9
0 0 15 0 0 0 4681 4615 4 MP
PP
0 sg
-15 0 0 0 15 0 0 0 4681 4615 5 MP stroke
c9
0 0 15 0 0 0 4696 4615 4 MP
PP
0 sg
-15 0 0 0 15 0 0 0 4696 4615 5 MP stroke
c9
0 0 15 0 0 0 4711 4615 4 MP
PP
0 sg
-15 0 0 0 15 0 0 0 4711 4615 5 MP stroke
c9
0 0 15 0 0 0 4726 4615 4 MP
PP
0 sg
-15 0 0 0 15 0 0 0 4726 4615 5 MP stroke
c9
0 0 15 0 0 0 4741 4615 4 MP
PP
0 sg
-15 0 0 0 15 0 0 0 4741 4615 5 MP stroke
c9
0 23 15 0 0 -23 4756 4615 4 MP
PP
0 sg
-15 0 0 23 15 0 0 -23 4756 4615 5 MP stroke
c9
0 0 15 0 0 0 4771 4615 4 MP
PP
0 sg
-15 0 0 0 15 0 0 0 4771 4615 5 MP stroke
c9
0 0 15 0 0 0 4786 4615 4 MP
PP
0 sg
-15 0 0 0 15 0 0 0 4786 4615 5 MP stroke
c9
0 0 15 0 0 0 4801 4615 4 MP
PP
0 sg
-15 0 0 0 15 0 0 0 4801 4615 5 MP stroke
c9
0 0 15 0 0 0 4816 4615 4 MP
PP
0 sg
-15 0 0 0 15 0 0 0 4816 4615 5 MP stroke
c9
0 0 16 0 0 0 4831 4615 4 MP
PP
0 sg
-16 0 0 0 16 0 0 0 4831 4615 5 MP stroke
c9
0 0 15 0 0 0 4847 4615 4 MP
PP
0 sg
-15 0 0 0 15 0 0 0 4847 4615 5 MP stroke
c9
0 0 15 0 0 0 4862 4615 4 MP
PP
0 sg
-15 0 0 0 15 0 0 0 4862 4615 5 MP stroke
c9
0 0 15 0 0 0 4877 4615 4 MP
PP
0 sg
-15 0 0 0 15 0 0 0 4877 4615 5 MP stroke
c9
0 0 15 0 0 0 4892 4615 4 MP
PP
0 sg
-15 0 0 0 15 0 0 0 4892 4615 5 MP stroke
c9
0 0 15 0 0 0 4907 4615 4 MP
PP
0 sg
-15 0 0 0 15 0 0 0 4907 4615 5 MP stroke
c9
0 0 15 0 0 0 4922 4615 4 MP
PP
0 sg
-15 0 0 0 15 0 0 0 4922 4615 5 MP stroke
c9
0 0 15 0 0 0 4937 4615 4 MP
PP
0 sg
-15 0 0 0 15 0 0 0 4937 4615 5 MP stroke
c9
0 0 15 0 0 0 4952 4615 4 MP
PP
0 sg
-15 0 0 0 15 0 0 0 4952 4615 5 MP stroke
c9
0 0 15 0 0 0 4967 4615 4 MP
PP
0 sg
-15 0 0 0 15 0 0 0 4967 4615 5 MP stroke
c9
0 0 15 0 0 0 4982 4615 4 MP
PP
0 sg
-15 0 0 0 15 0 0 0 4982 4615 5 MP stroke
c9
0 0 15 0 0 0 4997 4615 4 MP
PP
0 sg
-15 0 0 0 15 0 0 0 4997 4615 5 MP stroke
c9
0 0 15 0 0 0 5012 4615 4 MP
PP
0 sg
-15 0 0 0 15 0 0 0 5012 4615 5 MP stroke
c9
0 0 16 0 0 0 5027 4615 4 MP
PP
0 sg
-16 0 0 0 16 0 0 0 5027 4615 5 MP stroke
c9
0 0 15 0 0 0 5043 4615 4 MP
PP
0 sg
-15 0 0 0 15 0 0 0 5043 4615 5 MP stroke
c9
0 0 15 0 0 0 5058 4615 4 MP
PP
0 sg
-15 0 0 0 15 0 0 0 5058 4615 5 MP stroke
c9
0 0 15 0 0 0 5073 4615 4 MP
PP
0 sg
-15 0 0 0 15 0 0 0 5073 4615 5 MP stroke
c9
0 0 15 0 0 0 5088 4615 4 MP
PP
0 sg
-15 0 0 0 15 0 0 0 5088 4615 5 MP stroke
c9
0 0 15 0 0 0 5103 4615 4 MP
PP
0 sg
-15 0 0 0 15 0 0 0 5103 4615 5 MP stroke
c9
0 0 15 0 0 0 5118 4615 4 MP
PP
0 sg
-15 0 0 0 15 0 0 0 5118 4615 5 MP stroke
c9
0 23 15 0 0 -23 5133 4615 4 MP
PP
0 sg
-15 0 0 23 15 0 0 -23 5133 4615 5 MP stroke
c9
0 0 15 0 0 0 5148 4615 4 MP
PP
0 sg
-15 0 0 0 15 0 0 0 5148 4615 5 MP stroke
c9
0 0 15 0 0 0 5163 4615 4 MP
PP
0 sg
-15 0 0 0 15 0 0 0 5163 4615 5 MP stroke
c9
0 0 15 0 0 0 5178 4615 4 MP
PP
0 sg
-15 0 0 0 15 0 0 0 5178 4615 5 MP stroke
c9
0 0 15 0 0 0 5193 4615 4 MP
PP
0 sg
-15 0 0 0 15 0 0 0 5193 4615 5 MP stroke
c9
0 0 16 0 0 0 5208 4615 4 MP
PP
0 sg
-16 0 0 0 16 0 0 0 5208 4615 5 MP stroke
c9
0 0 15 0 0 0 5224 4615 4 MP
PP
0 sg
-15 0 0 0 15 0 0 0 5224 4615 5 MP stroke
c9
0 0 15 0 0 0 5239 4615 4 MP
PP
0 sg
-15 0 0 0 15 0 0 0 5239 4615 5 MP stroke
c9
0 0 15 0 0 0 5254 4615 4 MP
PP
0 sg
-15 0 0 0 15 0 0 0 5254 4615 5 MP stroke
c9
0 0 15 0 0 0 5269 4615 4 MP
PP
0 sg
-15 0 0 0 15 0 0 0 5269 4615 5 MP stroke
c9
0 0 15 0 0 0 5284 4615 4 MP
PP
0 sg
-15 0 0 0 15 0 0 0 5284 4615 5 MP stroke
c9
0 0 15 0 0 0 5299 4615 4 MP
PP
0 sg
-15 0 0 0 15 0 0 0 5299 4615 5 MP stroke
c9
0 0 15 0 0 0 5314 4615 4 MP
PP
0 sg
-15 0 0 0 15 0 0 0 5314 4615 5 MP stroke
c9
0 0 15 0 0 0 5329 4615 4 MP
PP
0 sg
-15 0 0 0 15 0 0 0 5329 4615 5 MP stroke
c9
0 0 15 0 0 0 5344 4615 4 MP
PP
0 sg
-15 0 0 0 15 0 0 0 5344 4615 5 MP stroke
c9
0 0 15 0 0 0 5359 4615 4 MP
PP
0 sg
-15 0 0 0 15 0 0 0 5359 4615 5 MP stroke
c9
0 0 15 0 0 0 5374 4615 4 MP
PP
0 sg
-15 0 0 0 15 0 0 0 5374 4615 5 MP stroke
c9
0 0 16 0 0 0 5389 4615 4 MP
PP
0 sg
-16 0 0 0 16 0 0 0 5389 4615 5 MP stroke
c9
0 0 15 0 0 0 5405 4615 4 MP
PP
0 sg
-15 0 0 0 15 0 0 0 5405 4615 5 MP stroke
c9
0 0 15 0 0 0 5420 4615 4 MP
PP
0 sg
-15 0 0 0 15 0 0 0 5420 4615 5 MP stroke
c9
0 0 15 0 0 0 5435 4615 4 MP
PP
0 sg
-15 0 0 0 15 0 0 0 5435 4615 5 MP stroke
c9
0 0 15 0 0 0 5450 4615 4 MP
PP
0 sg
-15 0 0 0 15 0 0 0 5450 4615 5 MP stroke
c9
0 0 15 0 0 0 5465 4615 4 MP
PP
0 sg
-15 0 0 0 15 0 0 0 5465 4615 5 MP stroke
c9
0 0 15 0 0 0 5480 4615 4 MP
PP
0 sg
-15 0 0 0 15 0 0 0 5480 4615 5 MP stroke
c9
0 0 15 0 0 0 5495 4615 4 MP
PP
0 sg
-15 0 0 0 15 0 0 0 5495 4615 5 MP stroke
c9
0 0 15 0 0 0 5510 4615 4 MP
PP
0 sg
-15 0 0 0 15 0 0 0 5510 4615 5 MP stroke
c9
0 0 15 0 0 0 5525 4615 4 MP
PP
0 sg
-15 0 0 0 15 0 0 0 5525 4615 5 MP stroke
c9
0 0 15 0 0 0 5540 4615 4 MP
PP
0 sg
-15 0 0 0 15 0 0 0 5540 4615 5 MP stroke
c9
0 0 15 0 0 0 5555 4615 4 MP
PP
0 sg
-15 0 0 0 15 0 0 0 5555 4615 5 MP stroke
c9
0 0 16 0 0 0 5570 4615 4 MP
PP
0 sg
-16 0 0 0 16 0 0 0 5570 4615 5 MP stroke
c9
0 0 15 0 0 0 5586 4615 4 MP
PP
0 sg
-15 0 0 0 15 0 0 0 5586 4615 5 MP stroke
c9
0 0 15 0 0 0 5601 4615 4 MP
PP
0 sg
-15 0 0 0 15 0 0 0 5601 4615 5 MP stroke
c9
0 0 15 0 0 0 5616 4615 4 MP
PP
0 sg
-15 0 0 0 15 0 0 0 5616 4615 5 MP stroke
c9
0 0 15 0 0 0 5631 4615 4 MP
PP
0 sg
-15 0 0 0 15 0 0 0 5631 4615 5 MP stroke
c9
0 0 15 0 0 0 5646 4615 4 MP
PP
0 sg
-15 0 0 0 15 0 0 0 5646 4615 5 MP stroke
c9
0 0 15 0 0 0 5661 4615 4 MP
PP
0 sg
-15 0 0 0 15 0 0 0 5661 4615 5 MP stroke
c9
0 0 15 0 0 0 5676 4615 4 MP
PP
0 sg
-15 0 0 0 15 0 0 0 5676 4615 5 MP stroke
c9
0 0 15 0 0 0 5691 4615 4 MP
PP
0 sg
-15 0 0 0 15 0 0 0 5691 4615 5 MP stroke
c9
0 0 15 0 0 0 5706 4615 4 MP
PP
0 sg
-15 0 0 0 15 0 0 0 5706 4615 5 MP stroke
c9
0 0 15 0 0 0 5721 4615 4 MP
PP
0 sg
-15 0 0 0 15 0 0 0 5721 4615 5 MP stroke
c9
0 0 15 0 0 0 5736 4615 4 MP
PP
0 sg
-15 0 0 0 15 0 0 0 5736 4615 5 MP stroke
c9
0 0 16 0 0 0 5751 4615 4 MP
PP
0 sg
-16 0 0 0 16 0 0 0 5751 4615 5 MP stroke
c9
0 0 15 0 0 0 5767 4615 4 MP
PP
0 sg
-15 0 0 0 15 0 0 0 5767 4615 5 MP stroke
c9
0 0 15 0 0 0 5782 4615 4 MP
PP
0 sg
-15 0 0 0 15 0 0 0 5782 4615 5 MP stroke
c9
0 0 15 0 0 0 5797 4615 4 MP
PP
0 sg
-15 0 0 0 15 0 0 0 5797 4615 5 MP stroke
c9
0 0 15 0 0 0 5812 4615 4 MP
PP
0 sg
-15 0 0 0 15 0 0 0 5812 4615 5 MP stroke
c9
0 0 15 0 0 0 5827 4615 4 MP
PP
0 sg
-15 0 0 0 15 0 0 0 5827 4615 5 MP stroke
c9
0 0 15 0 0 0 5842 4615 4 MP
PP
0 sg
-15 0 0 0 15 0 0 0 5842 4615 5 MP stroke
c9
0 0 15 0 0 0 5857 4615 4 MP
PP
0 sg
-15 0 0 0 15 0 0 0 5857 4615 5 MP stroke
c9
0 0 15 0 0 0 5872 4615 4 MP
PP
0 sg
-15 0 0 0 15 0 0 0 5872 4615 5 MP stroke
c9
0 0 15 0 0 0 5887 4615 4 MP
PP
0 sg
-15 0 0 0 15 0 0 0 5887 4615 5 MP stroke
c9
0 0 15 0 0 0 5902 4615 4 MP
PP
0 sg
-15 0 0 0 15 0 0 0 5902 4615 5 MP stroke
c9
0 0 15 0 0 0 5917 4615 4 MP
PP
0 sg
-15 0 0 0 15 0 0 0 5917 4615 5 MP stroke
c9
0 0 16 0 0 0 5932 4615 4 MP
PP
0 sg
-16 0 0 0 16 0 0 0 5932 4615 5 MP stroke
c9
0 0 15 0 0 0 5948 4615 4 MP
PP
0 sg
-15 0 0 0 15 0 0 0 5948 4615 5 MP stroke
c9
0 0 15 0 0 0 5963 4615 4 MP
PP
0 sg
-15 0 0 0 15 0 0 0 5963 4615 5 MP stroke
c9
0 0 15 0 0 0 5978 4615 4 MP
PP
0 sg
-15 0 0 0 15 0 0 0 5978 4615 5 MP stroke
c9
0 0 15 0 0 0 5993 4615 4 MP
PP
0 sg
-15 0 0 0 15 0 0 0 5993 4615 5 MP stroke
c9
0 0 15 0 0 0 6008 4615 4 MP
PP
0 sg
-15 0 0 0 15 0 0 0 6008 4615 5 MP stroke
c9
0 0 15 0 0 0 6023 4615 4 MP
PP
0 sg
-15 0 0 0 15 0 0 0 6023 4615 5 MP stroke
c9
0 0 15 0 0 0 6038 4615 4 MP
PP
0 sg
-15 0 0 0 15 0 0 0 6038 4615 5 MP stroke
c9
0 0 15 0 0 0 6053 4615 4 MP
PP
0 sg
-15 0 0 0 15 0 0 0 6053 4615 5 MP stroke
c9
0 0 15 0 0 0 6068 4615 4 MP
PP
0 sg
-15 0 0 0 15 0 0 0 6068 4615 5 MP stroke
c9
0 0 15 0 0 0 6083 4615 4 MP
PP
0 sg
-15 0 0 0 15 0 0 0 6083 4615 5 MP stroke
c9
0 0 15 0 0 0 6098 4615 4 MP
PP
0 sg
-15 0 0 0 15 0 0 0 6098 4615 5 MP stroke
c9
0 0 16 0 0 0 6113 4615 4 MP
PP
0 sg
-16 0 0 0 16 0 0 0 6113 4615 5 MP stroke
c9
0 0 15 0 0 0 6129 4615 4 MP
PP
0 sg
-15 0 0 0 15 0 0 0 6129 4615 5 MP stroke
c9
0 0 15 0 0 0 6144 4615 4 MP
PP
0 sg
-15 0 0 0 15 0 0 0 6144 4615 5 MP stroke
c9
0 0 15 0 0 0 6159 4615 4 MP
PP
0 sg
-15 0 0 0 15 0 0 0 6159 4615 5 MP stroke
c9
0 0 15 0 0 0 6174 4615 4 MP
PP
0 sg
-15 0 0 0 15 0 0 0 6174 4615 5 MP stroke
c9
0 23 15 0 0 -23 6189 4615 4 MP
PP
0 sg
-15 0 0 23 15 0 0 -23 6189 4615 5 MP stroke
4863 4903 mt 
(Time \(s\)) s
3692 3891 mt  -90 rotate
(Count) s
90 rotate
4981 2751 mt 
(n=5) s

end %%Color Dict

eplot
%%EndObject

epage
end

showpage

%%Trailer
%%EOF
