%!PS-Adobe-2.0 EPSF-1.2
%%Creator: MATLAB, The MathWorks, Inc. Version 8.2.0.701 (R2013b). Operating System: Linux 3.2.0-61-generic #92-Ubuntu SMP Mon Mar 31 23:47:59 UTC 2014 x86_64.
%%Title: ../graphs/dist_5.eps
%%CreationDate: 04/29/2014  20:05:01
%%DocumentNeededFonts: Helvetica
%%DocumentProcessColors: Cyan Magenta Yellow Black
%%Extensions: CMYK
%%Pages: 1
%%BoundingBox:    60   199   553   602
%%EndComments

%%BeginProlog
% MathWorks dictionary
/MathWorks 160 dict begin
% definition operators
/bdef {bind def} bind def
/ldef {load def} bind def
/xdef {exch def} bdef
/xstore {exch store} bdef
% operator abbreviations
/c  /clip ldef
/cc /concat ldef
/cp /closepath ldef
/gr /grestore ldef
/gs /gsave ldef
/mt /moveto ldef
/np /newpath ldef
/cm /currentmatrix ldef
/sm /setmatrix ldef
/rm /rmoveto ldef
/rl /rlineto ldef
/s {show newpath} bdef
/sc {setcmykcolor} bdef
/sr /setrgbcolor ldef
/sg /setgray ldef
/w /setlinewidth ldef
/j /setlinejoin ldef
/cap /setlinecap ldef
/rc {rectclip} bdef
/rf {rectfill} bdef
% page state control
/pgsv () def
/bpage {/pgsv save def} bdef
/epage {pgsv restore} bdef
/bplot /gsave ldef
/eplot {stroke grestore} bdef
% orientation switch
/portraitMode 0 def /landscapeMode 1 def /rotateMode 2 def
% coordinate system mappings
/dpi2point 0 def
% font control
/FontSize 0 def
/FMS {/FontSize xstore findfont [FontSize 0 0 FontSize neg 0 0]
  makefont setfont} bdef
/reencode {exch dup where {pop load} {pop StandardEncoding} ifelse
  exch dup 3 1 roll findfont dup length dict begin
  { 1 index /FID ne {def}{pop pop} ifelse } forall
  /Encoding exch def currentdict end definefont pop} bdef
/isroman {findfont /CharStrings get /Agrave known} bdef
/FMSR {3 1 roll 1 index dup isroman {reencode} {pop pop} ifelse
  exch FMS} bdef
/csm {1 dpi2point div -1 dpi2point div scale neg translate
 dup landscapeMode eq {pop -90 rotate}
  {rotateMode eq {90 rotate} if} ifelse} bdef
% line types: solid, dotted, dashed, dotdash
/SO { [] 0 setdash } bdef
/DO { [.5 dpi2point mul 4 dpi2point mul] 0 setdash } bdef
/DA { [6 dpi2point mul] 0 setdash } bdef
/DD { [.5 dpi2point mul 4 dpi2point mul 6 dpi2point mul 4
  dpi2point mul] 0 setdash } bdef
% macros for lines and objects
/L {lineto stroke} bdef
/MP {3 1 roll moveto 1 sub {rlineto} repeat} bdef
/AP {{rlineto} repeat} bdef
/PDlw -1 def
/W {/PDlw currentlinewidth def setlinewidth} def
/PP {closepath eofill} bdef
/DP {closepath stroke} bdef
/MR {4 -2 roll moveto dup  0 exch rlineto exch 0 rlineto
  neg 0 exch rlineto closepath} bdef
/FR {MR stroke} bdef
/PR {MR fill} bdef
/L1i {{currentfile picstr readhexstring pop} image} bdef
/tMatrix matrix def
/MakeOval {newpath tMatrix currentmatrix pop translate scale
0 0 1 0 360 arc tMatrix setmatrix} bdef
/FO {MakeOval stroke} bdef
/PO {MakeOval fill} bdef
/PD {currentlinewidth 2 div 0 360 arc fill
   PDlw -1 eq not {PDlw w /PDlw -1 def} if} def
/FA {newpath tMatrix currentmatrix pop translate scale
  0 0 1 5 -2 roll arc tMatrix setmatrix stroke} bdef
/PA {newpath tMatrix currentmatrix pop	translate 0 0 moveto scale
  0 0 1 5 -2 roll arc closepath tMatrix setmatrix fill} bdef
/FAn {newpath tMatrix currentmatrix pop translate scale
  0 0 1 5 -2 roll arcn tMatrix setmatrix stroke} bdef
/PAn {newpath tMatrix currentmatrix pop translate 0 0 moveto scale
  0 0 1 5 -2 roll arcn closepath tMatrix setmatrix fill} bdef
/vradius 0 def /hradius 0 def /lry 0 def
/lrx 0 def /uly 0 def /ulx 0 def /rad 0 def
/MRR {/vradius xdef /hradius xdef /lry xdef /lrx xdef /uly xdef
  /ulx xdef newpath tMatrix currentmatrix pop ulx hradius add uly
  vradius add translate hradius vradius scale 0 0 1 180 270 arc 
  tMatrix setmatrix lrx hradius sub uly vradius add translate
  hradius vradius scale 0 0 1 270 360 arc tMatrix setmatrix
  lrx hradius sub lry vradius sub translate hradius vradius scale
  0 0 1 0 90 arc tMatrix setmatrix ulx hradius add lry vradius sub
  translate hradius vradius scale 0 0 1 90 180 arc tMatrix setmatrix
  closepath} bdef
/FRR {MRR stroke } bdef
/PRR {MRR fill } bdef
/MlrRR {/lry xdef /lrx xdef /uly xdef /ulx xdef /rad lry uly sub 2 div def
  newpath tMatrix currentmatrix pop ulx rad add uly rad add translate
  rad rad scale 0 0 1 90 270 arc tMatrix setmatrix lrx rad sub lry rad
  sub translate rad rad scale 0 0 1 270 90 arc tMatrix setmatrix
  closepath} bdef
/FlrRR {MlrRR stroke } bdef
/PlrRR {MlrRR fill } bdef
/MtbRR {/lry xdef /lrx xdef /uly xdef /ulx xdef /rad lrx ulx sub 2 div def
  newpath tMatrix currentmatrix pop ulx rad add uly rad add translate
  rad rad scale 0 0 1 180 360 arc tMatrix setmatrix lrx rad sub lry rad
  sub translate rad rad scale 0 0 1 0 180 arc tMatrix setmatrix
  closepath} bdef
/FtbRR {MtbRR stroke } bdef
/PtbRR {MtbRR fill } bdef
/stri 6 array def /dtri 6 array def
/smat 6 array def /dmat 6 array def
/tmat1 6 array def /tmat2 6 array def /dif 3 array def
/asub {/ind2 exch def /ind1 exch def dup dup
  ind1 get exch ind2 get sub exch } bdef
/tri_to_matrix {
  2 0 asub 3 1 asub 4 0 asub 5 1 asub
  dup 0 get exch 1 get 7 -1 roll astore } bdef
/compute_transform {
  dmat dtri tri_to_matrix tmat1 invertmatrix 
  smat stri tri_to_matrix tmat2 concatmatrix } bdef
/ds {stri astore pop} bdef
/dt {dtri astore pop} bdef
/db {2 copy /cols xdef /rows xdef mul dup 3 mul string
  currentfile exch readhexstring pop
  dup 0 3 index getinterval /rbmap xdef
  dup 2 index dup getinterval /gbmap xdef
  1 index dup 2 mul exch getinterval /bbmap xdef pop pop}bdef
/it {gs np dtri aload pop moveto lineto lineto cp c
  cols rows 8 compute_transform 
  rbmap gbmap bbmap true 3 colorimage gr}bdef
/il {newpath moveto lineto stroke}bdef
currentdict end def
%%EndProlog

%%BeginSetup
MathWorks begin

0 cap

end
%%EndSetup

%%Page: 1 1
%%BeginPageSetup
%%PageBoundingBox:    60   199   553   602
MathWorks begin
bpage
%%EndPageSetup

%%BeginObject: obj1
bplot

/dpi2point 12 def
portraitMode 0216 7344 csm

  513   110  5908  4845 MR c np
76 dict begin %Colortable dictionary
/c0 { 0.000000 0.000000 0.000000 sr} bdef
/c1 { 1.000000 1.000000 1.000000 sr} bdef
/c2 { 0.900000 0.000000 0.000000 sr} bdef
/c3 { 0.000000 0.820000 0.000000 sr} bdef
/c4 { 0.000000 0.000000 0.800000 sr} bdef
/c5 { 0.910000 0.820000 0.320000 sr} bdef
/c6 { 1.000000 0.260000 0.820000 sr} bdef
/c7 { 0.000000 0.820000 0.820000 sr} bdef
c0
1 j
1 sg
   0    0 6913 5186 PR
6 w
0 1769 2313 0 0 -1769 899 2158 4 MP
PP
-2313 0 0 1769 2313 0 0 -1769 899 2158 5 MP stroke
4 w
DO
SO
6 w
0 sg
 899 2158 mt 3212 2158 L
 899  389 mt 3212  389 L
 899 2158 mt  899  389 L
3212 2158 mt 3212  389 L
 899 2158 mt 3212 2158 L
 899 2158 mt  899  389 L
 899 2158 mt  899 2134 L
 899  389 mt  899  412 L
%%IncludeResource: font Helvetica
/Helvetica /ISOLatin1Encoding 120 FMSR

 866 2303 mt 
(0) s
1361 2158 mt 1361 2134 L
1361  389 mt 1361  412 L
1211 2303 mt 
(0.002) s
1824 2158 mt 1824 2134 L
1824  389 mt 1824  412 L
1674 2303 mt 
(0.004) s
2286 2158 mt 2286 2134 L
2286  389 mt 2286  412 L
2136 2303 mt 
(0.006) s
2749 2158 mt 2749 2134 L
2749  389 mt 2749  412 L
2599 2303 mt 
(0.008) s
3212 2158 mt 3212 2134 L
3212  389 mt 3212  412 L
3096 2303 mt 
(0.01) s
 899 2158 mt  922 2158 L
3212 2158 mt 3188 2158 L
 798 2202 mt 
(0) s
 899 1715 mt  922 1715 L
3212 1715 mt 3188 1715 L
 731 1759 mt 
(20) s
 899 1273 mt  922 1273 L
3212 1273 mt 3188 1273 L
 731 1317 mt 
(40) s
 899  831 mt  922  831 L
3212  831 mt 3188  831 L
 731  875 mt 
(60) s
 899  389 mt  922  389 L
3212  389 mt 3188  389 L
 731  433 mt 
(80) s
 899 2158 mt 3212 2158 L
 899  389 mt 3212  389 L
 899 2158 mt  899  389 L
3212 2158 mt 3212  389 L
24 w
/c8 { 1.000000 0.000000 0.000000 sr} bdef
c8
0 -1769 2055 2158 2 MP stroke
/c9 { 0.000000 0.000000 0.562500 sr} bdef
c9
0 133 10 0 0 -133 1592 2158 4 MP
PP
6 w
0 sg
-10 0 0 133 10 0 0 -133 1592 2158 5 MP stroke
c9
0 0 9 0 0 0 1602 2158 4 MP
PP
0 sg
-9 0 0 0 9 0 0 0 1602 2158 5 MP stroke
c9
0 0 9 0 0 0 1611 2158 4 MP
PP
0 sg
-9 0 0 0 9 0 0 0 1611 2158 5 MP stroke
c9
0 0 9 0 0 0 1620 2158 4 MP
PP
0 sg
-9 0 0 0 9 0 0 0 1620 2158 5 MP stroke
c9
0 0 10 0 0 0 1629 2158 4 MP
PP
0 sg
-10 0 0 0 10 0 0 0 1629 2158 5 MP stroke
c9
0 0 9 0 0 0 1639 2158 4 MP
PP
0 sg
-9 0 0 0 9 0 0 0 1639 2158 5 MP stroke
c9
0 0 9 0 0 0 1648 2158 4 MP
PP
0 sg
-9 0 0 0 9 0 0 0 1648 2158 5 MP stroke
c9
0 0 9 0 0 0 1657 2158 4 MP
PP
0 sg
-9 0 0 0 9 0 0 0 1657 2158 5 MP stroke
c9
0 0 10 0 0 0 1666 2158 4 MP
PP
0 sg
-10 0 0 0 10 0 0 0 1666 2158 5 MP stroke
c9
0 0 9 0 0 0 1676 2158 4 MP
PP
0 sg
-9 0 0 0 9 0 0 0 1676 2158 5 MP stroke
c9
0 0 9 0 0 0 1685 2158 4 MP
PP
0 sg
-9 0 0 0 9 0 0 0 1685 2158 5 MP stroke
c9
0 0 9 0 0 0 1694 2158 4 MP
PP
0 sg
-9 0 0 0 9 0 0 0 1694 2158 5 MP stroke
c9
0 0 10 0 0 0 1703 2158 4 MP
PP
0 sg
-10 0 0 0 10 0 0 0 1703 2158 5 MP stroke
c9
0 0 9 0 0 0 1713 2158 4 MP
PP
0 sg
-9 0 0 0 9 0 0 0 1713 2158 5 MP stroke
c9
0 0 9 0 0 0 1722 2158 4 MP
PP
0 sg
-9 0 0 0 9 0 0 0 1722 2158 5 MP stroke
c9
0 0 9 0 0 0 1731 2158 4 MP
PP
0 sg
-9 0 0 0 9 0 0 0 1731 2158 5 MP stroke
c9
0 0 10 0 0 0 1740 2158 4 MP
PP
0 sg
-10 0 0 0 10 0 0 0 1740 2158 5 MP stroke
c9
0 0 9 0 0 0 1750 2158 4 MP
PP
0 sg
-9 0 0 0 9 0 0 0 1750 2158 5 MP stroke
c9
0 0 9 0 0 0 1759 2158 4 MP
PP
0 sg
-9 0 0 0 9 0 0 0 1759 2158 5 MP stroke
c9
0 0 9 0 0 0 1768 2158 4 MP
PP
0 sg
-9 0 0 0 9 0 0 0 1768 2158 5 MP stroke
c9
0 0 10 0 0 0 1777 2158 4 MP
PP
0 sg
-10 0 0 0 10 0 0 0 1777 2158 5 MP stroke
c9
0 0 9 0 0 0 1787 2158 4 MP
PP
0 sg
-9 0 0 0 9 0 0 0 1787 2158 5 MP stroke
c9
0 0 9 0 0 0 1796 2158 4 MP
PP
0 sg
-9 0 0 0 9 0 0 0 1796 2158 5 MP stroke
c9
0 0 9 0 0 0 1805 2158 4 MP
PP
0 sg
-9 0 0 0 9 0 0 0 1805 2158 5 MP stroke
c9
0 332 10 0 0 -332 1814 2158 4 MP
PP
0 sg
-10 0 0 332 10 0 0 -332 1814 2158 5 MP stroke
c9
0 0 9 0 0 0 1824 2158 4 MP
PP
0 sg
-9 0 0 0 9 0 0 0 1824 2158 5 MP stroke
c9
0 0 9 0 0 0 1833 2158 4 MP
PP
0 sg
-9 0 0 0 9 0 0 0 1833 2158 5 MP stroke
c9
0 0 9 0 0 0 1842 2158 4 MP
PP
0 sg
-9 0 0 0 9 0 0 0 1842 2158 5 MP stroke
c9
0 0 10 0 0 0 1851 2158 4 MP
PP
0 sg
-10 0 0 0 10 0 0 0 1851 2158 5 MP stroke
c9
0 0 9 0 0 0 1861 2158 4 MP
PP
0 sg
-9 0 0 0 9 0 0 0 1861 2158 5 MP stroke
c9
0 0 9 0 0 0 1870 2158 4 MP
PP
0 sg
-9 0 0 0 9 0 0 0 1870 2158 5 MP stroke
c9
0 0 9 0 0 0 1879 2158 4 MP
PP
0 sg
-9 0 0 0 9 0 0 0 1879 2158 5 MP stroke
c9
0 0 10 0 0 0 1888 2158 4 MP
PP
0 sg
-10 0 0 0 10 0 0 0 1888 2158 5 MP stroke
c9
0 0 9 0 0 0 1898 2158 4 MP
PP
0 sg
-9 0 0 0 9 0 0 0 1898 2158 5 MP stroke
c9
0 0 9 0 0 0 1907 2158 4 MP
PP
0 sg
-9 0 0 0 9 0 0 0 1907 2158 5 MP stroke
c9
0 0 9 0 0 0 1916 2158 4 MP
PP
0 sg
-9 0 0 0 9 0 0 0 1916 2158 5 MP stroke
c9
0 0 10 0 0 0 1925 2158 4 MP
PP
0 sg
-10 0 0 0 10 0 0 0 1925 2158 5 MP stroke
c9
0 0 9 0 0 0 1935 2158 4 MP
PP
0 sg
-9 0 0 0 9 0 0 0 1935 2158 5 MP stroke
c9
0 0 9 0 0 0 1944 2158 4 MP
PP
0 sg
-9 0 0 0 9 0 0 0 1944 2158 5 MP stroke
c9
0 0 9 0 0 0 1953 2158 4 MP
PP
0 sg
-9 0 0 0 9 0 0 0 1953 2158 5 MP stroke
c9
0 0 10 0 0 0 1962 2158 4 MP
PP
0 sg
-10 0 0 0 10 0 0 0 1962 2158 5 MP stroke
c9
0 0 9 0 0 0 1972 2158 4 MP
PP
0 sg
-9 0 0 0 9 0 0 0 1972 2158 5 MP stroke
c9
0 0 9 0 0 0 1981 2158 4 MP
PP
0 sg
-9 0 0 0 9 0 0 0 1981 2158 5 MP stroke
c9
0 0 9 0 0 0 1990 2158 4 MP
PP
0 sg
-9 0 0 0 9 0 0 0 1990 2158 5 MP stroke
c9
0 0 10 0 0 0 1999 2158 4 MP
PP
0 sg
-10 0 0 0 10 0 0 0 1999 2158 5 MP stroke
c9
0 0 9 0 0 0 2009 2158 4 MP
PP
0 sg
-9 0 0 0 9 0 0 0 2009 2158 5 MP stroke
c9
0 0 9 0 0 0 2018 2158 4 MP
PP
0 sg
-9 0 0 0 9 0 0 0 2018 2158 5 MP stroke
c9
0 0 9 0 0 0 2027 2158 4 MP
PP
0 sg
-9 0 0 0 9 0 0 0 2027 2158 5 MP stroke
c9
0 0 10 0 0 0 2036 2158 4 MP
PP
0 sg
-10 0 0 0 10 0 0 0 2036 2158 5 MP stroke
c9
0 1615 9 0 0 -1615 2046 2158 4 MP
PP
0 sg
-9 0 0 1615 9 0 0 -1615 2046 2158 5 MP stroke
c9
0 0 9 0 0 0 2055 2158 4 MP
PP
0 sg
-9 0 0 0 9 0 0 0 2055 2158 5 MP stroke
c9
0 0 10 0 0 0 2064 2158 4 MP
PP
0 sg
-10 0 0 0 10 0 0 0 2064 2158 5 MP stroke
c9
0 0 9 0 0 0 2074 2158 4 MP
PP
0 sg
-9 0 0 0 9 0 0 0 2074 2158 5 MP stroke
c9
0 0 9 0 0 0 2083 2158 4 MP
PP
0 sg
-9 0 0 0 9 0 0 0 2083 2158 5 MP stroke
c9
0 0 9 0 0 0 2092 2158 4 MP
PP
0 sg
-9 0 0 0 9 0 0 0 2092 2158 5 MP stroke
c9
0 0 10 0 0 0 2101 2158 4 MP
PP
0 sg
-10 0 0 0 10 0 0 0 2101 2158 5 MP stroke
c9
0 0 9 0 0 0 2111 2158 4 MP
PP
0 sg
-9 0 0 0 9 0 0 0 2111 2158 5 MP stroke
c9
0 0 9 0 0 0 2120 2158 4 MP
PP
0 sg
-9 0 0 0 9 0 0 0 2120 2158 5 MP stroke
c9
0 0 9 0 0 0 2129 2158 4 MP
PP
0 sg
-9 0 0 0 9 0 0 0 2129 2158 5 MP stroke
c9
0 0 10 0 0 0 2138 2158 4 MP
PP
0 sg
-10 0 0 0 10 0 0 0 2138 2158 5 MP stroke
c9
0 0 9 0 0 0 2148 2158 4 MP
PP
0 sg
-9 0 0 0 9 0 0 0 2148 2158 5 MP stroke
c9
0 0 9 0 0 0 2157 2158 4 MP
PP
0 sg
-9 0 0 0 9 0 0 0 2157 2158 5 MP stroke
c9
0 0 9 0 0 0 2166 2158 4 MP
PP
0 sg
-9 0 0 0 9 0 0 0 2166 2158 5 MP stroke
c9
0 0 10 0 0 0 2175 2158 4 MP
PP
0 sg
-10 0 0 0 10 0 0 0 2175 2158 5 MP stroke
c9
0 0 9 0 0 0 2185 2158 4 MP
PP
0 sg
-9 0 0 0 9 0 0 0 2185 2158 5 MP stroke
c9
0 0 9 0 0 0 2194 2158 4 MP
PP
0 sg
-9 0 0 0 9 0 0 0 2194 2158 5 MP stroke
c9
0 0 9 0 0 0 2203 2158 4 MP
PP
0 sg
-9 0 0 0 9 0 0 0 2203 2158 5 MP stroke
c9
0 0 10 0 0 0 2212 2158 4 MP
PP
0 sg
-10 0 0 0 10 0 0 0 2212 2158 5 MP stroke
c9
0 0 9 0 0 0 2222 2158 4 MP
PP
0 sg
-9 0 0 0 9 0 0 0 2222 2158 5 MP stroke
c9
0 0 9 0 0 0 2231 2158 4 MP
PP
0 sg
-9 0 0 0 9 0 0 0 2231 2158 5 MP stroke
c9
0 0 9 0 0 0 2240 2158 4 MP
PP
0 sg
-9 0 0 0 9 0 0 0 2240 2158 5 MP stroke
c9
0 0 10 0 0 0 2249 2158 4 MP
PP
0 sg
-10 0 0 0 10 0 0 0 2249 2158 5 MP stroke
c9
0 0 9 0 0 0 2259 2158 4 MP
PP
0 sg
-9 0 0 0 9 0 0 0 2259 2158 5 MP stroke
c9
0 0 9 0 0 0 2268 2158 4 MP
PP
0 sg
-9 0 0 0 9 0 0 0 2268 2158 5 MP stroke
c9
0 89 9 0 0 -89 2277 2158 4 MP
PP
0 sg
-9 0 0 89 9 0 0 -89 2277 2158 5 MP stroke
c9
0 0 10 0 0 0 2286 2158 4 MP
PP
0 sg
-10 0 0 0 10 0 0 0 2286 2158 5 MP stroke
c9
0 0 9 0 0 0 2296 2158 4 MP
PP
0 sg
-9 0 0 0 9 0 0 0 2296 2158 5 MP stroke
c9
0 0 9 0 0 0 2305 2158 4 MP
PP
0 sg
-9 0 0 0 9 0 0 0 2305 2158 5 MP stroke
c9
0 0 9 0 0 0 2314 2158 4 MP
PP
0 sg
-9 0 0 0 9 0 0 0 2314 2158 5 MP stroke
c9
0 0 10 0 0 0 2323 2158 4 MP
PP
0 sg
-10 0 0 0 10 0 0 0 2323 2158 5 MP stroke
c9
0 0 9 0 0 0 2333 2158 4 MP
PP
0 sg
-9 0 0 0 9 0 0 0 2333 2158 5 MP stroke
c9
0 0 9 0 0 0 2342 2158 4 MP
PP
0 sg
-9 0 0 0 9 0 0 0 2342 2158 5 MP stroke
c9
0 0 9 0 0 0 2351 2158 4 MP
PP
0 sg
-9 0 0 0 9 0 0 0 2351 2158 5 MP stroke
c9
0 0 10 0 0 0 2360 2158 4 MP
PP
0 sg
-10 0 0 0 10 0 0 0 2360 2158 5 MP stroke
c9
0 0 9 0 0 0 2370 2158 4 MP
PP
0 sg
-9 0 0 0 9 0 0 0 2370 2158 5 MP stroke
c9
0 0 9 0 0 0 2379 2158 4 MP
PP
0 sg
-9 0 0 0 9 0 0 0 2379 2158 5 MP stroke
c9
0 0 9 0 0 0 2388 2158 4 MP
PP
0 sg
-9 0 0 0 9 0 0 0 2388 2158 5 MP stroke
c9
0 0 10 0 0 0 2397 2158 4 MP
PP
0 sg
-10 0 0 0 10 0 0 0 2397 2158 5 MP stroke
c9
0 0 9 0 0 0 2407 2158 4 MP
PP
0 sg
-9 0 0 0 9 0 0 0 2407 2158 5 MP stroke
c9
0 0 9 0 0 0 2416 2158 4 MP
PP
0 sg
-9 0 0 0 9 0 0 0 2416 2158 5 MP stroke
c9
0 0 9 0 0 0 2425 2158 4 MP
PP
0 sg
-9 0 0 0 9 0 0 0 2425 2158 5 MP stroke
c9
0 0 10 0 0 0 2434 2158 4 MP
PP
0 sg
-10 0 0 0 10 0 0 0 2434 2158 5 MP stroke
c9
0 0 9 0 0 0 2444 2158 4 MP
PP
0 sg
-9 0 0 0 9 0 0 0 2444 2158 5 MP stroke
c9
0 0 9 0 0 0 2453 2158 4 MP
PP
0 sg
-9 0 0 0 9 0 0 0 2453 2158 5 MP stroke
c9
0 0 9 0 0 0 2462 2158 4 MP
PP
0 sg
-9 0 0 0 9 0 0 0 2462 2158 5 MP stroke
c9
0 0 10 0 0 0 2471 2158 4 MP
PP
0 sg
-10 0 0 0 10 0 0 0 2471 2158 5 MP stroke
c9
0 0 9 0 0 0 2481 2158 4 MP
PP
0 sg
-9 0 0 0 9 0 0 0 2481 2158 5 MP stroke
c9
0 0 9 0 0 0 2490 2158 4 MP
PP
0 sg
-9 0 0 0 9 0 0 0 2490 2158 5 MP stroke
c9
0 0 9 0 0 0 2499 2158 4 MP
PP
0 sg
-9 0 0 0 9 0 0 0 2499 2158 5 MP stroke
c9
0 0 10 0 0 0 2508 2158 4 MP
PP
0 sg
-10 0 0 0 10 0 0 0 2508 2158 5 MP stroke
c9
0 0 9 0 0 0 2518 2158 4 MP
PP
0 sg
-9 0 0 0 9 0 0 0 2518 2158 5 MP stroke
c9
0 0 9 0 0 0 2527 2158 4 MP
PP
0 sg
-9 0 0 0 9 0 0 0 2527 2158 5 MP stroke
c9
0 0 9 0 0 0 2536 2158 4 MP
PP
0 sg
-9 0 0 0 9 0 0 0 2536 2158 5 MP stroke
c9
0 0 10 0 0 0 2545 2158 4 MP
PP
0 sg
-10 0 0 0 10 0 0 0 2545 2158 5 MP stroke
c9
0 0 9 0 0 0 2555 2158 4 MP
PP
0 sg
-9 0 0 0 9 0 0 0 2555 2158 5 MP stroke
c9
0 0 9 0 0 0 2564 2158 4 MP
PP
0 sg
-9 0 0 0 9 0 0 0 2564 2158 5 MP stroke
c9
0 0 9 0 0 0 2573 2158 4 MP
PP
0 sg
-9 0 0 0 9 0 0 0 2573 2158 5 MP stroke
c9
0 0 10 0 0 0 2582 2158 4 MP
PP
0 sg
-10 0 0 0 10 0 0 0 2582 2158 5 MP stroke
c9
0 0 9 0 0 0 2592 2158 4 MP
PP
0 sg
-9 0 0 0 9 0 0 0 2592 2158 5 MP stroke
c9
0 0 9 0 0 0 2601 2158 4 MP
PP
0 sg
-9 0 0 0 9 0 0 0 2601 2158 5 MP stroke
c9
0 0 9 0 0 0 2610 2158 4 MP
PP
0 sg
-9 0 0 0 9 0 0 0 2610 2158 5 MP stroke
c9
0 0 10 0 0 0 2619 2158 4 MP
PP
0 sg
-10 0 0 0 10 0 0 0 2619 2158 5 MP stroke
c9
0 0 9 0 0 0 2629 2158 4 MP
PP
0 sg
-9 0 0 0 9 0 0 0 2629 2158 5 MP stroke
c9
0 0 9 0 0 0 2638 2158 4 MP
PP
0 sg
-9 0 0 0 9 0 0 0 2638 2158 5 MP stroke
c9
0 0 9 0 0 0 2647 2158 4 MP
PP
0 sg
-9 0 0 0 9 0 0 0 2647 2158 5 MP stroke
c9
0 0 10 0 0 0 2656 2158 4 MP
PP
0 sg
-10 0 0 0 10 0 0 0 2656 2158 5 MP stroke
c9
0 0 9 0 0 0 2666 2158 4 MP
PP
0 sg
-9 0 0 0 9 0 0 0 2666 2158 5 MP stroke
c9
0 0 9 0 0 0 2675 2158 4 MP
PP
0 sg
-9 0 0 0 9 0 0 0 2675 2158 5 MP stroke
c9
0 0 9 0 0 0 2684 2158 4 MP
PP
0 sg
-9 0 0 0 9 0 0 0 2684 2158 5 MP stroke
c9
0 0 10 0 0 0 2693 2158 4 MP
PP
0 sg
-10 0 0 0 10 0 0 0 2693 2158 5 MP stroke
c9
0 0 9 0 0 0 2703 2158 4 MP
PP
0 sg
-9 0 0 0 9 0 0 0 2703 2158 5 MP stroke
c9
0 0 9 0 0 0 2712 2158 4 MP
PP
0 sg
-9 0 0 0 9 0 0 0 2712 2158 5 MP stroke
c9
0 0 9 0 0 0 2721 2158 4 MP
PP
0 sg
-9 0 0 0 9 0 0 0 2721 2158 5 MP stroke
c9
0 0 10 0 0 0 2730 2158 4 MP
PP
0 sg
-10 0 0 0 10 0 0 0 2730 2158 5 MP stroke
c9
0 23 9 0 0 -23 2740 2158 4 MP
PP
0 sg
-9 0 0 23 9 0 0 -23 2740 2158 5 MP stroke
c9
0 0 9 0 0 0 2749 2158 4 MP
PP
0 sg
-9 0 0 0 9 0 0 0 2749 2158 5 MP stroke
c9
0 0 9 0 0 0 2758 2158 4 MP
PP
0 sg
-9 0 0 0 9 0 0 0 2758 2158 5 MP stroke
c9
0 0 10 0 0 0 2767 2158 4 MP
PP
0 sg
-10 0 0 0 10 0 0 0 2767 2158 5 MP stroke
c9
0 0 9 0 0 0 2777 2158 4 MP
PP
0 sg
-9 0 0 0 9 0 0 0 2777 2158 5 MP stroke
c9
0 0 9 0 0 0 2786 2158 4 MP
PP
0 sg
-9 0 0 0 9 0 0 0 2786 2158 5 MP stroke
c9
0 0 9 0 0 0 2795 2158 4 MP
PP
0 sg
-9 0 0 0 9 0 0 0 2795 2158 5 MP stroke
c9
0 0 10 0 0 0 2804 2158 4 MP
PP
0 sg
-10 0 0 0 10 0 0 0 2804 2158 5 MP stroke
c9
0 0 9 0 0 0 2814 2158 4 MP
PP
0 sg
-9 0 0 0 9 0 0 0 2814 2158 5 MP stroke
c9
0 0 9 0 0 0 2823 2158 4 MP
PP
0 sg
-9 0 0 0 9 0 0 0 2823 2158 5 MP stroke
c9
0 0 9 0 0 0 2832 2158 4 MP
PP
0 sg
-9 0 0 0 9 0 0 0 2832 2158 5 MP stroke
c9
0 0 10 0 0 0 2841 2158 4 MP
PP
0 sg
-10 0 0 0 10 0 0 0 2841 2158 5 MP stroke
c9
0 0 9 0 0 0 2851 2158 4 MP
PP
0 sg
-9 0 0 0 9 0 0 0 2851 2158 5 MP stroke
c9
0 0 9 0 0 0 2860 2158 4 MP
PP
0 sg
-9 0 0 0 9 0 0 0 2860 2158 5 MP stroke
c9
0 0 9 0 0 0 2869 2158 4 MP
PP
0 sg
-9 0 0 0 9 0 0 0 2869 2158 5 MP stroke
c9
0 0 10 0 0 0 2878 2158 4 MP
PP
0 sg
-10 0 0 0 10 0 0 0 2878 2158 5 MP stroke
c9
0 0 9 0 0 0 2888 2158 4 MP
PP
0 sg
-9 0 0 0 9 0 0 0 2888 2158 5 MP stroke
c9
0 0 9 0 0 0 2897 2158 4 MP
PP
0 sg
-9 0 0 0 9 0 0 0 2897 2158 5 MP stroke
c9
0 0 9 0 0 0 2906 2158 4 MP
PP
0 sg
-9 0 0 0 9 0 0 0 2906 2158 5 MP stroke
c9
0 0 10 0 0 0 2915 2158 4 MP
PP
0 sg
-10 0 0 0 10 0 0 0 2915 2158 5 MP stroke
c9
0 0 9 0 0 0 2925 2158 4 MP
PP
0 sg
-9 0 0 0 9 0 0 0 2925 2158 5 MP stroke
c9
0 0 9 0 0 0 2934 2158 4 MP
PP
0 sg
-9 0 0 0 9 0 0 0 2934 2158 5 MP stroke
c9
0 0 9 0 0 0 2943 2158 4 MP
PP
0 sg
-9 0 0 0 9 0 0 0 2943 2158 5 MP stroke
c9
0 0 10 0 0 0 2952 2158 4 MP
PP
0 sg
-10 0 0 0 10 0 0 0 2952 2158 5 MP stroke
c9
0 0 9 0 0 0 2962 2158 4 MP
PP
0 sg
-9 0 0 0 9 0 0 0 2962 2158 5 MP stroke
c9
0 45 9 0 0 -45 2971 2158 4 MP
PP
0 sg
-9 0 0 45 9 0 0 -45 2971 2158 5 MP stroke
1834 2446 mt 
(Time \(s\)) s
 649 1434 mt  -90 rotate
(Count) s
90 rotate
1953  294 mt 
(n=2) s
1 sg
0 1770 2313 0 0 -1770 3942 2158 4 MP
PP
-2313 0 0 1770 2313 0 0 -1770 3942 2158 5 MP stroke
4 w
DO
SO
6 w
0 sg
3942 2158 mt 6255 2158 L
3942  388 mt 6255  388 L
3942 2158 mt 3942  388 L
6255 2158 mt 6255  388 L
3942 2158 mt 6255 2158 L
3942 2158 mt 3942  388 L
3942 2158 mt 3942 2134 L
3942  389 mt 3942  412 L
3909 2303 mt 
(0) s
4520 2158 mt 4520 2134 L
4520  389 mt 4520  412 L
4370 2303 mt 
(0.005) s
5098 2158 mt 5098 2134 L
5098  389 mt 5098  412 L
4982 2303 mt 
(0.01) s
5676 2158 mt 5676 2134 L
5676  389 mt 5676  412 L
5526 2303 mt 
(0.015) s
6255 2158 mt 6255 2134 L
6255  389 mt 6255  412 L
6139 2303 mt 
(0.02) s
3942 2158 mt 3965 2158 L
6255 2158 mt 6231 2158 L
3841 2202 mt 
(0) s
3942 1804 mt 3965 1804 L
6255 1804 mt 6231 1804 L
3774 1848 mt 
(20) s
3942 1450 mt 3965 1450 L
6255 1450 mt 6231 1450 L
3774 1494 mt 
(40) s
3942 1096 mt 3965 1096 L
6255 1096 mt 6231 1096 L
3774 1140 mt 
(60) s
3942  742 mt 3965  742 L
6255  742 mt 6231  742 L
3774  786 mt 
(80) s
3942  389 mt 3965  389 L
6255  389 mt 6231  389 L
3707  433 mt 
(100) s
3942 2158 mt 6255 2158 L
3942  388 mt 6255  388 L
3942 2158 mt 3942  388 L
6255 2158 mt 6255  388 L
24 w
c8
0 -1769 5214 2158 2 MP stroke
c9
0 1486 6 0 0 -1486 5214 2158 4 MP
PP
6 w
0 sg
-6 0 0 1486 6 0 0 -1486 5214 2158 5 MP stroke
c9
0 0 6 0 0 0 5220 2158 4 MP
PP
0 sg
-6 0 0 0 6 0 0 0 5220 2158 5 MP stroke
c9
0 0 6 0 0 0 5226 2158 4 MP
PP
0 sg
-6 0 0 0 6 0 0 0 5226 2158 5 MP stroke
c9
0 0 6 0 0 0 5232 2158 4 MP
PP
0 sg
-6 0 0 0 6 0 0 0 5232 2158 5 MP stroke
c9
0 0 6 0 0 0 5238 2158 4 MP
PP
0 sg
-6 0 0 0 6 0 0 0 5238 2158 5 MP stroke
c9
0 0 7 0 0 0 5244 2158 4 MP
PP
0 sg
-7 0 0 0 7 0 0 0 5244 2158 5 MP stroke
c9
0 0 6 0 0 0 5251 2158 4 MP
PP
0 sg
-6 0 0 0 6 0 0 0 5251 2158 5 MP stroke
c9
0 0 6 0 0 0 5257 2158 4 MP
PP
0 sg
-6 0 0 0 6 0 0 0 5257 2158 5 MP stroke
c9
0 0 6 0 0 0 5263 2158 4 MP
PP
0 sg
-6 0 0 0 6 0 0 0 5263 2158 5 MP stroke
c9
0 0 6 0 0 0 5269 2158 4 MP
PP
0 sg
-6 0 0 0 6 0 0 0 5269 2158 5 MP stroke
c9
0 0 6 0 0 0 5275 2158 4 MP
PP
0 sg
-6 0 0 0 6 0 0 0 5275 2158 5 MP stroke
c9
0 0 7 0 0 0 5281 2158 4 MP
PP
0 sg
-7 0 0 0 7 0 0 0 5281 2158 5 MP stroke
c9
0 0 6 0 0 0 5288 2158 4 MP
PP
0 sg
-6 0 0 0 6 0 0 0 5288 2158 5 MP stroke
c9
0 0 6 0 0 0 5294 2158 4 MP
PP
0 sg
-6 0 0 0 6 0 0 0 5294 2158 5 MP stroke
c9
0 0 6 0 0 0 5300 2158 4 MP
PP
0 sg
-6 0 0 0 6 0 0 0 5300 2158 5 MP stroke
c9
0 0 6 0 0 0 5306 2158 4 MP
PP
0 sg
-6 0 0 0 6 0 0 0 5306 2158 5 MP stroke
c9
0 0 7 0 0 0 5312 2158 4 MP
PP
0 sg
-7 0 0 0 7 0 0 0 5312 2158 5 MP stroke
c9
0 0 6 0 0 0 5319 2158 4 MP
PP
0 sg
-6 0 0 0 6 0 0 0 5319 2158 5 MP stroke
c9
0 230 6 0 0 -230 5325 2158 4 MP
PP
0 sg
-6 0 0 230 6 0 0 -230 5325 2158 5 MP stroke
c9
0 0 6 0 0 0 5331 2158 4 MP
PP
0 sg
-6 0 0 0 6 0 0 0 5331 2158 5 MP stroke
c9
0 0 6 0 0 0 5337 2158 4 MP
PP
0 sg
-6 0 0 0 6 0 0 0 5337 2158 5 MP stroke
c9
0 0 6 0 0 0 5343 2158 4 MP
PP
0 sg
-6 0 0 0 6 0 0 0 5343 2158 5 MP stroke
c9
0 0 7 0 0 0 5349 2158 4 MP
PP
0 sg
-7 0 0 0 7 0 0 0 5349 2158 5 MP stroke
c9
0 0 6 0 0 0 5356 2158 4 MP
PP
0 sg
-6 0 0 0 6 0 0 0 5356 2158 5 MP stroke
c9
0 0 6 0 0 0 5362 2158 4 MP
PP
0 sg
-6 0 0 0 6 0 0 0 5362 2158 5 MP stroke
c9
0 0 6 0 0 0 5368 2158 4 MP
PP
0 sg
-6 0 0 0 6 0 0 0 5368 2158 5 MP stroke
c9
0 0 6 0 0 0 5374 2158 4 MP
PP
0 sg
-6 0 0 0 6 0 0 0 5374 2158 5 MP stroke
c9
0 0 6 0 0 0 5380 2158 4 MP
PP
0 sg
-6 0 0 0 6 0 0 0 5380 2158 5 MP stroke
c9
0 0 7 0 0 0 5386 2158 4 MP
PP
0 sg
-7 0 0 0 7 0 0 0 5386 2158 5 MP stroke
c9
0 0 6 0 0 0 5393 2158 4 MP
PP
0 sg
-6 0 0 0 6 0 0 0 5393 2158 5 MP stroke
c9
0 0 6 0 0 0 5399 2158 4 MP
PP
0 sg
-6 0 0 0 6 0 0 0 5399 2158 5 MP stroke
c9
0 0 6 0 0 0 5405 2158 4 MP
PP
0 sg
-6 0 0 0 6 0 0 0 5405 2158 5 MP stroke
c9
0 0 6 0 0 0 5411 2158 4 MP
PP
0 sg
-6 0 0 0 6 0 0 0 5411 2158 5 MP stroke
c9
0 0 6 0 0 0 5417 2158 4 MP
PP
0 sg
-6 0 0 0 6 0 0 0 5417 2158 5 MP stroke
c9
0 0 7 0 0 0 5423 2158 4 MP
PP
0 sg
-7 0 0 0 7 0 0 0 5423 2158 5 MP stroke
c9
0 0 6 0 0 0 5430 2158 4 MP
PP
0 sg
-6 0 0 0 6 0 0 0 5430 2158 5 MP stroke
c9
0 0 6 0 0 0 5436 2158 4 MP
PP
0 sg
-6 0 0 0 6 0 0 0 5436 2158 5 MP stroke
c9
0 18 6 0 0 -18 5442 2158 4 MP
PP
0 sg
-6 0 0 18 6 0 0 -18 5442 2158 5 MP stroke
c9
0 0 6 0 0 0 5448 2158 4 MP
PP
0 sg
-6 0 0 0 6 0 0 0 5448 2158 5 MP stroke
c9
0 0 6 0 0 0 5454 2158 4 MP
PP
0 sg
-6 0 0 0 6 0 0 0 5454 2158 5 MP stroke
c9
0 0 7 0 0 0 5460 2158 4 MP
PP
0 sg
-7 0 0 0 7 0 0 0 5460 2158 5 MP stroke
c9
0 0 6 0 0 0 5467 2158 4 MP
PP
0 sg
-6 0 0 0 6 0 0 0 5467 2158 5 MP stroke
c9
0 0 6 0 0 0 5473 2158 4 MP
PP
0 sg
-6 0 0 0 6 0 0 0 5473 2158 5 MP stroke
c9
0 0 6 0 0 0 5479 2158 4 MP
PP
0 sg
-6 0 0 0 6 0 0 0 5479 2158 5 MP stroke
c9
0 0 6 0 0 0 5485 2158 4 MP
PP
0 sg
-6 0 0 0 6 0 0 0 5485 2158 5 MP stroke
c9
0 0 6 0 0 0 5491 2158 4 MP
PP
0 sg
-6 0 0 0 6 0 0 0 5491 2158 5 MP stroke
c9
0 0 7 0 0 0 5497 2158 4 MP
PP
0 sg
-7 0 0 0 7 0 0 0 5497 2158 5 MP stroke
c9
0 0 6 0 0 0 5504 2158 4 MP
PP
0 sg
-6 0 0 0 6 0 0 0 5504 2158 5 MP stroke
c9
0 0 6 0 0 0 5510 2158 4 MP
PP
0 sg
-6 0 0 0 6 0 0 0 5510 2158 5 MP stroke
c9
0 0 6 0 0 0 5516 2158 4 MP
PP
0 sg
-6 0 0 0 6 0 0 0 5516 2158 5 MP stroke
c9
0 0 6 0 0 0 5522 2158 4 MP
PP
0 sg
-6 0 0 0 6 0 0 0 5522 2158 5 MP stroke
c9
0 0 6 0 0 0 5528 2158 4 MP
PP
0 sg
-6 0 0 0 6 0 0 0 5528 2158 5 MP stroke
c9
0 0 7 0 0 0 5534 2158 4 MP
PP
0 sg
-7 0 0 0 7 0 0 0 5534 2158 5 MP stroke
c9
0 0 6 0 0 0 5541 2158 4 MP
PP
0 sg
-6 0 0 0 6 0 0 0 5541 2158 5 MP stroke
c9
0 0 6 0 0 0 5547 2158 4 MP
PP
0 sg
-6 0 0 0 6 0 0 0 5547 2158 5 MP stroke
c9
0 0 6 0 0 0 5553 2158 4 MP
PP
0 sg
-6 0 0 0 6 0 0 0 5553 2158 5 MP stroke
c9
0 36 6 0 0 -36 5559 2158 4 MP
PP
0 sg
-6 0 0 36 6 0 0 -36 5559 2158 5 MP stroke
c9
0 0 6 0 0 0 5565 2158 4 MP
PP
0 sg
-6 0 0 0 6 0 0 0 5565 2158 5 MP stroke
c9
0 0 7 0 0 0 5571 2158 4 MP
PP
0 sg
-7 0 0 0 7 0 0 0 5571 2158 5 MP stroke
c9
0 0 6 0 0 0 5578 2158 4 MP
PP
0 sg
-6 0 0 0 6 0 0 0 5578 2158 5 MP stroke
c9
0 0 6 0 0 0 5584 2158 4 MP
PP
0 sg
-6 0 0 0 6 0 0 0 5584 2158 5 MP stroke
c9
0 0 6 0 0 0 5590 2158 4 MP
PP
0 sg
-6 0 0 0 6 0 0 0 5590 2158 5 MP stroke
c9
0 0 6 0 0 0 5596 2158 4 MP
PP
0 sg
-6 0 0 0 6 0 0 0 5596 2158 5 MP stroke
c9
0 0 6 0 0 0 5602 2158 4 MP
PP
0 sg
-6 0 0 0 6 0 0 0 5602 2158 5 MP stroke
c9
0 0 7 0 0 0 5608 2158 4 MP
PP
0 sg
-7 0 0 0 7 0 0 0 5608 2158 5 MP stroke
c9
0 0 6 0 0 0 5615 2158 4 MP
PP
0 sg
-6 0 0 0 6 0 0 0 5615 2158 5 MP stroke
c9
0 0 6 0 0 0 5621 2158 4 MP
PP
0 sg
-6 0 0 0 6 0 0 0 5621 2158 5 MP stroke
c9
0 0 6 0 0 0 5627 2158 4 MP
PP
0 sg
-6 0 0 0 6 0 0 0 5627 2158 5 MP stroke
c9
0 0 6 0 0 0 5633 2158 4 MP
PP
0 sg
-6 0 0 0 6 0 0 0 5633 2158 5 MP stroke
c9
0 0 6 0 0 0 5639 2158 4 MP
PP
0 sg
-6 0 0 0 6 0 0 0 5639 2158 5 MP stroke
c9
0 0 7 0 0 0 5645 2158 4 MP
PP
0 sg
-7 0 0 0 7 0 0 0 5645 2158 5 MP stroke
c9
0 0 6 0 0 0 5652 2158 4 MP
PP
0 sg
-6 0 0 0 6 0 0 0 5652 2158 5 MP stroke
c9
0 0 6 0 0 0 5658 2158 4 MP
PP
0 sg
-6 0 0 0 6 0 0 0 5658 2158 5 MP stroke
c9
0 0 6 0 0 0 5664 2158 4 MP
PP
0 sg
-6 0 0 0 6 0 0 0 5664 2158 5 MP stroke
c9
0 0 6 0 0 0 5670 2158 4 MP
PP
0 sg
-6 0 0 0 6 0 0 0 5670 2158 5 MP stroke
c9
0 0 6 0 0 0 5676 2158 4 MP
PP
0 sg
-6 0 0 0 6 0 0 0 5676 2158 5 MP stroke
c9
0 0 7 0 0 0 5682 2158 4 MP
PP
0 sg
-7 0 0 0 7 0 0 0 5682 2158 5 MP stroke
c9
0 0 6 0 0 0 5689 2158 4 MP
PP
0 sg
-6 0 0 0 6 0 0 0 5689 2158 5 MP stroke
c9
0 0 6 0 0 0 5695 2158 4 MP
PP
0 sg
-6 0 0 0 6 0 0 0 5695 2158 5 MP stroke
c9
0 0 6 0 0 0 5701 2158 4 MP
PP
0 sg
-6 0 0 0 6 0 0 0 5701 2158 5 MP stroke
c9
0 0 6 0 0 0 5707 2158 4 MP
PP
0 sg
-6 0 0 0 6 0 0 0 5707 2158 5 MP stroke
c9
0 0 6 0 0 0 5713 2158 4 MP
PP
0 sg
-6 0 0 0 6 0 0 0 5713 2158 5 MP stroke
c9
0 0 7 0 0 0 5719 2158 4 MP
PP
0 sg
-7 0 0 0 7 0 0 0 5719 2158 5 MP stroke
c9
0 0 6 0 0 0 5726 2158 4 MP
PP
0 sg
-6 0 0 0 6 0 0 0 5726 2158 5 MP stroke
c9
0 0 6 0 0 0 5732 2158 4 MP
PP
0 sg
-6 0 0 0 6 0 0 0 5732 2158 5 MP stroke
c9
0 0 6 0 0 0 5738 2158 4 MP
PP
0 sg
-6 0 0 0 6 0 0 0 5738 2158 5 MP stroke
c9
0 0 6 0 0 0 5744 2158 4 MP
PP
0 sg
-6 0 0 0 6 0 0 0 5744 2158 5 MP stroke
c9
0 0 6 0 0 0 5750 2158 4 MP
PP
0 sg
-6 0 0 0 6 0 0 0 5750 2158 5 MP stroke
c9
0 0 7 0 0 0 5756 2158 4 MP
PP
0 sg
-7 0 0 0 7 0 0 0 5756 2158 5 MP stroke
c9
0 0 6 0 0 0 5763 2158 4 MP
PP
0 sg
-6 0 0 0 6 0 0 0 5763 2158 5 MP stroke
c9
0 0 6 0 0 0 5769 2158 4 MP
PP
0 sg
-6 0 0 0 6 0 0 0 5769 2158 5 MP stroke
c9
0 0 6 0 0 0 5775 2158 4 MP
PP
0 sg
-6 0 0 0 6 0 0 0 5775 2158 5 MP stroke
c9
0 0 6 0 0 0 5781 2158 4 MP
PP
0 sg
-6 0 0 0 6 0 0 0 5781 2158 5 MP stroke
c9
0 0 6 0 0 0 5787 2158 4 MP
PP
0 sg
-6 0 0 0 6 0 0 0 5787 2158 5 MP stroke
c9
0 0 7 0 0 0 5793 2158 4 MP
PP
0 sg
-7 0 0 0 7 0 0 0 5793 2158 5 MP stroke
c9
0 0 6 0 0 0 5800 2158 4 MP
PP
0 sg
-6 0 0 0 6 0 0 0 5800 2158 5 MP stroke
c9
0 0 6 0 0 0 5806 2158 4 MP
PP
0 sg
-6 0 0 0 6 0 0 0 5806 2158 5 MP stroke
c9
0 0 6 0 0 0 5812 2158 4 MP
PP
0 sg
-6 0 0 0 6 0 0 0 5812 2158 5 MP stroke
c9
0 0 6 0 0 0 5818 2158 4 MP
PP
0 sg
-6 0 0 0 6 0 0 0 5818 2158 5 MP stroke
c9
0 0 6 0 0 0 5824 2158 4 MP
PP
0 sg
-6 0 0 0 6 0 0 0 5824 2158 5 MP stroke
c9
0 0 7 0 0 0 5830 2158 4 MP
PP
0 sg
-7 0 0 0 7 0 0 0 5830 2158 5 MP stroke
c9
0 0 6 0 0 0 5837 2158 4 MP
PP
0 sg
-6 0 0 0 6 0 0 0 5837 2158 5 MP stroke
c9
0 0 6 0 0 0 5843 2158 4 MP
PP
0 sg
-6 0 0 0 6 0 0 0 5843 2158 5 MP stroke
c9
0 0 6 0 0 0 5849 2158 4 MP
PP
0 sg
-6 0 0 0 6 0 0 0 5849 2158 5 MP stroke
c9
0 0 6 0 0 0 5855 2158 4 MP
PP
0 sg
-6 0 0 0 6 0 0 0 5855 2158 5 MP stroke
c9
0 0 6 0 0 0 5861 2158 4 MP
PP
0 sg
-6 0 0 0 6 0 0 0 5861 2158 5 MP stroke
c9
0 0 7 0 0 0 5867 2158 4 MP
PP
0 sg
-7 0 0 0 7 0 0 0 5867 2158 5 MP stroke
c9
0 0 6 0 0 0 5874 2158 4 MP
PP
0 sg
-6 0 0 0 6 0 0 0 5874 2158 5 MP stroke
c9
0 0 6 0 0 0 5880 2158 4 MP
PP
0 sg
-6 0 0 0 6 0 0 0 5880 2158 5 MP stroke
c9
0 0 6 0 0 0 5886 2158 4 MP
PP
0 sg
-6 0 0 0 6 0 0 0 5886 2158 5 MP stroke
c9
0 0 6 0 0 0 5892 2158 4 MP
PP
0 sg
-6 0 0 0 6 0 0 0 5892 2158 5 MP stroke
c9
0 0 6 0 0 0 5898 2158 4 MP
PP
0 sg
-6 0 0 0 6 0 0 0 5898 2158 5 MP stroke
c9
0 0 7 0 0 0 5904 2158 4 MP
PP
0 sg
-7 0 0 0 7 0 0 0 5904 2158 5 MP stroke
c9
0 0 6 0 0 0 5911 2158 4 MP
PP
0 sg
-6 0 0 0 6 0 0 0 5911 2158 5 MP stroke
c9
0 0 6 0 0 0 5917 2158 4 MP
PP
0 sg
-6 0 0 0 6 0 0 0 5917 2158 5 MP stroke
c9
0 0 6 0 0 0 5923 2158 4 MP
PP
0 sg
-6 0 0 0 6 0 0 0 5923 2158 5 MP stroke
c9
0 0 6 0 0 0 5929 2158 4 MP
PP
0 sg
-6 0 0 0 6 0 0 0 5929 2158 5 MP stroke
c9
0 0 6 0 0 0 5935 2158 4 MP
PP
0 sg
-6 0 0 0 6 0 0 0 5935 2158 5 MP stroke
c9
0 0 7 0 0 0 5941 2158 4 MP
PP
0 sg
-7 0 0 0 7 0 0 0 5941 2158 5 MP stroke
c9
0 0 6 0 0 0 5948 2158 4 MP
PP
0 sg
-6 0 0 0 6 0 0 0 5948 2158 5 MP stroke
c9
0 0 6 0 0 0 5954 2158 4 MP
PP
0 sg
-6 0 0 0 6 0 0 0 5954 2158 5 MP stroke
c9
0 0 6 0 0 0 5960 2158 4 MP
PP
0 sg
-6 0 0 0 6 0 0 0 5960 2158 5 MP stroke
c9
0 0 6 0 0 0 5966 2158 4 MP
PP
0 sg
-6 0 0 0 6 0 0 0 5966 2158 5 MP stroke
c9
0 0 6 0 0 0 5972 2158 4 MP
PP
0 sg
-6 0 0 0 6 0 0 0 5972 2158 5 MP stroke
c9
0 0 7 0 0 0 5978 2158 4 MP
PP
0 sg
-7 0 0 0 7 0 0 0 5978 2158 5 MP stroke
c9
0 0 6 0 0 0 5985 2158 4 MP
PP
0 sg
-6 0 0 0 6 0 0 0 5985 2158 5 MP stroke
c9
0 0 6 0 0 0 5991 2158 4 MP
PP
0 sg
-6 0 0 0 6 0 0 0 5991 2158 5 MP stroke
c9
0 0 6 0 0 0 5997 2158 4 MP
PP
0 sg
-6 0 0 0 6 0 0 0 5997 2158 5 MP stroke
c9
0 0 6 0 0 0 6003 2158 4 MP
PP
0 sg
-6 0 0 0 6 0 0 0 6003 2158 5 MP stroke
c9
0 0 6 0 0 0 6009 2158 4 MP
PP
0 sg
-6 0 0 0 6 0 0 0 6009 2158 5 MP stroke
c9
0 0 7 0 0 0 6015 2158 4 MP
PP
0 sg
-7 0 0 0 7 0 0 0 6015 2158 5 MP stroke
c9
0 0 6 0 0 0 6022 2158 4 MP
PP
0 sg
-6 0 0 0 6 0 0 0 6022 2158 5 MP stroke
c9
0 0 6 0 0 0 6028 2158 4 MP
PP
0 sg
-6 0 0 0 6 0 0 0 6028 2158 5 MP stroke
c9
0 0 6 0 0 0 6034 2158 4 MP
PP
0 sg
-6 0 0 0 6 0 0 0 6034 2158 5 MP stroke
c9
0 0 6 0 0 0 6040 2158 4 MP
PP
0 sg
-6 0 0 0 6 0 0 0 6040 2158 5 MP stroke
c9
0 0 6 0 0 0 6046 2158 4 MP
PP
0 sg
-6 0 0 0 6 0 0 0 6046 2158 5 MP stroke
c9
0 0 7 0 0 0 6052 2158 4 MP
PP
0 sg
-7 0 0 0 7 0 0 0 6052 2158 5 MP stroke
c9
0 0 6 0 0 0 6059 2158 4 MP
PP
0 sg
-6 0 0 0 6 0 0 0 6059 2158 5 MP stroke
c9
0 0 6 0 0 0 6065 2158 4 MP
PP
0 sg
-6 0 0 0 6 0 0 0 6065 2158 5 MP stroke
c9
0 0 6 0 0 0 6071 2158 4 MP
PP
0 sg
-6 0 0 0 6 0 0 0 6071 2158 5 MP stroke
c9
0 0 6 0 0 0 6077 2158 4 MP
PP
0 sg
-6 0 0 0 6 0 0 0 6077 2158 5 MP stroke
c9
0 0 7 0 0 0 6083 2158 4 MP
PP
0 sg
-7 0 0 0 7 0 0 0 6083 2158 5 MP stroke
c9
0 0 6 0 0 0 6090 2158 4 MP
PP
0 sg
-6 0 0 0 6 0 0 0 6090 2158 5 MP stroke
c9
0 0 6 0 0 0 6096 2158 4 MP
PP
0 sg
-6 0 0 0 6 0 0 0 6096 2158 5 MP stroke
c9
0 0 6 0 0 0 6102 2158 4 MP
PP
0 sg
-6 0 0 0 6 0 0 0 6102 2158 5 MP stroke
c9
0 0 6 0 0 0 6108 2158 4 MP
PP
0 sg
-6 0 0 0 6 0 0 0 6108 2158 5 MP stroke
c9
0 0 6 0 0 0 6114 2158 4 MP
PP
0 sg
-6 0 0 0 6 0 0 0 6114 2158 5 MP stroke
c9
0 0 7 0 0 0 6120 2158 4 MP
PP
0 sg
-7 0 0 0 7 0 0 0 6120 2158 5 MP stroke
c9
0 0 6 0 0 0 6127 2158 4 MP
PP
0 sg
-6 0 0 0 6 0 0 0 6127 2158 5 MP stroke
c9
0 18 6 0 0 -18 6133 2158 4 MP
PP
0 sg
-6 0 0 18 6 0 0 -18 6133 2158 5 MP stroke
4877 2446 mt 
(Time \(s\)) s
3625 1434 mt  -90 rotate
(Count) s
90 rotate
4996  294 mt 
(n=3) s
1 sg
0 1769 2313 0 0 -1769 899 4615 4 MP
PP
-2313 0 0 1769 2313 0 0 -1769 899 4615 5 MP stroke
4 w
DO
SO
6 w
0 sg
 899 4615 mt 3212 4615 L
 899 2846 mt 3212 2846 L
 899 4615 mt  899 2846 L
3212 4615 mt 3212 2846 L
 899 4615 mt 3212 4615 L
 899 4615 mt  899 2846 L
 899 4615 mt  899 4591 L
 899 2846 mt  899 2869 L
 866 4760 mt 
(0) s
1361 4615 mt 1361 4591 L
1361 2846 mt 1361 2869 L
1245 4760 mt 
(0.02) s
1824 4615 mt 1824 4591 L
1824 2846 mt 1824 2869 L
1708 4760 mt 
(0.04) s
2286 4615 mt 2286 4591 L
2286 2846 mt 2286 2869 L
2170 4760 mt 
(0.06) s
2749 4615 mt 2749 4591 L
2749 2846 mt 2749 2869 L
2633 4760 mt 
(0.08) s
3212 4615 mt 3212 4591 L
3212 2846 mt 3212 2869 L
3129 4760 mt 
(0.1) s
 899 4615 mt  922 4615 L
3212 4615 mt 3188 4615 L
 798 4659 mt 
(0) s
 899 4261 mt  922 4261 L
3212 4261 mt 3188 4261 L
 798 4305 mt 
(5) s
 899 3907 mt  922 3907 L
3212 3907 mt 3188 3907 L
 731 3951 mt 
(10) s
 899 3553 mt  922 3553 L
3212 3553 mt 3188 3553 L
 731 3597 mt 
(15) s
 899 3199 mt  922 3199 L
3212 3199 mt 3188 3199 L
 731 3243 mt 
(20) s
 899 2846 mt  922 2846 L
3212 2846 mt 3188 2846 L
 731 2890 mt 
(25) s
 899 4615 mt 3212 4615 L
 899 2846 mt 3212 2846 L
 899 4615 mt  899 2846 L
3212 4615 mt 3212 2846 L
24 w
c8
0 -1769 2333 4615 2 MP stroke
c9
0 425 8 0 0 -425 1639 4615 4 MP
PP
6 w
0 sg
-8 0 0 425 8 0 0 -425 1639 4615 5 MP stroke
c9
0 0 9 0 0 0 1647 4615 4 MP
PP
0 sg
-9 0 0 0 9 0 0 0 1647 4615 5 MP stroke
c9
0 920 9 0 0 -920 1656 4615 4 MP
PP
0 sg
-9 0 0 920 9 0 0 -920 1656 4615 5 MP stroke
c9
0 0 8 0 0 0 1665 4615 4 MP
PP
0 sg
-8 0 0 0 8 0 0 0 1665 4615 5 MP stroke
c9
0 0 9 0 0 0 1673 4615 4 MP
PP
0 sg
-9 0 0 0 9 0 0 0 1673 4615 5 MP stroke
c9
0 496 8 0 0 -496 1682 4615 4 MP
PP
0 sg
-8 0 0 496 8 0 0 -496 1682 4615 5 MP stroke
c9
0 0 9 0 0 0 1690 4615 4 MP
PP
0 sg
-9 0 0 0 9 0 0 0 1690 4615 5 MP stroke
c9
0 0 9 0 0 0 1699 4615 4 MP
PP
0 sg
-9 0 0 0 9 0 0 0 1699 4615 5 MP stroke
c9
0 0 8 0 0 0 1708 4615 4 MP
PP
0 sg
-8 0 0 0 8 0 0 0 1708 4615 5 MP stroke
c9
0 0 9 0 0 0 1716 4615 4 MP
PP
0 sg
-9 0 0 0 9 0 0 0 1716 4615 5 MP stroke
c9
0 0 9 0 0 0 1725 4615 4 MP
PP
0 sg
-9 0 0 0 9 0 0 0 1725 4615 5 MP stroke
c9
0 0 8 0 0 0 1734 4615 4 MP
PP
0 sg
-8 0 0 0 8 0 0 0 1734 4615 5 MP stroke
c9
0 0 9 0 0 0 1742 4615 4 MP
PP
0 sg
-9 0 0 0 9 0 0 0 1742 4615 5 MP stroke
c9
0 0 9 0 0 0 1751 4615 4 MP
PP
0 sg
-9 0 0 0 9 0 0 0 1751 4615 5 MP stroke
c9
0 0 8 0 0 0 1760 4615 4 MP
PP
0 sg
-8 0 0 0 8 0 0 0 1760 4615 5 MP stroke
c9
0 0 9 0 0 0 1768 4615 4 MP
PP
0 sg
-9 0 0 0 9 0 0 0 1768 4615 5 MP stroke
c9
0 0 8 0 0 0 1777 4615 4 MP
PP
0 sg
-8 0 0 0 8 0 0 0 1777 4615 5 MP stroke
c9
0 0 9 0 0 0 1785 4615 4 MP
PP
0 sg
-9 0 0 0 9 0 0 0 1785 4615 5 MP stroke
c9
0 0 9 0 0 0 1794 4615 4 MP
PP
0 sg
-9 0 0 0 9 0 0 0 1794 4615 5 MP stroke
c9
0 0 8 0 0 0 1803 4615 4 MP
PP
0 sg
-8 0 0 0 8 0 0 0 1803 4615 5 MP stroke
c9
0 0 9 0 0 0 1811 4615 4 MP
PP
0 sg
-9 0 0 0 9 0 0 0 1811 4615 5 MP stroke
c9
0 71 9 0 0 -71 1820 4615 4 MP
PP
0 sg
-9 0 0 71 9 0 0 -71 1820 4615 5 MP stroke
c9
0 0 8 0 0 0 1829 4615 4 MP
PP
0 sg
-8 0 0 0 8 0 0 0 1829 4615 5 MP stroke
c9
0 0 9 0 0 0 1837 4615 4 MP
PP
0 sg
-9 0 0 0 9 0 0 0 1837 4615 5 MP stroke
c9
0 0 9 0 0 0 1846 4615 4 MP
PP
0 sg
-9 0 0 0 9 0 0 0 1846 4615 5 MP stroke
c9
0 0 8 0 0 0 1855 4615 4 MP
PP
0 sg
-8 0 0 0 8 0 0 0 1855 4615 5 MP stroke
c9
0 0 9 0 0 0 1863 4615 4 MP
PP
0 sg
-9 0 0 0 9 0 0 0 1863 4615 5 MP stroke
c9
0 0 8 0 0 0 1872 4615 4 MP
PP
0 sg
-8 0 0 0 8 0 0 0 1872 4615 5 MP stroke
c9
0 0 9 0 0 0 1880 4615 4 MP
PP
0 sg
-9 0 0 0 9 0 0 0 1880 4615 5 MP stroke
c9
0 0 9 0 0 0 1889 4615 4 MP
PP
0 sg
-9 0 0 0 9 0 0 0 1889 4615 5 MP stroke
c9
0 0 8 0 0 0 1898 4615 4 MP
PP
0 sg
-8 0 0 0 8 0 0 0 1898 4615 5 MP stroke
c9
0 0 9 0 0 0 1906 4615 4 MP
PP
0 sg
-9 0 0 0 9 0 0 0 1906 4615 5 MP stroke
c9
0 0 9 0 0 0 1915 4615 4 MP
PP
0 sg
-9 0 0 0 9 0 0 0 1915 4615 5 MP stroke
c9
0 0 8 0 0 0 1924 4615 4 MP
PP
0 sg
-8 0 0 0 8 0 0 0 1924 4615 5 MP stroke
c9
0 0 9 0 0 0 1932 4615 4 MP
PP
0 sg
-9 0 0 0 9 0 0 0 1932 4615 5 MP stroke
c9
0 0 9 0 0 0 1941 4615 4 MP
PP
0 sg
-9 0 0 0 9 0 0 0 1941 4615 5 MP stroke
c9
0 0 8 0 0 0 1950 4615 4 MP
PP
0 sg
-8 0 0 0 8 0 0 0 1950 4615 5 MP stroke
c9
0 71 9 0 0 -71 1958 4615 4 MP
PP
0 sg
-9 0 0 71 9 0 0 -71 1958 4615 5 MP stroke
c9
0 0 8 0 0 0 1967 4615 4 MP
PP
0 sg
-8 0 0 0 8 0 0 0 1967 4615 5 MP stroke
c9
0 0 9 0 0 0 1975 4615 4 MP
PP
0 sg
-9 0 0 0 9 0 0 0 1975 4615 5 MP stroke
c9
0 71 9 0 0 -71 1984 4615 4 MP
PP
0 sg
-9 0 0 71 9 0 0 -71 1984 4615 5 MP stroke
c9
0 0 8 0 0 0 1993 4615 4 MP
PP
0 sg
-8 0 0 0 8 0 0 0 1993 4615 5 MP stroke
c9
0 71 9 0 0 -71 2001 4615 4 MP
PP
0 sg
-9 0 0 71 9 0 0 -71 2001 4615 5 MP stroke
c9
0 0 9 0 0 0 2010 4615 4 MP
PP
0 sg
-9 0 0 0 9 0 0 0 2010 4615 5 MP stroke
c9
0 0 8 0 0 0 2019 4615 4 MP
PP
0 sg
-8 0 0 0 8 0 0 0 2019 4615 5 MP stroke
c9
0 0 9 0 0 0 2027 4615 4 MP
PP
0 sg
-9 0 0 0 9 0 0 0 2027 4615 5 MP stroke
c9
0 0 9 0 0 0 2036 4615 4 MP
PP
0 sg
-9 0 0 0 9 0 0 0 2036 4615 5 MP stroke
c9
0 0 8 0 0 0 2045 4615 4 MP
PP
0 sg
-8 0 0 0 8 0 0 0 2045 4615 5 MP stroke
c9
0 0 9 0 0 0 2053 4615 4 MP
PP
0 sg
-9 0 0 0 9 0 0 0 2053 4615 5 MP stroke
c9
0 0 8 0 0 0 2062 4615 4 MP
PP
0 sg
-8 0 0 0 8 0 0 0 2062 4615 5 MP stroke
c9
0 0 9 0 0 0 2070 4615 4 MP
PP
0 sg
-9 0 0 0 9 0 0 0 2070 4615 5 MP stroke
c9
0 0 9 0 0 0 2079 4615 4 MP
PP
0 sg
-9 0 0 0 9 0 0 0 2079 4615 5 MP stroke
c9
0 0 8 0 0 0 2088 4615 4 MP
PP
0 sg
-8 0 0 0 8 0 0 0 2088 4615 5 MP stroke
c9
0 0 9 0 0 0 2096 4615 4 MP
PP
0 sg
-9 0 0 0 9 0 0 0 2096 4615 5 MP stroke
c9
0 0 9 0 0 0 2105 4615 4 MP
PP
0 sg
-9 0 0 0 9 0 0 0 2105 4615 5 MP stroke
c9
0 0 8 0 0 0 2114 4615 4 MP
PP
0 sg
-8 0 0 0 8 0 0 0 2114 4615 5 MP stroke
c9
0 0 9 0 0 0 2122 4615 4 MP
PP
0 sg
-9 0 0 0 9 0 0 0 2122 4615 5 MP stroke
c9
0 0 9 0 0 0 2131 4615 4 MP
PP
0 sg
-9 0 0 0 9 0 0 0 2131 4615 5 MP stroke
c9
0 0 8 0 0 0 2140 4615 4 MP
PP
0 sg
-8 0 0 0 8 0 0 0 2140 4615 5 MP stroke
c9
0 0 9 0 0 0 2148 4615 4 MP
PP
0 sg
-9 0 0 0 9 0 0 0 2148 4615 5 MP stroke
c9
0 0 8 0 0 0 2157 4615 4 MP
PP
0 sg
-8 0 0 0 8 0 0 0 2157 4615 5 MP stroke
c9
0 0 9 0 0 0 2165 4615 4 MP
PP
0 sg
-9 0 0 0 9 0 0 0 2165 4615 5 MP stroke
c9
0 0 9 0 0 0 2174 4615 4 MP
PP
0 sg
-9 0 0 0 9 0 0 0 2174 4615 5 MP stroke
c9
0 0 8 0 0 0 2183 4615 4 MP
PP
0 sg
-8 0 0 0 8 0 0 0 2183 4615 5 MP stroke
c9
0 0 9 0 0 0 2191 4615 4 MP
PP
0 sg
-9 0 0 0 9 0 0 0 2191 4615 5 MP stroke
c9
0 0 9 0 0 0 2200 4615 4 MP
PP
0 sg
-9 0 0 0 9 0 0 0 2200 4615 5 MP stroke
c9
0 0 8 0 0 0 2209 4615 4 MP
PP
0 sg
-8 0 0 0 8 0 0 0 2209 4615 5 MP stroke
c9
0 0 9 0 0 0 2217 4615 4 MP
PP
0 sg
-9 0 0 0 9 0 0 0 2217 4615 5 MP stroke
c9
0 0 8 0 0 0 2226 4615 4 MP
PP
0 sg
-8 0 0 0 8 0 0 0 2226 4615 5 MP stroke
c9
0 0 9 0 0 0 2234 4615 4 MP
PP
0 sg
-9 0 0 0 9 0 0 0 2234 4615 5 MP stroke
c9
0 0 9 0 0 0 2243 4615 4 MP
PP
0 sg
-9 0 0 0 9 0 0 0 2243 4615 5 MP stroke
c9
0 0 8 0 0 0 2252 4615 4 MP
PP
0 sg
-8 0 0 0 8 0 0 0 2252 4615 5 MP stroke
c9
0 0 9 0 0 0 2260 4615 4 MP
PP
0 sg
-9 0 0 0 9 0 0 0 2260 4615 5 MP stroke
c9
0 0 9 0 0 0 2269 4615 4 MP
PP
0 sg
-9 0 0 0 9 0 0 0 2269 4615 5 MP stroke
c9
0 0 8 0 0 0 2278 4615 4 MP
PP
0 sg
-8 0 0 0 8 0 0 0 2278 4615 5 MP stroke
c9
0 0 9 0 0 0 2286 4615 4 MP
PP
0 sg
-9 0 0 0 9 0 0 0 2286 4615 5 MP stroke
c9
0 0 9 0 0 0 2295 4615 4 MP
PP
0 sg
-9 0 0 0 9 0 0 0 2295 4615 5 MP stroke
c9
0 567 8 0 0 -567 2304 4615 4 MP
PP
0 sg
-8 0 0 567 8 0 0 -567 2304 4615 5 MP stroke
c9
0 0 9 0 0 0 2312 4615 4 MP
PP
0 sg
-9 0 0 0 9 0 0 0 2312 4615 5 MP stroke
c9
0 0 8 0 0 0 2321 4615 4 MP
PP
0 sg
-8 0 0 0 8 0 0 0 2321 4615 5 MP stroke
c9
0 1486 9 0 0 -1486 2329 4615 4 MP
PP
0 sg
-9 0 0 1486 9 0 0 -1486 2329 4615 5 MP stroke
c9
0 0 9 0 0 0 2338 4615 4 MP
PP
0 sg
-9 0 0 0 9 0 0 0 2338 4615 5 MP stroke
c9
0 0 8 0 0 0 2347 4615 4 MP
PP
0 sg
-8 0 0 0 8 0 0 0 2347 4615 5 MP stroke
c9
0 1062 9 0 0 -1062 2355 4615 4 MP
PP
0 sg
-9 0 0 1062 9 0 0 -1062 2355 4615 5 MP stroke
c9
0 0 9 0 0 0 2364 4615 4 MP
PP
0 sg
-9 0 0 0 9 0 0 0 2364 4615 5 MP stroke
c9
0 1133 8 0 0 -1133 2373 4615 4 MP
PP
0 sg
-8 0 0 1133 8 0 0 -1133 2373 4615 5 MP stroke
c9
0 0 9 0 0 0 2381 4615 4 MP
PP
0 sg
-9 0 0 0 9 0 0 0 2381 4615 5 MP stroke
c9
0 0 9 0 0 0 2390 4615 4 MP
PP
0 sg
-9 0 0 0 9 0 0 0 2390 4615 5 MP stroke
c9
0 284 8 0 0 -284 2399 4615 4 MP
PP
0 sg
-8 0 0 284 8 0 0 -284 2399 4615 5 MP stroke
c9
0 0 9 0 0 0 2407 4615 4 MP
PP
0 sg
-9 0 0 0 9 0 0 0 2407 4615 5 MP stroke
c9
0 0 8 0 0 0 2416 4615 4 MP
PP
0 sg
-8 0 0 0 8 0 0 0 2416 4615 5 MP stroke
c9
0 213 9 0 0 -213 2424 4615 4 MP
PP
0 sg
-9 0 0 213 9 0 0 -213 2424 4615 5 MP stroke
c9
0 0 9 0 0 0 2433 4615 4 MP
PP
0 sg
-9 0 0 0 9 0 0 0 2433 4615 5 MP stroke
c9
0 71 8 0 0 -71 2442 4615 4 MP
PP
0 sg
-8 0 0 71 8 0 0 -71 2442 4615 5 MP stroke
c9
0 0 9 0 0 0 2450 4615 4 MP
PP
0 sg
-9 0 0 0 9 0 0 0 2450 4615 5 MP stroke
c9
0 0 9 0 0 0 2459 4615 4 MP
PP
0 sg
-9 0 0 0 9 0 0 0 2459 4615 5 MP stroke
c9
0 71 8 0 0 -71 2468 4615 4 MP
PP
0 sg
-8 0 0 71 8 0 0 -71 2468 4615 5 MP stroke
c9
0 0 9 0 0 0 2476 4615 4 MP
PP
0 sg
-9 0 0 0 9 0 0 0 2476 4615 5 MP stroke
c9
0 0 9 0 0 0 2485 4615 4 MP
PP
0 sg
-9 0 0 0 9 0 0 0 2485 4615 5 MP stroke
c9
0 0 8 0 0 0 2494 4615 4 MP
PP
0 sg
-8 0 0 0 8 0 0 0 2494 4615 5 MP stroke
c9
0 0 9 0 0 0 2502 4615 4 MP
PP
0 sg
-9 0 0 0 9 0 0 0 2502 4615 5 MP stroke
c9
0 0 8 0 0 0 2511 4615 4 MP
PP
0 sg
-8 0 0 0 8 0 0 0 2511 4615 5 MP stroke
c9
0 0 9 0 0 0 2519 4615 4 MP
PP
0 sg
-9 0 0 0 9 0 0 0 2519 4615 5 MP stroke
c9
0 0 9 0 0 0 2528 4615 4 MP
PP
0 sg
-9 0 0 0 9 0 0 0 2528 4615 5 MP stroke
c9
0 0 8 0 0 0 2537 4615 4 MP
PP
0 sg
-8 0 0 0 8 0 0 0 2537 4615 5 MP stroke
c9
0 0 9 0 0 0 2545 4615 4 MP
PP
0 sg
-9 0 0 0 9 0 0 0 2545 4615 5 MP stroke
c9
0 0 9 0 0 0 2554 4615 4 MP
PP
0 sg
-9 0 0 0 9 0 0 0 2554 4615 5 MP stroke
c9
0 0 8 0 0 0 2563 4615 4 MP
PP
0 sg
-8 0 0 0 8 0 0 0 2563 4615 5 MP stroke
c9
0 0 9 0 0 0 2571 4615 4 MP
PP
0 sg
-9 0 0 0 9 0 0 0 2571 4615 5 MP stroke
c9
0 0 9 0 0 0 2580 4615 4 MP
PP
0 sg
-9 0 0 0 9 0 0 0 2580 4615 5 MP stroke
c9
0 0 8 0 0 0 2589 4615 4 MP
PP
0 sg
-8 0 0 0 8 0 0 0 2589 4615 5 MP stroke
c9
0 0 9 0 0 0 2597 4615 4 MP
PP
0 sg
-9 0 0 0 9 0 0 0 2597 4615 5 MP stroke
c9
0 0 8 0 0 0 2606 4615 4 MP
PP
0 sg
-8 0 0 0 8 0 0 0 2606 4615 5 MP stroke
c9
0 0 9 0 0 0 2614 4615 4 MP
PP
0 sg
-9 0 0 0 9 0 0 0 2614 4615 5 MP stroke
c9
0 0 9 0 0 0 2623 4615 4 MP
PP
0 sg
-9 0 0 0 9 0 0 0 2623 4615 5 MP stroke
c9
0 0 8 0 0 0 2632 4615 4 MP
PP
0 sg
-8 0 0 0 8 0 0 0 2632 4615 5 MP stroke
c9
0 0 9 0 0 0 2640 4615 4 MP
PP
0 sg
-9 0 0 0 9 0 0 0 2640 4615 5 MP stroke
c9
0 0 9 0 0 0 2649 4615 4 MP
PP
0 sg
-9 0 0 0 9 0 0 0 2649 4615 5 MP stroke
c9
0 0 8 0 0 0 2658 4615 4 MP
PP
0 sg
-8 0 0 0 8 0 0 0 2658 4615 5 MP stroke
c9
0 0 9 0 0 0 2666 4615 4 MP
PP
0 sg
-9 0 0 0 9 0 0 0 2666 4615 5 MP stroke
c9
0 0 9 0 0 0 2675 4615 4 MP
PP
0 sg
-9 0 0 0 9 0 0 0 2675 4615 5 MP stroke
c9
0 0 8 0 0 0 2684 4615 4 MP
PP
0 sg
-8 0 0 0 8 0 0 0 2684 4615 5 MP stroke
c9
0 0 9 0 0 0 2692 4615 4 MP
PP
0 sg
-9 0 0 0 9 0 0 0 2692 4615 5 MP stroke
c9
0 0 8 0 0 0 2701 4615 4 MP
PP
0 sg
-8 0 0 0 8 0 0 0 2701 4615 5 MP stroke
c9
0 0 9 0 0 0 2709 4615 4 MP
PP
0 sg
-9 0 0 0 9 0 0 0 2709 4615 5 MP stroke
c9
0 71 9 0 0 -71 2718 4615 4 MP
PP
0 sg
-9 0 0 71 9 0 0 -71 2718 4615 5 MP stroke
c9
0 0 8 0 0 0 2727 4615 4 MP
PP
0 sg
-8 0 0 0 8 0 0 0 2727 4615 5 MP stroke
c9
0 0 9 0 0 0 2735 4615 4 MP
PP
0 sg
-9 0 0 0 9 0 0 0 2735 4615 5 MP stroke
c9
0 0 9 0 0 0 2744 4615 4 MP
PP
0 sg
-9 0 0 0 9 0 0 0 2744 4615 5 MP stroke
c9
0 0 8 0 0 0 2753 4615 4 MP
PP
0 sg
-8 0 0 0 8 0 0 0 2753 4615 5 MP stroke
c9
0 0 9 0 0 0 2761 4615 4 MP
PP
0 sg
-9 0 0 0 9 0 0 0 2761 4615 5 MP stroke
c9
0 0 9 0 0 0 2770 4615 4 MP
PP
0 sg
-9 0 0 0 9 0 0 0 2770 4615 5 MP stroke
c9
0 0 8 0 0 0 2779 4615 4 MP
PP
0 sg
-8 0 0 0 8 0 0 0 2779 4615 5 MP stroke
c9
0 0 9 0 0 0 2787 4615 4 MP
PP
0 sg
-9 0 0 0 9 0 0 0 2787 4615 5 MP stroke
c9
0 0 8 0 0 0 2796 4615 4 MP
PP
0 sg
-8 0 0 0 8 0 0 0 2796 4615 5 MP stroke
c9
0 0 9 0 0 0 2804 4615 4 MP
PP
0 sg
-9 0 0 0 9 0 0 0 2804 4615 5 MP stroke
c9
0 0 9 0 0 0 2813 4615 4 MP
PP
0 sg
-9 0 0 0 9 0 0 0 2813 4615 5 MP stroke
c9
0 0 8 0 0 0 2822 4615 4 MP
PP
0 sg
-8 0 0 0 8 0 0 0 2822 4615 5 MP stroke
c9
0 0 9 0 0 0 2830 4615 4 MP
PP
0 sg
-9 0 0 0 9 0 0 0 2830 4615 5 MP stroke
c9
0 0 9 0 0 0 2839 4615 4 MP
PP
0 sg
-9 0 0 0 9 0 0 0 2839 4615 5 MP stroke
c9
0 0 8 0 0 0 2848 4615 4 MP
PP
0 sg
-8 0 0 0 8 0 0 0 2848 4615 5 MP stroke
c9
0 0 9 0 0 0 2856 4615 4 MP
PP
0 sg
-9 0 0 0 9 0 0 0 2856 4615 5 MP stroke
c9
0 0 8 0 0 0 2865 4615 4 MP
PP
0 sg
-8 0 0 0 8 0 0 0 2865 4615 5 MP stroke
c9
0 0 9 0 0 0 2873 4615 4 MP
PP
0 sg
-9 0 0 0 9 0 0 0 2873 4615 5 MP stroke
c9
0 0 9 0 0 0 2882 4615 4 MP
PP
0 sg
-9 0 0 0 9 0 0 0 2882 4615 5 MP stroke
c9
0 0 8 0 0 0 2891 4615 4 MP
PP
0 sg
-8 0 0 0 8 0 0 0 2891 4615 5 MP stroke
c9
0 0 9 0 0 0 2899 4615 4 MP
PP
0 sg
-9 0 0 0 9 0 0 0 2899 4615 5 MP stroke
c9
0 0 9 0 0 0 2908 4615 4 MP
PP
0 sg
-9 0 0 0 9 0 0 0 2908 4615 5 MP stroke
c9
0 0 8 0 0 0 2917 4615 4 MP
PP
0 sg
-8 0 0 0 8 0 0 0 2917 4615 5 MP stroke
c9
0 71 9 0 0 -71 2925 4615 4 MP
PP
0 sg
-9 0 0 71 9 0 0 -71 2925 4615 5 MP stroke
1834 4903 mt 
(Time \(s\)) s
 649 3891 mt  -90 rotate
(Count) s
90 rotate
1953 2751 mt 
(n=4) s
1 sg
0 1769 2313 0 0 -1769 3942 4615 4 MP
PP
-2313 0 0 1769 2313 0 0 -1769 3942 4615 5 MP stroke
4 w
DO
SO
6 w
0 sg
3942 4615 mt 6255 4615 L
3942 2846 mt 6255 2846 L
3942 4615 mt 3942 2846 L
6255 4615 mt 6255 2846 L
3942 4615 mt 6255 4615 L
3942 4615 mt 3942 2846 L
3942 4615 mt 3942 4591 L
3942 2846 mt 3942 2869 L
3909 4760 mt 
(0) s
4602 4615 mt 4602 4591 L
4602 2846 mt 4602 2869 L
4519 4760 mt 
(0.1) s
5263 4615 mt 5263 4591 L
5263 2846 mt 5263 2869 L
5180 4760 mt 
(0.2) s
5924 4615 mt 5924 4591 L
5924 2846 mt 5924 2869 L
5841 4760 mt 
(0.3) s
3942 4615 mt 3965 4615 L
6255 4615 mt 6231 4615 L
3841 4659 mt 
(0) s
3942 4362 mt 3965 4362 L
6255 4362 mt 6231 4362 L
3841 4406 mt 
(1) s
3942 4109 mt 3965 4109 L
6255 4109 mt 6231 4109 L
3841 4153 mt 
(2) s
3942 3856 mt 3965 3856 L
6255 3856 mt 6231 3856 L
3841 3900 mt 
(3) s
3942 3604 mt 3965 3604 L
6255 3604 mt 6231 3604 L
3841 3648 mt 
(4) s
3942 3351 mt 3965 3351 L
6255 3351 mt 6231 3351 L
3841 3395 mt 
(5) s
3942 3098 mt 3965 3098 L
6255 3098 mt 6231 3098 L
3841 3142 mt 
(6) s
3942 2846 mt 3965 2846 L
6255 2846 mt 6231 2846 L
3841 2890 mt 
(7) s
3942 4615 mt 6255 4615 L
3942 2846 mt 6255 2846 L
3942 4615 mt 3942 2846 L
6255 4615 mt 6255 2846 L
24 w
c8
0 -1769 6109 4615 2 MP stroke
c9
0 1517 8 0 0 -1517 5065 4615 4 MP
PP
6 w
0 sg
-8 0 0 1517 8 0 0 -1517 5065 4615 5 MP stroke
c9
0 759 8 0 0 -759 5073 4615 4 MP
PP
0 sg
-8 0 0 759 8 0 0 -759 5073 4615 5 MP stroke
c9
0 759 8 0 0 -759 5081 4615 4 MP
PP
0 sg
-8 0 0 759 8 0 0 -759 5081 4615 5 MP stroke
c9
0 253 8 0 0 -253 5089 4615 4 MP
PP
0 sg
-8 0 0 253 8 0 0 -253 5089 4615 5 MP stroke
c9
0 759 8 0 0 -759 5097 4615 4 MP
PP
0 sg
-8 0 0 759 8 0 0 -759 5097 4615 5 MP stroke
c9
0 1011 8 0 0 -1011 5105 4615 4 MP
PP
0 sg
-8 0 0 1011 8 0 0 -1011 5105 4615 5 MP stroke
c9
0 506 7 0 0 -506 5113 4615 4 MP
PP
0 sg
-7 0 0 506 7 0 0 -506 5113 4615 5 MP stroke
c9
0 253 8 0 0 -253 5120 4615 4 MP
PP
0 sg
-8 0 0 253 8 0 0 -253 5120 4615 5 MP stroke
c9
0 253 8 0 0 -253 5128 4615 4 MP
PP
0 sg
-8 0 0 253 8 0 0 -253 5128 4615 5 MP stroke
c9
0 0 8 0 0 0 5136 4615 4 MP
PP
0 sg
-8 0 0 0 8 0 0 0 5136 4615 5 MP stroke
c9
0 0 8 0 0 0 5144 4615 4 MP
PP
0 sg
-8 0 0 0 8 0 0 0 5144 4615 5 MP stroke
c9
0 759 8 0 0 -759 5152 4615 4 MP
PP
0 sg
-8 0 0 759 8 0 0 -759 5152 4615 5 MP stroke
c9
0 0 8 0 0 0 5160 4615 4 MP
PP
0 sg
-8 0 0 0 8 0 0 0 5160 4615 5 MP stroke
c9
0 0 8 0 0 0 5168 4615 4 MP
PP
0 sg
-8 0 0 0 8 0 0 0 5168 4615 5 MP stroke
c9
0 0 8 0 0 0 5176 4615 4 MP
PP
0 sg
-8 0 0 0 8 0 0 0 5176 4615 5 MP stroke
c9
0 253 8 0 0 -253 5184 4615 4 MP
PP
0 sg
-8 0 0 253 8 0 0 -253 5184 4615 5 MP stroke
c9
0 0 8 0 0 0 5192 4615 4 MP
PP
0 sg
-8 0 0 0 8 0 0 0 5192 4615 5 MP stroke
c9
0 253 8 0 0 -253 5200 4615 4 MP
PP
0 sg
-8 0 0 253 8 0 0 -253 5200 4615 5 MP stroke
c9
0 0 8 0 0 0 5208 4615 4 MP
PP
0 sg
-8 0 0 0 8 0 0 0 5208 4615 5 MP stroke
c9
0 253 8 0 0 -253 5216 4615 4 MP
PP
0 sg
-8 0 0 253 8 0 0 -253 5216 4615 5 MP stroke
c9
0 0 7 0 0 0 5224 4615 4 MP
PP
0 sg
-7 0 0 0 7 0 0 0 5224 4615 5 MP stroke
c9
0 0 8 0 0 0 5231 4615 4 MP
PP
0 sg
-8 0 0 0 8 0 0 0 5231 4615 5 MP stroke
c9
0 0 8 0 0 0 5239 4615 4 MP
PP
0 sg
-8 0 0 0 8 0 0 0 5239 4615 5 MP stroke
c9
0 253 8 0 0 -253 5247 4615 4 MP
PP
0 sg
-8 0 0 253 8 0 0 -253 5247 4615 5 MP stroke
c9
0 0 8 0 0 0 5255 4615 4 MP
PP
0 sg
-8 0 0 0 8 0 0 0 5255 4615 5 MP stroke
c9
0 0 8 0 0 0 5263 4615 4 MP
PP
0 sg
-8 0 0 0 8 0 0 0 5263 4615 5 MP stroke
c9
0 0 8 0 0 0 5271 4615 4 MP
PP
0 sg
-8 0 0 0 8 0 0 0 5271 4615 5 MP stroke
c9
0 253 8 0 0 -253 5279 4615 4 MP
PP
0 sg
-8 0 0 253 8 0 0 -253 5279 4615 5 MP stroke
c9
0 253 8 0 0 -253 5287 4615 4 MP
PP
0 sg
-8 0 0 253 8 0 0 -253 5287 4615 5 MP stroke
c9
0 0 8 0 0 0 5295 4615 4 MP
PP
0 sg
-8 0 0 0 8 0 0 0 5295 4615 5 MP stroke
c9
0 0 8 0 0 0 5303 4615 4 MP
PP
0 sg
-8 0 0 0 8 0 0 0 5303 4615 5 MP stroke
c9
0 0 8 0 0 0 5311 4615 4 MP
PP
0 sg
-8 0 0 0 8 0 0 0 5311 4615 5 MP stroke
c9
0 0 8 0 0 0 5319 4615 4 MP
PP
0 sg
-8 0 0 0 8 0 0 0 5319 4615 5 MP stroke
c9
0 0 8 0 0 0 5327 4615 4 MP
PP
0 sg
-8 0 0 0 8 0 0 0 5327 4615 5 MP stroke
c9
0 0 8 0 0 0 5335 4615 4 MP
PP
0 sg
-8 0 0 0 8 0 0 0 5335 4615 5 MP stroke
c9
0 0 7 0 0 0 5343 4615 4 MP
PP
0 sg
-7 0 0 0 7 0 0 0 5343 4615 5 MP stroke
c9
0 0 8 0 0 0 5350 4615 4 MP
PP
0 sg
-8 0 0 0 8 0 0 0 5350 4615 5 MP stroke
c9
0 0 8 0 0 0 5358 4615 4 MP
PP
0 sg
-8 0 0 0 8 0 0 0 5358 4615 5 MP stroke
c9
0 0 8 0 0 0 5366 4615 4 MP
PP
0 sg
-8 0 0 0 8 0 0 0 5366 4615 5 MP stroke
c9
0 253 8 0 0 -253 5374 4615 4 MP
PP
0 sg
-8 0 0 253 8 0 0 -253 5374 4615 5 MP stroke
c9
0 0 8 0 0 0 5382 4615 4 MP
PP
0 sg
-8 0 0 0 8 0 0 0 5382 4615 5 MP stroke
c9
0 0 8 0 0 0 5390 4615 4 MP
PP
0 sg
-8 0 0 0 8 0 0 0 5390 4615 5 MP stroke
c9
0 0 8 0 0 0 5398 4615 4 MP
PP
0 sg
-8 0 0 0 8 0 0 0 5398 4615 5 MP stroke
c9
0 0 8 0 0 0 5406 4615 4 MP
PP
0 sg
-8 0 0 0 8 0 0 0 5406 4615 5 MP stroke
c9
0 253 8 0 0 -253 5414 4615 4 MP
PP
0 sg
-8 0 0 253 8 0 0 -253 5414 4615 5 MP stroke
c9
0 0 8 0 0 0 5422 4615 4 MP
PP
0 sg
-8 0 0 0 8 0 0 0 5422 4615 5 MP stroke
c9
0 0 8 0 0 0 5430 4615 4 MP
PP
0 sg
-8 0 0 0 8 0 0 0 5430 4615 5 MP stroke
c9
0 0 8 0 0 0 5438 4615 4 MP
PP
0 sg
-8 0 0 0 8 0 0 0 5438 4615 5 MP stroke
c9
0 0 8 0 0 0 5446 4615 4 MP
PP
0 sg
-8 0 0 0 8 0 0 0 5446 4615 5 MP stroke
c9
0 0 7 0 0 0 5454 4615 4 MP
PP
0 sg
-7 0 0 0 7 0 0 0 5454 4615 5 MP stroke
c9
0 253 8 0 0 -253 5461 4615 4 MP
PP
0 sg
-8 0 0 253 8 0 0 -253 5461 4615 5 MP stroke
c9
0 253 8 0 0 -253 5469 4615 4 MP
PP
0 sg
-8 0 0 253 8 0 0 -253 5469 4615 5 MP stroke
c9
0 0 8 0 0 0 5477 4615 4 MP
PP
0 sg
-8 0 0 0 8 0 0 0 5477 4615 5 MP stroke
c9
0 0 8 0 0 0 5485 4615 4 MP
PP
0 sg
-8 0 0 0 8 0 0 0 5485 4615 5 MP stroke
c9
0 253 8 0 0 -253 5493 4615 4 MP
PP
0 sg
-8 0 0 253 8 0 0 -253 5493 4615 5 MP stroke
c9
0 0 8 0 0 0 5501 4615 4 MP
PP
0 sg
-8 0 0 0 8 0 0 0 5501 4615 5 MP stroke
c9
0 0 8 0 0 0 5509 4615 4 MP
PP
0 sg
-8 0 0 0 8 0 0 0 5509 4615 5 MP stroke
c9
0 0 8 0 0 0 5517 4615 4 MP
PP
0 sg
-8 0 0 0 8 0 0 0 5517 4615 5 MP stroke
c9
0 0 8 0 0 0 5525 4615 4 MP
PP
0 sg
-8 0 0 0 8 0 0 0 5525 4615 5 MP stroke
c9
0 253 8 0 0 -253 5533 4615 4 MP
PP
0 sg
-8 0 0 253 8 0 0 -253 5533 4615 5 MP stroke
c9
0 0 8 0 0 0 5541 4615 4 MP
PP
0 sg
-8 0 0 0 8 0 0 0 5541 4615 5 MP stroke
c9
0 0 8 0 0 0 5549 4615 4 MP
PP
0 sg
-8 0 0 0 8 0 0 0 5549 4615 5 MP stroke
c9
0 0 8 0 0 0 5557 4615 4 MP
PP
0 sg
-8 0 0 0 8 0 0 0 5557 4615 5 MP stroke
c9
0 0 7 0 0 0 5565 4615 4 MP
PP
0 sg
-7 0 0 0 7 0 0 0 5565 4615 5 MP stroke
c9
0 0 8 0 0 0 5572 4615 4 MP
PP
0 sg
-8 0 0 0 8 0 0 0 5572 4615 5 MP stroke
c9
0 0 8 0 0 0 5580 4615 4 MP
PP
0 sg
-8 0 0 0 8 0 0 0 5580 4615 5 MP stroke
c9
0 0 8 0 0 0 5588 4615 4 MP
PP
0 sg
-8 0 0 0 8 0 0 0 5588 4615 5 MP stroke
c9
0 0 8 0 0 0 5596 4615 4 MP
PP
0 sg
-8 0 0 0 8 0 0 0 5596 4615 5 MP stroke
c9
0 0 8 0 0 0 5604 4615 4 MP
PP
0 sg
-8 0 0 0 8 0 0 0 5604 4615 5 MP stroke
c9
0 0 8 0 0 0 5612 4615 4 MP
PP
0 sg
-8 0 0 0 8 0 0 0 5612 4615 5 MP stroke
c9
0 0 8 0 0 0 5620 4615 4 MP
PP
0 sg
-8 0 0 0 8 0 0 0 5620 4615 5 MP stroke
c9
0 0 8 0 0 0 5628 4615 4 MP
PP
0 sg
-8 0 0 0 8 0 0 0 5628 4615 5 MP stroke
c9
0 0 8 0 0 0 5636 4615 4 MP
PP
0 sg
-8 0 0 0 8 0 0 0 5636 4615 5 MP stroke
c9
0 0 8 0 0 0 5644 4615 4 MP
PP
0 sg
-8 0 0 0 8 0 0 0 5644 4615 5 MP stroke
c9
0 0 8 0 0 0 5652 4615 4 MP
PP
0 sg
-8 0 0 0 8 0 0 0 5652 4615 5 MP stroke
c9
0 253 8 0 0 -253 5660 4615 4 MP
PP
0 sg
-8 0 0 253 8 0 0 -253 5660 4615 5 MP stroke
c9
0 0 8 0 0 0 5668 4615 4 MP
PP
0 sg
-8 0 0 0 8 0 0 0 5668 4615 5 MP stroke
c9
0 0 8 0 0 0 5676 4615 4 MP
PP
0 sg
-8 0 0 0 8 0 0 0 5676 4615 5 MP stroke
c9
0 0 7 0 0 0 5684 4615 4 MP
PP
0 sg
-7 0 0 0 7 0 0 0 5684 4615 5 MP stroke
c9
0 0 8 0 0 0 5691 4615 4 MP
PP
0 sg
-8 0 0 0 8 0 0 0 5691 4615 5 MP stroke
c9
0 253 8 0 0 -253 5699 4615 4 MP
PP
0 sg
-8 0 0 253 8 0 0 -253 5699 4615 5 MP stroke
c9
0 0 8 0 0 0 5707 4615 4 MP
PP
0 sg
-8 0 0 0 8 0 0 0 5707 4615 5 MP stroke
c9
0 0 8 0 0 0 5715 4615 4 MP
PP
0 sg
-8 0 0 0 8 0 0 0 5715 4615 5 MP stroke
c9
0 0 8 0 0 0 5723 4615 4 MP
PP
0 sg
-8 0 0 0 8 0 0 0 5723 4615 5 MP stroke
c9
0 253 8 0 0 -253 5731 4615 4 MP
PP
0 sg
-8 0 0 253 8 0 0 -253 5731 4615 5 MP stroke
c9
0 0 8 0 0 0 5739 4615 4 MP
PP
0 sg
-8 0 0 0 8 0 0 0 5739 4615 5 MP stroke
c9
0 253 8 0 0 -253 5747 4615 4 MP
PP
0 sg
-8 0 0 253 8 0 0 -253 5747 4615 5 MP stroke
c9
0 0 8 0 0 0 5755 4615 4 MP
PP
0 sg
-8 0 0 0 8 0 0 0 5755 4615 5 MP stroke
c9
0 0 8 0 0 0 5763 4615 4 MP
PP
0 sg
-8 0 0 0 8 0 0 0 5763 4615 5 MP stroke
c9
0 0 8 0 0 0 5771 4615 4 MP
PP
0 sg
-8 0 0 0 8 0 0 0 5771 4615 5 MP stroke
c9
0 0 8 0 0 0 5779 4615 4 MP
PP
0 sg
-8 0 0 0 8 0 0 0 5779 4615 5 MP stroke
c9
0 0 8 0 0 0 5787 4615 4 MP
PP
0 sg
-8 0 0 0 8 0 0 0 5787 4615 5 MP stroke
c9
0 0 7 0 0 0 5795 4615 4 MP
PP
0 sg
-7 0 0 0 7 0 0 0 5795 4615 5 MP stroke
c9
0 0 8 0 0 0 5802 4615 4 MP
PP
0 sg
-8 0 0 0 8 0 0 0 5802 4615 5 MP stroke
c9
0 0 8 0 0 0 5810 4615 4 MP
PP
0 sg
-8 0 0 0 8 0 0 0 5810 4615 5 MP stroke
c9
0 0 8 0 0 0 5818 4615 4 MP
PP
0 sg
-8 0 0 0 8 0 0 0 5818 4615 5 MP stroke
c9
0 0 8 0 0 0 5826 4615 4 MP
PP
0 sg
-8 0 0 0 8 0 0 0 5826 4615 5 MP stroke
c9
0 0 8 0 0 0 5834 4615 4 MP
PP
0 sg
-8 0 0 0 8 0 0 0 5834 4615 5 MP stroke
c9
0 0 8 0 0 0 5842 4615 4 MP
PP
0 sg
-8 0 0 0 8 0 0 0 5842 4615 5 MP stroke
c9
0 0 8 0 0 0 5850 4615 4 MP
PP
0 sg
-8 0 0 0 8 0 0 0 5850 4615 5 MP stroke
c9
0 0 8 0 0 0 5858 4615 4 MP
PP
0 sg
-8 0 0 0 8 0 0 0 5858 4615 5 MP stroke
c9
0 0 8 0 0 0 5866 4615 4 MP
PP
0 sg
-8 0 0 0 8 0 0 0 5866 4615 5 MP stroke
c9
0 0 8 0 0 0 5874 4615 4 MP
PP
0 sg
-8 0 0 0 8 0 0 0 5874 4615 5 MP stroke
c9
0 0 8 0 0 0 5882 4615 4 MP
PP
0 sg
-8 0 0 0 8 0 0 0 5882 4615 5 MP stroke
c9
0 0 8 0 0 0 5890 4615 4 MP
PP
0 sg
-8 0 0 0 8 0 0 0 5890 4615 5 MP stroke
c9
0 0 8 0 0 0 5898 4615 4 MP
PP
0 sg
-8 0 0 0 8 0 0 0 5898 4615 5 MP stroke
c9
0 0 7 0 0 0 5906 4615 4 MP
PP
0 sg
-7 0 0 0 7 0 0 0 5906 4615 5 MP stroke
c9
0 0 8 0 0 0 5913 4615 4 MP
PP
0 sg
-8 0 0 0 8 0 0 0 5913 4615 5 MP stroke
c9
0 253 8 0 0 -253 5921 4615 4 MP
PP
0 sg
-8 0 0 253 8 0 0 -253 5921 4615 5 MP stroke
c9
0 253 8 0 0 -253 5929 4615 4 MP
PP
0 sg
-8 0 0 253 8 0 0 -253 5929 4615 5 MP stroke
c9
0 0 8 0 0 0 5937 4615 4 MP
PP
0 sg
-8 0 0 0 8 0 0 0 5937 4615 5 MP stroke
c9
0 0 8 0 0 0 5945 4615 4 MP
PP
0 sg
-8 0 0 0 8 0 0 0 5945 4615 5 MP stroke
c9
0 0 8 0 0 0 5953 4615 4 MP
PP
0 sg
-8 0 0 0 8 0 0 0 5953 4615 5 MP stroke
c9
0 0 8 0 0 0 5961 4615 4 MP
PP
0 sg
-8 0 0 0 8 0 0 0 5961 4615 5 MP stroke
c9
0 0 8 0 0 0 5969 4615 4 MP
PP
0 sg
-8 0 0 0 8 0 0 0 5969 4615 5 MP stroke
c9
0 0 8 0 0 0 5977 4615 4 MP
PP
0 sg
-8 0 0 0 8 0 0 0 5977 4615 5 MP stroke
c9
0 0 8 0 0 0 5985 4615 4 MP
PP
0 sg
-8 0 0 0 8 0 0 0 5985 4615 5 MP stroke
c9
0 0 8 0 0 0 5993 4615 4 MP
PP
0 sg
-8 0 0 0 8 0 0 0 5993 4615 5 MP stroke
c9
0 0 8 0 0 0 6001 4615 4 MP
PP
0 sg
-8 0 0 0 8 0 0 0 6001 4615 5 MP stroke
c9
0 0 8 0 0 0 6009 4615 4 MP
PP
0 sg
-8 0 0 0 8 0 0 0 6009 4615 5 MP stroke
c9
0 0 8 0 0 0 6017 4615 4 MP
PP
0 sg
-8 0 0 0 8 0 0 0 6017 4615 5 MP stroke
c9
0 0 7 0 0 0 6025 4615 4 MP
PP
0 sg
-7 0 0 0 7 0 0 0 6025 4615 5 MP stroke
c9
0 0 8 0 0 0 6032 4615 4 MP
PP
0 sg
-8 0 0 0 8 0 0 0 6032 4615 5 MP stroke
c9
0 0 8 0 0 0 6040 4615 4 MP
PP
0 sg
-8 0 0 0 8 0 0 0 6040 4615 5 MP stroke
c9
0 0 8 0 0 0 6048 4615 4 MP
PP
0 sg
-8 0 0 0 8 0 0 0 6048 4615 5 MP stroke
c9
0 506 8 0 0 -506 6056 4615 4 MP
PP
0 sg
-8 0 0 506 8 0 0 -506 6056 4615 5 MP stroke
c9
0 0 8 0 0 0 6064 4615 4 MP
PP
0 sg
-8 0 0 0 8 0 0 0 6064 4615 5 MP stroke
c9
0 0 8 0 0 0 6072 4615 4 MP
PP
0 sg
-8 0 0 0 8 0 0 0 6072 4615 5 MP stroke
c9
0 253 8 0 0 -253 6080 4615 4 MP
PP
0 sg
-8 0 0 253 8 0 0 -253 6080 4615 5 MP stroke
c9
0 253 8 0 0 -253 6088 4615 4 MP
PP
0 sg
-8 0 0 253 8 0 0 -253 6088 4615 5 MP stroke
c9
0 253 8 0 0 -253 6096 4615 4 MP
PP
0 sg
-8 0 0 253 8 0 0 -253 6096 4615 5 MP stroke
c9
0 506 8 0 0 -506 6104 4615 4 MP
PP
0 sg
-8 0 0 506 8 0 0 -506 6104 4615 5 MP stroke
c9
0 253 8 0 0 -253 6112 4615 4 MP
PP
0 sg
-8 0 0 253 8 0 0 -253 6112 4615 5 MP stroke
c9
0 253 8 0 0 -253 6120 4615 4 MP
PP
0 sg
-8 0 0 253 8 0 0 -253 6120 4615 5 MP stroke
c9
0 506 8 0 0 -506 6128 4615 4 MP
PP
0 sg
-8 0 0 506 8 0 0 -506 6128 4615 5 MP stroke
c9
0 506 7 0 0 -506 6136 4615 4 MP
PP
0 sg
-7 0 0 506 7 0 0 -506 6136 4615 5 MP stroke
c9
0 253 8 0 0 -253 6143 4615 4 MP
PP
0 sg
-8 0 0 253 8 0 0 -253 6143 4615 5 MP stroke
c9
0 253 8 0 0 -253 6151 4615 4 MP
PP
0 sg
-8 0 0 253 8 0 0 -253 6151 4615 5 MP stroke
c9
0 1769 8 0 0 -1769 6159 4615 4 MP
PP
0 sg
-8 0 0 1769 8 0 0 -1769 6159 4615 5 MP stroke
c9
0 759 8 0 0 -759 6167 4615 4 MP
PP
0 sg
-8 0 0 759 8 0 0 -759 6167 4615 5 MP stroke
c9
0 1517 8 0 0 -1517 6175 4615 4 MP
PP
0 sg
-8 0 0 1517 8 0 0 -1517 6175 4615 5 MP stroke
c9
0 759 8 0 0 -759 6183 4615 4 MP
PP
0 sg
-8 0 0 759 8 0 0 -759 6183 4615 5 MP stroke
c9
0 1517 8 0 0 -1517 6191 4615 4 MP
PP
0 sg
-8 0 0 1517 8 0 0 -1517 6191 4615 5 MP stroke
c9
0 506 8 0 0 -506 6199 4615 4 MP
PP
0 sg
-8 0 0 506 8 0 0 -506 6199 4615 5 MP stroke
c9
0 1517 8 0 0 -1517 6207 4615 4 MP
PP
0 sg
-8 0 0 1517 8 0 0 -1517 6207 4615 5 MP stroke
c9
0 506 8 0 0 -506 6215 4615 4 MP
PP
0 sg
-8 0 0 506 8 0 0 -506 6215 4615 5 MP stroke
c9
0 506 8 0 0 -506 6223 4615 4 MP
PP
0 sg
-8 0 0 506 8 0 0 -506 6223 4615 5 MP stroke
c9
0 0 8 0 0 0 6231 4615 4 MP
PP
0 sg
-8 0 0 0 8 0 0 0 6231 4615 5 MP stroke
c9
0 253 8 0 0 -253 6239 4615 4 MP
PP
0 sg
-8 0 0 253 8 0 0 -253 6239 4615 5 MP stroke
c9
0 759 8 0 0 -759 6247 4615 4 MP
PP
0 sg
-8 0 0 759 8 0 0 -759 6247 4615 5 MP stroke
4877 4903 mt 
(Time \(s\)) s
3759 3891 mt  -90 rotate
(Count) s
90 rotate
4996 2751 mt 
(n=5) s

end %%Color Dict

eplot
%%EndObject

epage
end

showpage

%%Trailer
%%EOF
