%!PS-Adobe-2.0 EPSF-1.2
%%Creator: MATLAB, The MathWorks, Inc. Version 8.2.0.701 (R2013b). Operating System: Linux 3.2.0-61-generic #92-Ubuntu SMP Mon Mar 31 23:47:59 UTC 2014 x86_64.
%%Title: ../graphs/dist_3.eps
%%CreationDate: 04/29/2014  20:05:02
%%DocumentNeededFonts: Helvetica
%%DocumentProcessColors: Cyan Magenta Yellow Black
%%Extensions: CMYK
%%Pages: 1
%%BoundingBox:    55   198   553   602
%%EndComments

%%BeginProlog
% MathWorks dictionary
/MathWorks 160 dict begin
% definition operators
/bdef {bind def} bind def
/ldef {load def} bind def
/xdef {exch def} bdef
/xstore {exch store} bdef
% operator abbreviations
/c  /clip ldef
/cc /concat ldef
/cp /closepath ldef
/gr /grestore ldef
/gs /gsave ldef
/mt /moveto ldef
/np /newpath ldef
/cm /currentmatrix ldef
/sm /setmatrix ldef
/rm /rmoveto ldef
/rl /rlineto ldef
/s {show newpath} bdef
/sc {setcmykcolor} bdef
/sr /setrgbcolor ldef
/sg /setgray ldef
/w /setlinewidth ldef
/j /setlinejoin ldef
/cap /setlinecap ldef
/rc {rectclip} bdef
/rf {rectfill} bdef
% page state control
/pgsv () def
/bpage {/pgsv save def} bdef
/epage {pgsv restore} bdef
/bplot /gsave ldef
/eplot {stroke grestore} bdef
% orientation switch
/portraitMode 0 def /landscapeMode 1 def /rotateMode 2 def
% coordinate system mappings
/dpi2point 0 def
% font control
/FontSize 0 def
/FMS {/FontSize xstore findfont [FontSize 0 0 FontSize neg 0 0]
  makefont setfont} bdef
/reencode {exch dup where {pop load} {pop StandardEncoding} ifelse
  exch dup 3 1 roll findfont dup length dict begin
  { 1 index /FID ne {def}{pop pop} ifelse } forall
  /Encoding exch def currentdict end definefont pop} bdef
/isroman {findfont /CharStrings get /Agrave known} bdef
/FMSR {3 1 roll 1 index dup isroman {reencode} {pop pop} ifelse
  exch FMS} bdef
/csm {1 dpi2point div -1 dpi2point div scale neg translate
 dup landscapeMode eq {pop -90 rotate}
  {rotateMode eq {90 rotate} if} ifelse} bdef
% line types: solid, dotted, dashed, dotdash
/SO { [] 0 setdash } bdef
/DO { [.5 dpi2point mul 4 dpi2point mul] 0 setdash } bdef
/DA { [6 dpi2point mul] 0 setdash } bdef
/DD { [.5 dpi2point mul 4 dpi2point mul 6 dpi2point mul 4
  dpi2point mul] 0 setdash } bdef
% macros for lines and objects
/L {lineto stroke} bdef
/MP {3 1 roll moveto 1 sub {rlineto} repeat} bdef
/AP {{rlineto} repeat} bdef
/PDlw -1 def
/W {/PDlw currentlinewidth def setlinewidth} def
/PP {closepath eofill} bdef
/DP {closepath stroke} bdef
/MR {4 -2 roll moveto dup  0 exch rlineto exch 0 rlineto
  neg 0 exch rlineto closepath} bdef
/FR {MR stroke} bdef
/PR {MR fill} bdef
/L1i {{currentfile picstr readhexstring pop} image} bdef
/tMatrix matrix def
/MakeOval {newpath tMatrix currentmatrix pop translate scale
0 0 1 0 360 arc tMatrix setmatrix} bdef
/FO {MakeOval stroke} bdef
/PO {MakeOval fill} bdef
/PD {currentlinewidth 2 div 0 360 arc fill
   PDlw -1 eq not {PDlw w /PDlw -1 def} if} def
/FA {newpath tMatrix currentmatrix pop translate scale
  0 0 1 5 -2 roll arc tMatrix setmatrix stroke} bdef
/PA {newpath tMatrix currentmatrix pop	translate 0 0 moveto scale
  0 0 1 5 -2 roll arc closepath tMatrix setmatrix fill} bdef
/FAn {newpath tMatrix currentmatrix pop translate scale
  0 0 1 5 -2 roll arcn tMatrix setmatrix stroke} bdef
/PAn {newpath tMatrix currentmatrix pop translate 0 0 moveto scale
  0 0 1 5 -2 roll arcn closepath tMatrix setmatrix fill} bdef
/vradius 0 def /hradius 0 def /lry 0 def
/lrx 0 def /uly 0 def /ulx 0 def /rad 0 def
/MRR {/vradius xdef /hradius xdef /lry xdef /lrx xdef /uly xdef
  /ulx xdef newpath tMatrix currentmatrix pop ulx hradius add uly
  vradius add translate hradius vradius scale 0 0 1 180 270 arc 
  tMatrix setmatrix lrx hradius sub uly vradius add translate
  hradius vradius scale 0 0 1 270 360 arc tMatrix setmatrix
  lrx hradius sub lry vradius sub translate hradius vradius scale
  0 0 1 0 90 arc tMatrix setmatrix ulx hradius add lry vradius sub
  translate hradius vradius scale 0 0 1 90 180 arc tMatrix setmatrix
  closepath} bdef
/FRR {MRR stroke } bdef
/PRR {MRR fill } bdef
/MlrRR {/lry xdef /lrx xdef /uly xdef /ulx xdef /rad lry uly sub 2 div def
  newpath tMatrix currentmatrix pop ulx rad add uly rad add translate
  rad rad scale 0 0 1 90 270 arc tMatrix setmatrix lrx rad sub lry rad
  sub translate rad rad scale 0 0 1 270 90 arc tMatrix setmatrix
  closepath} bdef
/FlrRR {MlrRR stroke } bdef
/PlrRR {MlrRR fill } bdef
/MtbRR {/lry xdef /lrx xdef /uly xdef /ulx xdef /rad lrx ulx sub 2 div def
  newpath tMatrix currentmatrix pop ulx rad add uly rad add translate
  rad rad scale 0 0 1 180 360 arc tMatrix setmatrix lrx rad sub lry rad
  sub translate rad rad scale 0 0 1 0 180 arc tMatrix setmatrix
  closepath} bdef
/FtbRR {MtbRR stroke } bdef
/PtbRR {MtbRR fill } bdef
/stri 6 array def /dtri 6 array def
/smat 6 array def /dmat 6 array def
/tmat1 6 array def /tmat2 6 array def /dif 3 array def
/asub {/ind2 exch def /ind1 exch def dup dup
  ind1 get exch ind2 get sub exch } bdef
/tri_to_matrix {
  2 0 asub 3 1 asub 4 0 asub 5 1 asub
  dup 0 get exch 1 get 7 -1 roll astore } bdef
/compute_transform {
  dmat dtri tri_to_matrix tmat1 invertmatrix 
  smat stri tri_to_matrix tmat2 concatmatrix } bdef
/ds {stri astore pop} bdef
/dt {dtri astore pop} bdef
/db {2 copy /cols xdef /rows xdef mul dup 3 mul string
  currentfile exch readhexstring pop
  dup 0 3 index getinterval /rbmap xdef
  dup 2 index dup getinterval /gbmap xdef
  1 index dup 2 mul exch getinterval /bbmap xdef pop pop}bdef
/it {gs np dtri aload pop moveto lineto lineto cp c
  cols rows 8 compute_transform 
  rbmap gbmap bbmap true 3 colorimage gr}bdef
/il {newpath moveto lineto stroke}bdef
currentdict end def
%%EndProlog

%%BeginSetup
MathWorks begin

0 cap

end
%%EndSetup

%%Page: 1 1
%%BeginPageSetup
%%PageBoundingBox:    55   198   553   602
MathWorks begin
bpage
%%EndPageSetup

%%BeginObject: obj1
bplot

/dpi2point 12 def
portraitMode 0216 7344 csm

  446   110  5975  4853 MR c np
76 dict begin %Colortable dictionary
/c0 { 0.000000 0.000000 0.000000 sr} bdef
/c1 { 1.000000 1.000000 1.000000 sr} bdef
/c2 { 0.900000 0.000000 0.000000 sr} bdef
/c3 { 0.000000 0.820000 0.000000 sr} bdef
/c4 { 0.000000 0.000000 0.800000 sr} bdef
/c5 { 0.910000 0.820000 0.320000 sr} bdef
/c6 { 1.000000 0.260000 0.820000 sr} bdef
/c7 { 0.000000 0.820000 0.820000 sr} bdef
c0
1 j
1 sg
   0    0 6913 5186 PR
6 w
0 1770 2313 0 0 -1770 899 2158 4 MP
PP
-2313 0 0 1770 2313 0 0 -1770 899 2158 5 MP stroke
4 w
DO
SO
6 w
0 sg
 899 2158 mt 3212 2158 L
 899  388 mt 3212  388 L
 899 2158 mt  899  388 L
3212 2158 mt 3212  388 L
 899 2158 mt 3212 2158 L
 899 2158 mt  899  388 L
 899 2158 mt  899 2134 L
 899  389 mt  899  412 L
%%IncludeResource: font Helvetica
/Helvetica /ISOLatin1Encoding 120 FMSR

 866 2303 mt 
(0) s
1361 2158 mt 1361 2134 L
1361  389 mt 1361  412 L
1295 2303 mt 
(20) s
1824 2158 mt 1824 2134 L
1824  389 mt 1824  412 L
1758 2303 mt 
(40) s
2286 2158 mt 2286 2134 L
2286  389 mt 2286  412 L
2220 2303 mt 
(60) s
2749 2158 mt 2749 2134 L
2749  389 mt 2749  412 L
2683 2303 mt 
(80) s
3212 2158 mt 3212 2134 L
3212  389 mt 3212  412 L
3112 2303 mt 
(100) s
 899 2158 mt  922 2158 L
3212 2158 mt 3188 2158 L
 798 2202 mt 
(0) s
 899 1715 mt  922 1715 L
3212 1715 mt 3188 1715 L
 731 1759 mt 
(50) s
 899 1273 mt  922 1273 L
3212 1273 mt 3188 1273 L
 664 1317 mt 
(100) s
 899  831 mt  922  831 L
3212  831 mt 3188  831 L
 664  875 mt 
(150) s
 899  389 mt  922  389 L
3212  389 mt 3188  389 L
 664  433 mt 
(200) s
 899 2158 mt 3212 2158 L
 899  388 mt 3212  388 L
 899 2158 mt  899  388 L
3212 2158 mt 3212  388 L
24 w
/c8 { 1.000000 0.000000 0.000000 sr} bdef
c8
0 -1769 899 2158 2 MP stroke
/c9 { 0.000000 0.000000 0.562500 sr} bdef
c9
0 0 23 0 0 0 -847 2158 4 MP
PP
6 w
0 sg
-23 0 0 0 23 0 0 0 -847 2158 5 MP stroke
c9
0 0 23 0 0 0 -824 2158 4 MP
PP
0 sg
-23 0 0 0 23 0 0 0 -824 2158 5 MP stroke
c9
0 0 24 0 0 0 -801 2158 4 MP
PP
0 sg
-24 0 0 0 24 0 0 0 -801 2158 5 MP stroke
c9
0 0 23 0 0 0 -777 2158 4 MP
PP
0 sg
-23 0 0 0 23 0 0 0 -777 2158 5 MP stroke
c9
0 0 23 0 0 0 -754 2158 4 MP
PP
0 sg
-23 0 0 0 23 0 0 0 -754 2158 5 MP stroke
c9
0 0 23 0 0 0 -731 2158 4 MP
PP
0 sg
-23 0 0 0 23 0 0 0 -731 2158 5 MP stroke
c9
0 0 23 0 0 0 -708 2158 4 MP
PP
0 sg
-23 0 0 0 23 0 0 0 -708 2158 5 MP stroke
c9
0 0 23 0 0 0 -685 2158 4 MP
PP
0 sg
-23 0 0 0 23 0 0 0 -685 2158 5 MP stroke
c9
0 0 23 0 0 0 -662 2158 4 MP
PP
0 sg
-23 0 0 0 23 0 0 0 -662 2158 5 MP stroke
c9
0 0 23 0 0 0 -639 2158 4 MP
PP
0 sg
-23 0 0 0 23 0 0 0 -639 2158 5 MP stroke
c9
0 0 24 0 0 0 -616 2158 4 MP
PP
0 sg
-24 0 0 0 24 0 0 0 -616 2158 5 MP stroke
c9
0 0 23 0 0 0 -592 2158 4 MP
PP
0 sg
-23 0 0 0 23 0 0 0 -592 2158 5 MP stroke
c9
0 0 23 0 0 0 -569 2158 4 MP
PP
0 sg
-23 0 0 0 23 0 0 0 -569 2158 5 MP stroke
c9
0 0 23 0 0 0 -546 2158 4 MP
PP
0 sg
-23 0 0 0 23 0 0 0 -546 2158 5 MP stroke
c9
0 0 23 0 0 0 -523 2158 4 MP
PP
0 sg
-23 0 0 0 23 0 0 0 -523 2158 5 MP stroke
c9
0 0 23 0 0 0 -500 2158 4 MP
PP
0 sg
-23 0 0 0 23 0 0 0 -500 2158 5 MP stroke
c9
0 0 23 0 0 0 -477 2158 4 MP
PP
0 sg
-23 0 0 0 23 0 0 0 -477 2158 5 MP stroke
c9
0 0 24 0 0 0 -454 2158 4 MP
PP
0 sg
-24 0 0 0 24 0 0 0 -454 2158 5 MP stroke
c9
0 0 23 0 0 0 -430 2158 4 MP
PP
0 sg
-23 0 0 0 23 0 0 0 -430 2158 5 MP stroke
c9
0 0 23 0 0 0 -407 2158 4 MP
PP
0 sg
-23 0 0 0 23 0 0 0 -407 2158 5 MP stroke
c9
0 0 23 0 0 0 -384 2158 4 MP
PP
0 sg
-23 0 0 0 23 0 0 0 -384 2158 5 MP stroke
c9
0 0 23 0 0 0 -361 2158 4 MP
PP
0 sg
-23 0 0 0 23 0 0 0 -361 2158 5 MP stroke
c9
0 0 23 0 0 0 -338 2158 4 MP
PP
0 sg
-23 0 0 0 23 0 0 0 -338 2158 5 MP stroke
c9
0 0 23 0 0 0 -315 2158 4 MP
PP
0 sg
-23 0 0 0 23 0 0 0 -315 2158 5 MP stroke
c9
0 0 23 0 0 0 -292 2158 4 MP
PP
0 sg
-23 0 0 0 23 0 0 0 -292 2158 5 MP stroke
c9
0 0 24 0 0 0 -269 2158 4 MP
PP
0 sg
-24 0 0 0 24 0 0 0 -269 2158 5 MP stroke
c9
0 0 23 0 0 0 -245 2158 4 MP
PP
0 sg
-23 0 0 0 23 0 0 0 -245 2158 5 MP stroke
c9
0 0 23 0 0 0 -222 2158 4 MP
PP
0 sg
-23 0 0 0 23 0 0 0 -222 2158 5 MP stroke
c9
0 0 23 0 0 0 -199 2158 4 MP
PP
0 sg
-23 0 0 0 23 0 0 0 -199 2158 5 MP stroke
c9
0 0 23 0 0 0 -176 2158 4 MP
PP
0 sg
-23 0 0 0 23 0 0 0 -176 2158 5 MP stroke
c9
0 0 23 0 0 0 -153 2158 4 MP
PP
0 sg
-23 0 0 0 23 0 0 0 -153 2158 5 MP stroke
c9
0 0 23 0 0 0 -130 2158 4 MP
PP
0 sg
-23 0 0 0 23 0 0 0 -130 2158 5 MP stroke
c9
0 0 23 0 0 0 -107 2158 4 MP
PP
0 sg
-23 0 0 0 23 0 0 0 -107 2158 5 MP stroke
c9
0 0 24 0 0 0 -84 2158 4 MP
PP
0 sg
-24 0 0 0 24 0 0 0 -84 2158 5 MP stroke
c9
0 0 23 0 0 0 -60 2158 4 MP
PP
0 sg
-23 0 0 0 23 0 0 0 -60 2158 5 MP stroke
c9
0 0 23 0 0 0 -37 2158 4 MP
PP
0 sg
-23 0 0 0 23 0 0 0 -37 2158 5 MP stroke
c9
0 0 22 0 0 0 -14 2158 4 MP
PP
0 sg
-22 0 0 0 22 0 0 0 -14 2158 5 MP stroke
c9
0 0 23 0 0 0 8 2158 4 MP
PP
0 sg
-23 0 0 0 23 0 0 0 8 2158 5 MP stroke
c9
0 0 23 0 0 0 31 2158 4 MP
PP
0 sg
-23 0 0 0 23 0 0 0 31 2158 5 MP stroke
c9
0 0 23 0 0 0 54 2158 4 MP
PP
0 sg
-23 0 0 0 23 0 0 0 54 2158 5 MP stroke
c9
0 0 24 0 0 0 77 2158 4 MP
PP
0 sg
-24 0 0 0 24 0 0 0 77 2158 5 MP stroke
c9
0 0 23 0 0 0 101 2158 4 MP
PP
0 sg
-23 0 0 0 23 0 0 0 101 2158 5 MP stroke
c9
0 0 23 0 0 0 124 2158 4 MP
PP
0 sg
-23 0 0 0 23 0 0 0 124 2158 5 MP stroke
c9
0 0 23 0 0 0 147 2158 4 MP
PP
0 sg
-23 0 0 0 23 0 0 0 147 2158 5 MP stroke
c9
0 0 23 0 0 0 170 2158 4 MP
PP
0 sg
-23 0 0 0 23 0 0 0 170 2158 5 MP stroke
c9
0 0 23 0 0 0 193 2158 4 MP
PP
0 sg
-23 0 0 0 23 0 0 0 193 2158 5 MP stroke
c9
0 0 23 0 0 0 216 2158 4 MP
PP
0 sg
-23 0 0 0 23 0 0 0 216 2158 5 MP stroke
c9
0 0 23 0 0 0 239 2158 4 MP
PP
0 sg
-23 0 0 0 23 0 0 0 239 2158 5 MP stroke
c9
0 0 24 0 0 0 262 2158 4 MP
PP
0 sg
-24 0 0 0 24 0 0 0 262 2158 5 MP stroke
c9
0 0 23 0 0 0 286 2158 4 MP
PP
0 sg
-23 0 0 0 23 0 0 0 286 2158 5 MP stroke
c9
0 0 23 0 0 0 309 2158 4 MP
PP
0 sg
-23 0 0 0 23 0 0 0 309 2158 5 MP stroke
c9
0 0 23 0 0 0 332 2158 4 MP
PP
0 sg
-23 0 0 0 23 0 0 0 332 2158 5 MP stroke
c9
0 0 23 0 0 0 355 2158 4 MP
PP
0 sg
-23 0 0 0 23 0 0 0 355 2158 5 MP stroke
c9
0 0 23 0 0 0 378 2158 4 MP
PP
0 sg
-23 0 0 0 23 0 0 0 378 2158 5 MP stroke
c9
0 0 23 0 0 0 401 2158 4 MP
PP
0 sg
-23 0 0 0 23 0 0 0 401 2158 5 MP stroke
c9
0 0 23 0 0 0 424 2158 4 MP
PP
0 sg
-23 0 0 0 23 0 0 0 424 2158 5 MP stroke
c9
0 0 24 0 0 0 447 2158 4 MP
PP
0 sg
-24 0 0 0 24 0 0 0 447 2158 5 MP stroke
c9
0 0 23 0 0 0 471 2158 4 MP
PP
0 sg
-23 0 0 0 23 0 0 0 471 2158 5 MP stroke
c9
0 0 23 0 0 0 494 2158 4 MP
PP
0 sg
-23 0 0 0 23 0 0 0 494 2158 5 MP stroke
c9
0 0 23 0 0 0 517 2158 4 MP
PP
0 sg
-23 0 0 0 23 0 0 0 517 2158 5 MP stroke
c9
0 0 23 0 0 0 540 2158 4 MP
PP
0 sg
-23 0 0 0 23 0 0 0 540 2158 5 MP stroke
c9
0 0 23 0 0 0 563 2158 4 MP
PP
0 sg
-23 0 0 0 23 0 0 0 563 2158 5 MP stroke
c9
0 0 23 0 0 0 586 2158 4 MP
PP
0 sg
-23 0 0 0 23 0 0 0 586 2158 5 MP stroke
c9
0 0 24 0 0 0 609 2158 4 MP
PP
0 sg
-24 0 0 0 24 0 0 0 609 2158 5 MP stroke
c9
0 0 23 0 0 0 633 2158 4 MP
PP
0 sg
-23 0 0 0 23 0 0 0 633 2158 5 MP stroke
c9
0 0 23 0 0 0 656 2158 4 MP
PP
0 sg
-23 0 0 0 23 0 0 0 656 2158 5 MP stroke
c9
0 0 23 0 0 0 679 2158 4 MP
PP
0 sg
-23 0 0 0 23 0 0 0 679 2158 5 MP stroke
c9
0 0 23 0 0 0 702 2158 4 MP
PP
0 sg
-23 0 0 0 23 0 0 0 702 2158 5 MP stroke
c9
0 0 23 0 0 0 725 2158 4 MP
PP
0 sg
-23 0 0 0 23 0 0 0 725 2158 5 MP stroke
c9
0 0 23 0 0 0 748 2158 4 MP
PP
0 sg
-23 0 0 0 23 0 0 0 748 2158 5 MP stroke
c9
0 0 23 0 0 0 771 2158 4 MP
PP
0 sg
-23 0 0 0 23 0 0 0 771 2158 5 MP stroke
c9
0 0 24 0 0 0 794 2158 4 MP
PP
0 sg
-24 0 0 0 24 0 0 0 794 2158 5 MP stroke
c9
0 0 23 0 0 0 818 2158 4 MP
PP
0 sg
-23 0 0 0 23 0 0 0 818 2158 5 MP stroke
c9
0 0 23 0 0 0 841 2158 4 MP
PP
0 sg
-23 0 0 0 23 0 0 0 841 2158 5 MP stroke
c9
0 0 23 0 0 0 864 2158 4 MP
PP
0 sg
-23 0 0 0 23 0 0 0 864 2158 5 MP stroke
c9
0 1725 23 0 0 -1725 887 2158 4 MP
PP
0 sg
-23 0 0 1725 23 0 0 -1725 887 2158 5 MP stroke
c9
0 0 23 0 0 0 910 2158 4 MP
PP
0 sg
-23 0 0 0 23 0 0 0 910 2158 5 MP stroke
c9
0 0 23 0 0 0 933 2158 4 MP
PP
0 sg
-23 0 0 0 23 0 0 0 933 2158 5 MP stroke
c9
0 0 23 0 0 0 956 2158 4 MP
PP
0 sg
-23 0 0 0 23 0 0 0 956 2158 5 MP stroke
c9
0 0 24 0 0 0 979 2158 4 MP
PP
0 sg
-24 0 0 0 24 0 0 0 979 2158 5 MP stroke
c9
0 0 23 0 0 0 1003 2158 4 MP
PP
0 sg
-23 0 0 0 23 0 0 0 1003 2158 5 MP stroke
c9
0 0 23 0 0 0 1026 2158 4 MP
PP
0 sg
-23 0 0 0 23 0 0 0 1026 2158 5 MP stroke
c9
0 0 23 0 0 0 1049 2158 4 MP
PP
0 sg
-23 0 0 0 23 0 0 0 1049 2158 5 MP stroke
c9
0 0 23 0 0 0 1072 2158 4 MP
PP
0 sg
-23 0 0 0 23 0 0 0 1072 2158 5 MP stroke
c9
0 0 23 0 0 0 1095 2158 4 MP
PP
0 sg
-23 0 0 0 23 0 0 0 1095 2158 5 MP stroke
c9
0 0 23 0 0 0 1118 2158 4 MP
PP
0 sg
-23 0 0 0 23 0 0 0 1118 2158 5 MP stroke
c9
0 0 23 0 0 0 1141 2158 4 MP
PP
0 sg
-23 0 0 0 23 0 0 0 1141 2158 5 MP stroke
c9
0 0 24 0 0 0 1164 2158 4 MP
PP
0 sg
-24 0 0 0 24 0 0 0 1164 2158 5 MP stroke
c9
0 0 23 0 0 0 1188 2158 4 MP
PP
0 sg
-23 0 0 0 23 0 0 0 1188 2158 5 MP stroke
c9
0 0 23 0 0 0 1211 2158 4 MP
PP
0 sg
-23 0 0 0 23 0 0 0 1211 2158 5 MP stroke
c9
0 0 23 0 0 0 1234 2158 4 MP
PP
0 sg
-23 0 0 0 23 0 0 0 1234 2158 5 MP stroke
c9
0 0 23 0 0 0 1257 2158 4 MP
PP
0 sg
-23 0 0 0 23 0 0 0 1257 2158 5 MP stroke
c9
0 0 23 0 0 0 1280 2158 4 MP
PP
0 sg
-23 0 0 0 23 0 0 0 1280 2158 5 MP stroke
c9
0 0 23 0 0 0 1303 2158 4 MP
PP
0 sg
-23 0 0 0 23 0 0 0 1303 2158 5 MP stroke
c9
0 0 24 0 0 0 1326 2158 4 MP
PP
0 sg
-24 0 0 0 24 0 0 0 1326 2158 5 MP stroke
c9
0 0 23 0 0 0 1350 2158 4 MP
PP
0 sg
-23 0 0 0 23 0 0 0 1350 2158 5 MP stroke
c9
0 0 23 0 0 0 1373 2158 4 MP
PP
0 sg
-23 0 0 0 23 0 0 0 1373 2158 5 MP stroke
c9
0 0 23 0 0 0 1396 2158 4 MP
PP
0 sg
-23 0 0 0 23 0 0 0 1396 2158 5 MP stroke
c9
0 0 23 0 0 0 1419 2158 4 MP
PP
0 sg
-23 0 0 0 23 0 0 0 1419 2158 5 MP stroke
c9
0 0 23 0 0 0 1442 2158 4 MP
PP
0 sg
-23 0 0 0 23 0 0 0 1442 2158 5 MP stroke
c9
0 0 23 0 0 0 1465 2158 4 MP
PP
0 sg
-23 0 0 0 23 0 0 0 1465 2158 5 MP stroke
c9
0 0 23 0 0 0 1488 2158 4 MP
PP
0 sg
-23 0 0 0 23 0 0 0 1488 2158 5 MP stroke
c9
0 0 24 0 0 0 1511 2158 4 MP
PP
0 sg
-24 0 0 0 24 0 0 0 1511 2158 5 MP stroke
c9
0 0 23 0 0 0 1535 2158 4 MP
PP
0 sg
-23 0 0 0 23 0 0 0 1535 2158 5 MP stroke
c9
0 0 23 0 0 0 1558 2158 4 MP
PP
0 sg
-23 0 0 0 23 0 0 0 1558 2158 5 MP stroke
c9
0 0 23 0 0 0 1581 2158 4 MP
PP
0 sg
-23 0 0 0 23 0 0 0 1581 2158 5 MP stroke
c9
0 0 23 0 0 0 1604 2158 4 MP
PP
0 sg
-23 0 0 0 23 0 0 0 1604 2158 5 MP stroke
c9
0 0 23 0 0 0 1627 2158 4 MP
PP
0 sg
-23 0 0 0 23 0 0 0 1627 2158 5 MP stroke
c9
0 0 23 0 0 0 1650 2158 4 MP
PP
0 sg
-23 0 0 0 23 0 0 0 1650 2158 5 MP stroke
c9
0 0 23 0 0 0 1673 2158 4 MP
PP
0 sg
-23 0 0 0 23 0 0 0 1673 2158 5 MP stroke
c9
0 0 24 0 0 0 1696 2158 4 MP
PP
0 sg
-24 0 0 0 24 0 0 0 1696 2158 5 MP stroke
c9
0 0 23 0 0 0 1720 2158 4 MP
PP
0 sg
-23 0 0 0 23 0 0 0 1720 2158 5 MP stroke
c9
0 0 23 0 0 0 1743 2158 4 MP
PP
0 sg
-23 0 0 0 23 0 0 0 1743 2158 5 MP stroke
c9
0 0 23 0 0 0 1766 2158 4 MP
PP
0 sg
-23 0 0 0 23 0 0 0 1766 2158 5 MP stroke
c9
0 0 23 0 0 0 1789 2158 4 MP
PP
0 sg
-23 0 0 0 23 0 0 0 1789 2158 5 MP stroke
c9
0 0 23 0 0 0 1812 2158 4 MP
PP
0 sg
-23 0 0 0 23 0 0 0 1812 2158 5 MP stroke
c9
0 0 23 0 0 0 1835 2158 4 MP
PP
0 sg
-23 0 0 0 23 0 0 0 1835 2158 5 MP stroke
c9
0 0 24 0 0 0 1858 2158 4 MP
PP
0 sg
-24 0 0 0 24 0 0 0 1858 2158 5 MP stroke
c9
0 0 23 0 0 0 1882 2158 4 MP
PP
0 sg
-23 0 0 0 23 0 0 0 1882 2158 5 MP stroke
c9
0 0 23 0 0 0 1905 2158 4 MP
PP
0 sg
-23 0 0 0 23 0 0 0 1905 2158 5 MP stroke
c9
0 0 23 0 0 0 1928 2158 4 MP
PP
0 sg
-23 0 0 0 23 0 0 0 1928 2158 5 MP stroke
c9
0 0 23 0 0 0 1951 2158 4 MP
PP
0 sg
-23 0 0 0 23 0 0 0 1951 2158 5 MP stroke
c9
0 0 23 0 0 0 1974 2158 4 MP
PP
0 sg
-23 0 0 0 23 0 0 0 1974 2158 5 MP stroke
c9
0 0 23 0 0 0 1997 2158 4 MP
PP
0 sg
-23 0 0 0 23 0 0 0 1997 2158 5 MP stroke
c9
0 0 23 0 0 0 2020 2158 4 MP
PP
0 sg
-23 0 0 0 23 0 0 0 2020 2158 5 MP stroke
c9
0 0 24 0 0 0 2043 2158 4 MP
PP
0 sg
-24 0 0 0 24 0 0 0 2043 2158 5 MP stroke
c9
0 0 23 0 0 0 2067 2158 4 MP
PP
0 sg
-23 0 0 0 23 0 0 0 2067 2158 5 MP stroke
c9
0 0 23 0 0 0 2090 2158 4 MP
PP
0 sg
-23 0 0 0 23 0 0 0 2090 2158 5 MP stroke
c9
0 0 23 0 0 0 2113 2158 4 MP
PP
0 sg
-23 0 0 0 23 0 0 0 2113 2158 5 MP stroke
c9
0 0 23 0 0 0 2136 2158 4 MP
PP
0 sg
-23 0 0 0 23 0 0 0 2136 2158 5 MP stroke
c9
0 0 23 0 0 0 2159 2158 4 MP
PP
0 sg
-23 0 0 0 23 0 0 0 2159 2158 5 MP stroke
c9
0 0 23 0 0 0 2182 2158 4 MP
PP
0 sg
-23 0 0 0 23 0 0 0 2182 2158 5 MP stroke
c9
0 0 23 0 0 0 2205 2158 4 MP
PP
0 sg
-23 0 0 0 23 0 0 0 2205 2158 5 MP stroke
c9
0 0 24 0 0 0 2228 2158 4 MP
PP
0 sg
-24 0 0 0 24 0 0 0 2228 2158 5 MP stroke
c9
0 0 23 0 0 0 2252 2158 4 MP
PP
0 sg
-23 0 0 0 23 0 0 0 2252 2158 5 MP stroke
c9
0 0 23 0 0 0 2275 2158 4 MP
PP
0 sg
-23 0 0 0 23 0 0 0 2275 2158 5 MP stroke
c9
0 0 23 0 0 0 2298 2158 4 MP
PP
0 sg
-23 0 0 0 23 0 0 0 2298 2158 5 MP stroke
c9
0 0 23 0 0 0 2321 2158 4 MP
PP
0 sg
-23 0 0 0 23 0 0 0 2321 2158 5 MP stroke
c9
0 0 23 0 0 0 2344 2158 4 MP
PP
0 sg
-23 0 0 0 23 0 0 0 2344 2158 5 MP stroke
c9
0 0 23 0 0 0 2367 2158 4 MP
PP
0 sg
-23 0 0 0 23 0 0 0 2367 2158 5 MP stroke
c9
0 0 24 0 0 0 2390 2158 4 MP
PP
0 sg
-24 0 0 0 24 0 0 0 2390 2158 5 MP stroke
c9
0 0 23 0 0 0 2414 2158 4 MP
PP
0 sg
-23 0 0 0 23 0 0 0 2414 2158 5 MP stroke
c9
0 0 23 0 0 0 2437 2158 4 MP
PP
0 sg
-23 0 0 0 23 0 0 0 2437 2158 5 MP stroke
c9
0 0 23 0 0 0 2460 2158 4 MP
PP
0 sg
-23 0 0 0 23 0 0 0 2460 2158 5 MP stroke
c9
0 0 23 0 0 0 2483 2158 4 MP
PP
0 sg
-23 0 0 0 23 0 0 0 2483 2158 5 MP stroke
c9
0 0 23 0 0 0 2506 2158 4 MP
PP
0 sg
-23 0 0 0 23 0 0 0 2506 2158 5 MP stroke
c9
0 0 23 0 0 0 2529 2158 4 MP
PP
0 sg
-23 0 0 0 23 0 0 0 2529 2158 5 MP stroke
c9
0 0 23 0 0 0 2552 2158 4 MP
PP
0 sg
-23 0 0 0 23 0 0 0 2552 2158 5 MP stroke
c9
0 0 24 0 0 0 2575 2158 4 MP
PP
0 sg
-24 0 0 0 24 0 0 0 2575 2158 5 MP stroke
c9
0 0 23 0 0 0 2599 2158 4 MP
PP
0 sg
-23 0 0 0 23 0 0 0 2599 2158 5 MP stroke
1834 2446 mt 
(Time \(s\)) s
 582 1434 mt  -90 rotate
(Count) s
90 rotate
1953  294 mt 
(n=2) s
1 sg
0 1770 2313 0 0 -1770 3942 2158 4 MP
PP
-2313 0 0 1770 2313 0 0 -1770 3942 2158 5 MP stroke
4 w
DO
SO
6 w
0 sg
3942 2158 mt 6255 2158 L
3942  388 mt 6255  388 L
3942 2158 mt 3942  388 L
6255 2158 mt 6255  388 L
3942 2158 mt 6255 2158 L
3942 2158 mt 3942  388 L
3942 2158 mt 3942 2134 L
3942  389 mt 3942  412 L
3909 2303 mt 
(0) s
4713 2158 mt 4713 2134 L
4713  389 mt 4713  412 L
4597 2303 mt 
(0.02) s
5484 2158 mt 5484 2134 L
5484  389 mt 5484  412 L
5368 2303 mt 
(0.04) s
6255 2158 mt 6255 2134 L
6255  389 mt 6255  412 L
6139 2303 mt 
(0.06) s
3942 2158 mt 3965 2158 L
6255 2158 mt 6231 2158 L
3841 2202 mt 
(0) s
3942 1804 mt 3965 1804 L
6255 1804 mt 6231 1804 L
3774 1848 mt 
(10) s
3942 1450 mt 3965 1450 L
6255 1450 mt 6231 1450 L
3774 1494 mt 
(20) s
3942 1096 mt 3965 1096 L
6255 1096 mt 6231 1096 L
3774 1140 mt 
(30) s
3942  742 mt 3965  742 L
6255  742 mt 6231  742 L
3774  786 mt 
(40) s
3942  389 mt 3965  389 L
6255  389 mt 6231  389 L
3774  433 mt 
(50) s
3942 2158 mt 6255 2158 L
3942  388 mt 6255  388 L
3942 2158 mt 3942  388 L
6255 2158 mt 6255  388 L
24 w
c8
0 -1769 4455 2158 2 MP stroke
c9
0 36 12 0 0 -36 4198 2158 4 MP
PP
6 w
0 sg
-12 0 0 36 12 0 0 -36 4198 2158 5 MP stroke
c9
0 0 12 0 0 0 4210 2158 4 MP
PP
0 sg
-12 0 0 0 12 0 0 0 4210 2158 5 MP stroke
c9
0 0 12 0 0 0 4222 2158 4 MP
PP
0 sg
-12 0 0 0 12 0 0 0 4222 2158 5 MP stroke
c9
0 0 12 0 0 0 4234 2158 4 MP
PP
0 sg
-12 0 0 0 12 0 0 0 4234 2158 5 MP stroke
c9
0 0 12 0 0 0 4246 2158 4 MP
PP
0 sg
-12 0 0 0 12 0 0 0 4246 2158 5 MP stroke
c9
0 0 12 0 0 0 4258 2158 4 MP
PP
0 sg
-12 0 0 0 12 0 0 0 4258 2158 5 MP stroke
c9
0 0 12 0 0 0 4270 2158 4 MP
PP
0 sg
-12 0 0 0 12 0 0 0 4270 2158 5 MP stroke
c9
0 0 12 0 0 0 4282 2158 4 MP
PP
0 sg
-12 0 0 0 12 0 0 0 4282 2158 5 MP stroke
c9
0 0 12 0 0 0 4294 2158 4 MP
PP
0 sg
-12 0 0 0 12 0 0 0 4294 2158 5 MP stroke
c9
0 0 12 0 0 0 4306 2158 4 MP
PP
0 sg
-12 0 0 0 12 0 0 0 4306 2158 5 MP stroke
c9
0 1062 12 0 0 -1062 4318 2158 4 MP
PP
0 sg
-12 0 0 1062 12 0 0 -1062 4318 2158 5 MP stroke
c9
0 0 12 0 0 0 4330 2158 4 MP
PP
0 sg
-12 0 0 0 12 0 0 0 4330 2158 5 MP stroke
c9
0 0 12 0 0 0 4342 2158 4 MP
PP
0 sg
-12 0 0 0 12 0 0 0 4342 2158 5 MP stroke
c9
0 0 12 0 0 0 4354 2158 4 MP
PP
0 sg
-12 0 0 0 12 0 0 0 4354 2158 5 MP stroke
c9
0 0 12 0 0 0 4366 2158 4 MP
PP
0 sg
-12 0 0 0 12 0 0 0 4366 2158 5 MP stroke
c9
0 0 12 0 0 0 4378 2158 4 MP
PP
0 sg
-12 0 0 0 12 0 0 0 4378 2158 5 MP stroke
c9
0 0 12 0 0 0 4390 2158 4 MP
PP
0 sg
-12 0 0 0 12 0 0 0 4390 2158 5 MP stroke
c9
0 0 12 0 0 0 4402 2158 4 MP
PP
0 sg
-12 0 0 0 12 0 0 0 4402 2158 5 MP stroke
c9
0 0 12 0 0 0 4414 2158 4 MP
PP
0 sg
-12 0 0 0 12 0 0 0 4414 2158 5 MP stroke
c9
0 0 12 0 0 0 4426 2158 4 MP
PP
0 sg
-12 0 0 0 12 0 0 0 4426 2158 5 MP stroke
c9
0 0 12 0 0 0 4438 2158 4 MP
PP
0 sg
-12 0 0 0 12 0 0 0 4438 2158 5 MP stroke
c9
0 1593 12 0 0 -1593 4450 2158 4 MP
PP
0 sg
-12 0 0 1593 12 0 0 -1593 4450 2158 5 MP stroke
c9
0 0 12 0 0 0 4462 2158 4 MP
PP
0 sg
-12 0 0 0 12 0 0 0 4462 2158 5 MP stroke
c9
0 0 12 0 0 0 4474 2158 4 MP
PP
0 sg
-12 0 0 0 12 0 0 0 4474 2158 5 MP stroke
c9
0 0 12 0 0 0 4486 2158 4 MP
PP
0 sg
-12 0 0 0 12 0 0 0 4486 2158 5 MP stroke
c9
0 0 12 0 0 0 4498 2158 4 MP
PP
0 sg
-12 0 0 0 12 0 0 0 4498 2158 5 MP stroke
c9
0 0 12 0 0 0 4510 2158 4 MP
PP
0 sg
-12 0 0 0 12 0 0 0 4510 2158 5 MP stroke
c9
0 0 12 0 0 0 4522 2158 4 MP
PP
0 sg
-12 0 0 0 12 0 0 0 4522 2158 5 MP stroke
c9
0 0 12 0 0 0 4534 2158 4 MP
PP
0 sg
-12 0 0 0 12 0 0 0 4534 2158 5 MP stroke
c9
0 0 12 0 0 0 4546 2158 4 MP
PP
0 sg
-12 0 0 0 12 0 0 0 4546 2158 5 MP stroke
c9
0 0 12 0 0 0 4558 2158 4 MP
PP
0 sg
-12 0 0 0 12 0 0 0 4558 2158 5 MP stroke
c9
0 0 12 0 0 0 4570 2158 4 MP
PP
0 sg
-12 0 0 0 12 0 0 0 4570 2158 5 MP stroke
c9
0 920 12 0 0 -920 4582 2158 4 MP
PP
0 sg
-12 0 0 920 12 0 0 -920 4582 2158 5 MP stroke
c9
0 0 12 0 0 0 4594 2158 4 MP
PP
0 sg
-12 0 0 0 12 0 0 0 4594 2158 5 MP stroke
c9
0 0 12 0 0 0 4606 2158 4 MP
PP
0 sg
-12 0 0 0 12 0 0 0 4606 2158 5 MP stroke
c9
0 0 12 0 0 0 4618 2158 4 MP
PP
0 sg
-12 0 0 0 12 0 0 0 4618 2158 5 MP stroke
c9
0 0 12 0 0 0 4630 2158 4 MP
PP
0 sg
-12 0 0 0 12 0 0 0 4630 2158 5 MP stroke
c9
0 0 12 0 0 0 4642 2158 4 MP
PP
0 sg
-12 0 0 0 12 0 0 0 4642 2158 5 MP stroke
c9
0 0 12 0 0 0 4654 2158 4 MP
PP
0 sg
-12 0 0 0 12 0 0 0 4654 2158 5 MP stroke
c9
0 0 12 0 0 0 4666 2158 4 MP
PP
0 sg
-12 0 0 0 12 0 0 0 4666 2158 5 MP stroke
c9
0 0 12 0 0 0 4678 2158 4 MP
PP
0 sg
-12 0 0 0 12 0 0 0 4678 2158 5 MP stroke
c9
0 0 12 0 0 0 4690 2158 4 MP
PP
0 sg
-12 0 0 0 12 0 0 0 4690 2158 5 MP stroke
c9
0 743 12 0 0 -743 4702 2158 4 MP
PP
0 sg
-12 0 0 743 12 0 0 -743 4702 2158 5 MP stroke
c9
0 0 12 0 0 0 4714 2158 4 MP
PP
0 sg
-12 0 0 0 12 0 0 0 4714 2158 5 MP stroke
c9
0 0 12 0 0 0 4726 2158 4 MP
PP
0 sg
-12 0 0 0 12 0 0 0 4726 2158 5 MP stroke
c9
0 0 12 0 0 0 4738 2158 4 MP
PP
0 sg
-12 0 0 0 12 0 0 0 4738 2158 5 MP stroke
c9
0 0 12 0 0 0 4750 2158 4 MP
PP
0 sg
-12 0 0 0 12 0 0 0 4750 2158 5 MP stroke
c9
0 0 12 0 0 0 4762 2158 4 MP
PP
0 sg
-12 0 0 0 12 0 0 0 4762 2158 5 MP stroke
c9
0 0 12 0 0 0 4774 2158 4 MP
PP
0 sg
-12 0 0 0 12 0 0 0 4774 2158 5 MP stroke
c9
0 0 12 0 0 0 4786 2158 4 MP
PP
0 sg
-12 0 0 0 12 0 0 0 4786 2158 5 MP stroke
c9
0 0 12 0 0 0 4798 2158 4 MP
PP
0 sg
-12 0 0 0 12 0 0 0 4798 2158 5 MP stroke
c9
0 0 12 0 0 0 4810 2158 4 MP
PP
0 sg
-12 0 0 0 12 0 0 0 4810 2158 5 MP stroke
c9
0 0 12 0 0 0 4822 2158 4 MP
PP
0 sg
-12 0 0 0 12 0 0 0 4822 2158 5 MP stroke
c9
0 319 12 0 0 -319 4834 2158 4 MP
PP
0 sg
-12 0 0 319 12 0 0 -319 4834 2158 5 MP stroke
c9
0 0 12 0 0 0 4846 2158 4 MP
PP
0 sg
-12 0 0 0 12 0 0 0 4846 2158 5 MP stroke
c9
0 0 12 0 0 0 4858 2158 4 MP
PP
0 sg
-12 0 0 0 12 0 0 0 4858 2158 5 MP stroke
c9
0 0 12 0 0 0 4870 2158 4 MP
PP
0 sg
-12 0 0 0 12 0 0 0 4870 2158 5 MP stroke
c9
0 0 12 0 0 0 4882 2158 4 MP
PP
0 sg
-12 0 0 0 12 0 0 0 4882 2158 5 MP stroke
c9
0 0 12 0 0 0 4894 2158 4 MP
PP
0 sg
-12 0 0 0 12 0 0 0 4894 2158 5 MP stroke
c9
0 0 12 0 0 0 4906 2158 4 MP
PP
0 sg
-12 0 0 0 12 0 0 0 4906 2158 5 MP stroke
c9
0 0 12 0 0 0 4918 2158 4 MP
PP
0 sg
-12 0 0 0 12 0 0 0 4918 2158 5 MP stroke
c9
0 0 12 0 0 0 4930 2158 4 MP
PP
0 sg
-12 0 0 0 12 0 0 0 4930 2158 5 MP stroke
c9
0 0 12 0 0 0 4942 2158 4 MP
PP
0 sg
-12 0 0 0 12 0 0 0 4942 2158 5 MP stroke
c9
0 0 12 0 0 0 4954 2158 4 MP
PP
0 sg
-12 0 0 0 12 0 0 0 4954 2158 5 MP stroke
c9
0 177 12 0 0 -177 4966 2158 4 MP
PP
0 sg
-12 0 0 177 12 0 0 -177 4966 2158 5 MP stroke
c9
0 0 12 0 0 0 4978 2158 4 MP
PP
0 sg
-12 0 0 0 12 0 0 0 4978 2158 5 MP stroke
c9
0 0 12 0 0 0 4990 2158 4 MP
PP
0 sg
-12 0 0 0 12 0 0 0 4990 2158 5 MP stroke
c9
0 0 12 0 0 0 5002 2158 4 MP
PP
0 sg
-12 0 0 0 12 0 0 0 5002 2158 5 MP stroke
c9
0 0 12 0 0 0 5014 2158 4 MP
PP
0 sg
-12 0 0 0 12 0 0 0 5014 2158 5 MP stroke
c9
0 0 12 0 0 0 5026 2158 4 MP
PP
0 sg
-12 0 0 0 12 0 0 0 5026 2158 5 MP stroke
c9
0 0 12 0 0 0 5038 2158 4 MP
PP
0 sg
-12 0 0 0 12 0 0 0 5038 2158 5 MP stroke
c9
0 0 12 0 0 0 5050 2158 4 MP
PP
0 sg
-12 0 0 0 12 0 0 0 5050 2158 5 MP stroke
c9
0 0 12 0 0 0 5062 2158 4 MP
PP
0 sg
-12 0 0 0 12 0 0 0 5062 2158 5 MP stroke
c9
0 0 12 0 0 0 5074 2158 4 MP
PP
0 sg
-12 0 0 0 12 0 0 0 5074 2158 5 MP stroke
c9
0 107 12 0 0 -107 5086 2158 4 MP
PP
0 sg
-12 0 0 107 12 0 0 -107 5086 2158 5 MP stroke
c9
0 0 12 0 0 0 5098 2158 4 MP
PP
0 sg
-12 0 0 0 12 0 0 0 5098 2158 5 MP stroke
c9
0 0 12 0 0 0 5110 2158 4 MP
PP
0 sg
-12 0 0 0 12 0 0 0 5110 2158 5 MP stroke
c9
0 0 12 0 0 0 5122 2158 4 MP
PP
0 sg
-12 0 0 0 12 0 0 0 5122 2158 5 MP stroke
c9
0 0 12 0 0 0 5134 2158 4 MP
PP
0 sg
-12 0 0 0 12 0 0 0 5134 2158 5 MP stroke
c9
0 0 12 0 0 0 5146 2158 4 MP
PP
0 sg
-12 0 0 0 12 0 0 0 5146 2158 5 MP stroke
c9
0 0 12 0 0 0 5158 2158 4 MP
PP
0 sg
-12 0 0 0 12 0 0 0 5158 2158 5 MP stroke
c9
0 0 12 0 0 0 5170 2158 4 MP
PP
0 sg
-12 0 0 0 12 0 0 0 5170 2158 5 MP stroke
c9
0 0 12 0 0 0 5182 2158 4 MP
PP
0 sg
-12 0 0 0 12 0 0 0 5182 2158 5 MP stroke
c9
0 0 12 0 0 0 5194 2158 4 MP
PP
0 sg
-12 0 0 0 12 0 0 0 5194 2158 5 MP stroke
c9
0 0 12 0 0 0 5206 2158 4 MP
PP
0 sg
-12 0 0 0 12 0 0 0 5206 2158 5 MP stroke
c9
0 71 12 0 0 -71 5218 2158 4 MP
PP
0 sg
-12 0 0 71 12 0 0 -71 5218 2158 5 MP stroke
c9
0 0 12 0 0 0 5230 2158 4 MP
PP
0 sg
-12 0 0 0 12 0 0 0 5230 2158 5 MP stroke
c9
0 0 12 0 0 0 5242 2158 4 MP
PP
0 sg
-12 0 0 0 12 0 0 0 5242 2158 5 MP stroke
c9
0 0 12 0 0 0 5254 2158 4 MP
PP
0 sg
-12 0 0 0 12 0 0 0 5254 2158 5 MP stroke
c9
0 0 12 0 0 0 5266 2158 4 MP
PP
0 sg
-12 0 0 0 12 0 0 0 5266 2158 5 MP stroke
c9
0 0 12 0 0 0 5278 2158 4 MP
PP
0 sg
-12 0 0 0 12 0 0 0 5278 2158 5 MP stroke
c9
0 0 12 0 0 0 5290 2158 4 MP
PP
0 sg
-12 0 0 0 12 0 0 0 5290 2158 5 MP stroke
c9
0 0 12 0 0 0 5302 2158 4 MP
PP
0 sg
-12 0 0 0 12 0 0 0 5302 2158 5 MP stroke
c9
0 0 12 0 0 0 5314 2158 4 MP
PP
0 sg
-12 0 0 0 12 0 0 0 5314 2158 5 MP stroke
c9
0 0 12 0 0 0 5326 2158 4 MP
PP
0 sg
-12 0 0 0 12 0 0 0 5326 2158 5 MP stroke
c9
0 0 12 0 0 0 5338 2158 4 MP
PP
0 sg
-12 0 0 0 12 0 0 0 5338 2158 5 MP stroke
c9
0 107 12 0 0 -107 5350 2158 4 MP
PP
0 sg
-12 0 0 107 12 0 0 -107 5350 2158 5 MP stroke
c9
0 0 12 0 0 0 5362 2158 4 MP
PP
0 sg
-12 0 0 0 12 0 0 0 5362 2158 5 MP stroke
c9
0 0 12 0 0 0 5374 2158 4 MP
PP
0 sg
-12 0 0 0 12 0 0 0 5374 2158 5 MP stroke
c9
0 0 12 0 0 0 5386 2158 4 MP
PP
0 sg
-12 0 0 0 12 0 0 0 5386 2158 5 MP stroke
c9
0 0 12 0 0 0 5398 2158 4 MP
PP
0 sg
-12 0 0 0 12 0 0 0 5398 2158 5 MP stroke
c9
0 0 12 0 0 0 5410 2158 4 MP
PP
0 sg
-12 0 0 0 12 0 0 0 5410 2158 5 MP stroke
c9
0 0 12 0 0 0 5422 2158 4 MP
PP
0 sg
-12 0 0 0 12 0 0 0 5422 2158 5 MP stroke
c9
0 0 12 0 0 0 5434 2158 4 MP
PP
0 sg
-12 0 0 0 12 0 0 0 5434 2158 5 MP stroke
c9
0 0 12 0 0 0 5446 2158 4 MP
PP
0 sg
-12 0 0 0 12 0 0 0 5446 2158 5 MP stroke
c9
0 0 12 0 0 0 5458 2158 4 MP
PP
0 sg
-12 0 0 0 12 0 0 0 5458 2158 5 MP stroke
c9
0 0 12 0 0 0 5470 2158 4 MP
PP
0 sg
-12 0 0 0 12 0 0 0 5470 2158 5 MP stroke
c9
0 71 12 0 0 -71 5482 2158 4 MP
PP
0 sg
-12 0 0 71 12 0 0 -71 5482 2158 5 MP stroke
c9
0 0 12 0 0 0 5494 2158 4 MP
PP
0 sg
-12 0 0 0 12 0 0 0 5494 2158 5 MP stroke
c9
0 0 12 0 0 0 5506 2158 4 MP
PP
0 sg
-12 0 0 0 12 0 0 0 5506 2158 5 MP stroke
c9
0 0 12 0 0 0 5518 2158 4 MP
PP
0 sg
-12 0 0 0 12 0 0 0 5518 2158 5 MP stroke
c9
0 0 12 0 0 0 5530 2158 4 MP
PP
0 sg
-12 0 0 0 12 0 0 0 5530 2158 5 MP stroke
c9
0 0 12 0 0 0 5542 2158 4 MP
PP
0 sg
-12 0 0 0 12 0 0 0 5542 2158 5 MP stroke
c9
0 0 12 0 0 0 5554 2158 4 MP
PP
0 sg
-12 0 0 0 12 0 0 0 5554 2158 5 MP stroke
c9
0 0 12 0 0 0 5566 2158 4 MP
PP
0 sg
-12 0 0 0 12 0 0 0 5566 2158 5 MP stroke
c9
0 0 12 0 0 0 5578 2158 4 MP
PP
0 sg
-12 0 0 0 12 0 0 0 5578 2158 5 MP stroke
c9
0 0 12 0 0 0 5590 2158 4 MP
PP
0 sg
-12 0 0 0 12 0 0 0 5590 2158 5 MP stroke
c9
0 36 12 0 0 -36 5602 2158 4 MP
PP
0 sg
-12 0 0 36 12 0 0 -36 5602 2158 5 MP stroke
c9
0 0 12 0 0 0 5614 2158 4 MP
PP
0 sg
-12 0 0 0 12 0 0 0 5614 2158 5 MP stroke
c9
0 0 12 0 0 0 5626 2158 4 MP
PP
0 sg
-12 0 0 0 12 0 0 0 5626 2158 5 MP stroke
c9
0 0 12 0 0 0 5638 2158 4 MP
PP
0 sg
-12 0 0 0 12 0 0 0 5638 2158 5 MP stroke
c9
0 0 12 0 0 0 5650 2158 4 MP
PP
0 sg
-12 0 0 0 12 0 0 0 5650 2158 5 MP stroke
c9
0 0 12 0 0 0 5662 2158 4 MP
PP
0 sg
-12 0 0 0 12 0 0 0 5662 2158 5 MP stroke
c9
0 0 12 0 0 0 5674 2158 4 MP
PP
0 sg
-12 0 0 0 12 0 0 0 5674 2158 5 MP stroke
c9
0 0 12 0 0 0 5686 2158 4 MP
PP
0 sg
-12 0 0 0 12 0 0 0 5686 2158 5 MP stroke
c9
0 0 12 0 0 0 5698 2158 4 MP
PP
0 sg
-12 0 0 0 12 0 0 0 5698 2158 5 MP stroke
c9
0 0 12 0 0 0 5710 2158 4 MP
PP
0 sg
-12 0 0 0 12 0 0 0 5710 2158 5 MP stroke
c9
0 0 12 0 0 0 5722 2158 4 MP
PP
0 sg
-12 0 0 0 12 0 0 0 5722 2158 5 MP stroke
c9
0 0 12 0 0 0 5734 2158 4 MP
PP
0 sg
-12 0 0 0 12 0 0 0 5734 2158 5 MP stroke
c9
0 0 12 0 0 0 5746 2158 4 MP
PP
0 sg
-12 0 0 0 12 0 0 0 5746 2158 5 MP stroke
c9
0 0 12 0 0 0 5758 2158 4 MP
PP
0 sg
-12 0 0 0 12 0 0 0 5758 2158 5 MP stroke
c9
0 0 12 0 0 0 5770 2158 4 MP
PP
0 sg
-12 0 0 0 12 0 0 0 5770 2158 5 MP stroke
c9
0 0 12 0 0 0 5782 2158 4 MP
PP
0 sg
-12 0 0 0 12 0 0 0 5782 2158 5 MP stroke
c9
0 0 12 0 0 0 5794 2158 4 MP
PP
0 sg
-12 0 0 0 12 0 0 0 5794 2158 5 MP stroke
c9
0 0 12 0 0 0 5806 2158 4 MP
PP
0 sg
-12 0 0 0 12 0 0 0 5806 2158 5 MP stroke
c9
0 0 12 0 0 0 5818 2158 4 MP
PP
0 sg
-12 0 0 0 12 0 0 0 5818 2158 5 MP stroke
c9
0 0 12 0 0 0 5830 2158 4 MP
PP
0 sg
-12 0 0 0 12 0 0 0 5830 2158 5 MP stroke
c9
0 0 12 0 0 0 5842 2158 4 MP
PP
0 sg
-12 0 0 0 12 0 0 0 5842 2158 5 MP stroke
c9
0 0 12 0 0 0 5854 2158 4 MP
PP
0 sg
-12 0 0 0 12 0 0 0 5854 2158 5 MP stroke
c9
0 0 12 0 0 0 5866 2158 4 MP
PP
0 sg
-12 0 0 0 12 0 0 0 5866 2158 5 MP stroke
c9
0 0 12 0 0 0 5878 2158 4 MP
PP
0 sg
-12 0 0 0 12 0 0 0 5878 2158 5 MP stroke
c9
0 0 12 0 0 0 5890 2158 4 MP
PP
0 sg
-12 0 0 0 12 0 0 0 5890 2158 5 MP stroke
c9
0 0 12 0 0 0 5902 2158 4 MP
PP
0 sg
-12 0 0 0 12 0 0 0 5902 2158 5 MP stroke
c9
0 0 12 0 0 0 5914 2158 4 MP
PP
0 sg
-12 0 0 0 12 0 0 0 5914 2158 5 MP stroke
c9
0 0 12 0 0 0 5926 2158 4 MP
PP
0 sg
-12 0 0 0 12 0 0 0 5926 2158 5 MP stroke
c9
0 0 12 0 0 0 5938 2158 4 MP
PP
0 sg
-12 0 0 0 12 0 0 0 5938 2158 5 MP stroke
c9
0 0 12 0 0 0 5950 2158 4 MP
PP
0 sg
-12 0 0 0 12 0 0 0 5950 2158 5 MP stroke
c9
0 0 12 0 0 0 5962 2158 4 MP
PP
0 sg
-12 0 0 0 12 0 0 0 5962 2158 5 MP stroke
c9
0 0 11 0 0 0 5974 2158 4 MP
PP
0 sg
-11 0 0 0 11 0 0 0 5974 2158 5 MP stroke
c9
0 71 12 0 0 -71 5985 2158 4 MP
PP
0 sg
-12 0 0 71 12 0 0 -71 5985 2158 5 MP stroke
4877 2446 mt 
(Time \(s\)) s
3692 1434 mt  -90 rotate
(Count) s
90 rotate
4996  294 mt 
(n=3) s
1 sg
0 1769 2313 0 0 -1769 899 4615 4 MP
PP
-2313 0 0 1769 2313 0 0 -1769 899 4615 5 MP stroke
4 w
DO
SO
6 w
0 sg
 899 4615 mt 3212 4615 L
 899 2846 mt 3212 2846 L
 899 4615 mt  899 2846 L
3212 4615 mt 3212 2846 L
 899 4615 mt 3212 4615 L
 899 4615 mt  899 2846 L
 899 4615 mt  899 4591 L
 899 2846 mt  899 2869 L
 866 4760 mt 
(0) s
1670 4615 mt 1670 4591 L
1670 2846 mt 1670 2869 L
1637 4760 mt 
(5) s
2441 4615 mt 2441 4591 L
2441 2846 mt 2441 2869 L
2375 4760 mt 
(10) s
3212 4615 mt 3212 4591 L
3212 2846 mt 3212 2869 L
3146 4760 mt 
(15) s
 899 4615 mt  922 4615 L
3212 4615 mt 3188 4615 L
 798 4659 mt 
(0) s
 899 4362 mt  922 4362 L
3212 4362 mt 3188 4362 L
 798 4406 mt 
(5) s
 899 4109 mt  922 4109 L
3212 4109 mt 3188 4109 L
 731 4153 mt 
(10) s
 899 3856 mt  922 3856 L
3212 3856 mt 3188 3856 L
 731 3900 mt 
(15) s
 899 3604 mt  922 3604 L
3212 3604 mt 3188 3604 L
 731 3648 mt 
(20) s
 899 3351 mt  922 3351 L
3212 3351 mt 3188 3351 L
 731 3395 mt 
(25) s
 899 3098 mt  922 3098 L
3212 3098 mt 3188 3098 L
 731 3142 mt 
(30) s
 899 2846 mt  922 2846 L
3212 2846 mt 3188 2846 L
 731 2890 mt 
(35) s
 899 4615 mt 3212 4615 L
 899 2846 mt 3212 2846 L
 899 4615 mt  899 2846 L
3212 4615 mt 3212 2846 L
24 w
c8
0 -1769 978 4615 2 MP stroke
c9
0 1011 13 0 0 -1011 923 4615 4 MP
PP
6 w
0 sg
-13 0 0 1011 13 0 0 -1011 923 4615 5 MP stroke
c9
0 1466 13 0 0 -1466 936 4615 4 MP
PP
0 sg
-13 0 0 1466 13 0 0 -1466 936 4615 5 MP stroke
c9
0 1567 13 0 0 -1567 949 4615 4 MP
PP
0 sg
-13 0 0 1567 13 0 0 -1567 949 4615 5 MP stroke
c9
0 961 13 0 0 -961 962 4615 4 MP
PP
0 sg
-13 0 0 961 13 0 0 -961 962 4615 5 MP stroke
c9
0 809 13 0 0 -809 975 4615 4 MP
PP
0 sg
-13 0 0 809 13 0 0 -809 975 4615 5 MP stroke
c9
0 556 14 0 0 -556 988 4615 4 MP
PP
0 sg
-14 0 0 556 14 0 0 -556 988 4615 5 MP stroke
c9
0 910 13 0 0 -910 1002 4615 4 MP
PP
0 sg
-13 0 0 910 13 0 0 -910 1002 4615 5 MP stroke
c9
0 304 13 0 0 -304 1015 4615 4 MP
PP
0 sg
-13 0 0 304 13 0 0 -304 1015 4615 5 MP stroke
c9
0 152 13 0 0 -152 1028 4615 4 MP
PP
0 sg
-13 0 0 152 13 0 0 -152 1028 4615 5 MP stroke
c9
0 102 13 0 0 -102 1041 4615 4 MP
PP
0 sg
-13 0 0 102 13 0 0 -102 1041 4615 5 MP stroke
c9
0 102 13 0 0 -102 1054 4615 4 MP
PP
0 sg
-13 0 0 102 13 0 0 -102 1054 4615 5 MP stroke
c9
0 152 13 0 0 -152 1067 4615 4 MP
PP
0 sg
-13 0 0 152 13 0 0 -152 1067 4615 5 MP stroke
c9
0 51 14 0 0 -51 1080 4615 4 MP
PP
0 sg
-14 0 0 51 14 0 0 -51 1080 4615 5 MP stroke
c9
0 152 13 0 0 -152 1094 4615 4 MP
PP
0 sg
-13 0 0 152 13 0 0 -152 1094 4615 5 MP stroke
c9
0 152 13 0 0 -152 1107 4615 4 MP
PP
0 sg
-13 0 0 152 13 0 0 -152 1107 4615 5 MP stroke
c9
0 51 13 0 0 -51 1120 4615 4 MP
PP
0 sg
-13 0 0 51 13 0 0 -51 1120 4615 5 MP stroke
c9
0 152 13 0 0 -152 1133 4615 4 MP
PP
0 sg
-13 0 0 152 13 0 0 -152 1133 4615 5 MP stroke
c9
0 51 13 0 0 -51 1146 4615 4 MP
PP
0 sg
-13 0 0 51 13 0 0 -51 1146 4615 5 MP stroke
c9
0 51 14 0 0 -51 1159 4615 4 MP
PP
0 sg
-14 0 0 51 14 0 0 -51 1159 4615 5 MP stroke
c9
0 102 13 0 0 -102 1173 4615 4 MP
PP
0 sg
-13 0 0 102 13 0 0 -102 1173 4615 5 MP stroke
c9
0 102 13 0 0 -102 1186 4615 4 MP
PP
0 sg
-13 0 0 102 13 0 0 -102 1186 4615 5 MP stroke
c9
0 152 13 0 0 -152 1199 4615 4 MP
PP
0 sg
-13 0 0 152 13 0 0 -152 1199 4615 5 MP stroke
c9
0 51 13 0 0 -51 1212 4615 4 MP
PP
0 sg
-13 0 0 51 13 0 0 -51 1212 4615 5 MP stroke
c9
0 51 13 0 0 -51 1225 4615 4 MP
PP
0 sg
-13 0 0 51 13 0 0 -51 1225 4615 5 MP stroke
c9
0 51 13 0 0 -51 1238 4615 4 MP
PP
0 sg
-13 0 0 51 13 0 0 -51 1238 4615 5 MP stroke
c9
0 51 14 0 0 -51 1251 4615 4 MP
PP
0 sg
-14 0 0 51 14 0 0 -51 1251 4615 5 MP stroke
c9
0 0 13 0 0 0 1265 4615 4 MP
PP
0 sg
-13 0 0 0 13 0 0 0 1265 4615 5 MP stroke
c9
0 0 13 0 0 0 1278 4615 4 MP
PP
0 sg
-13 0 0 0 13 0 0 0 1278 4615 5 MP stroke
c9
0 0 13 0 0 0 1291 4615 4 MP
PP
0 sg
-13 0 0 0 13 0 0 0 1291 4615 5 MP stroke
c9
0 0 13 0 0 0 1304 4615 4 MP
PP
0 sg
-13 0 0 0 13 0 0 0 1304 4615 5 MP stroke
c9
0 51 13 0 0 -51 1317 4615 4 MP
PP
0 sg
-13 0 0 51 13 0 0 -51 1317 4615 5 MP stroke
c9
0 0 14 0 0 0 1330 4615 4 MP
PP
0 sg
-14 0 0 0 14 0 0 0 1330 4615 5 MP stroke
c9
0 0 13 0 0 0 1344 4615 4 MP
PP
0 sg
-13 0 0 0 13 0 0 0 1344 4615 5 MP stroke
c9
0 51 13 0 0 -51 1357 4615 4 MP
PP
0 sg
-13 0 0 51 13 0 0 -51 1357 4615 5 MP stroke
c9
0 51 13 0 0 -51 1370 4615 4 MP
PP
0 sg
-13 0 0 51 13 0 0 -51 1370 4615 5 MP stroke
c9
0 0 13 0 0 0 1383 4615 4 MP
PP
0 sg
-13 0 0 0 13 0 0 0 1383 4615 5 MP stroke
c9
0 0 13 0 0 0 1396 4615 4 MP
PP
0 sg
-13 0 0 0 13 0 0 0 1396 4615 5 MP stroke
c9
0 0 13 0 0 0 1409 4615 4 MP
PP
0 sg
-13 0 0 0 13 0 0 0 1409 4615 5 MP stroke
c9
0 51 14 0 0 -51 1422 4615 4 MP
PP
0 sg
-14 0 0 51 14 0 0 -51 1422 4615 5 MP stroke
c9
0 0 13 0 0 0 1436 4615 4 MP
PP
0 sg
-13 0 0 0 13 0 0 0 1436 4615 5 MP stroke
c9
0 51 13 0 0 -51 1449 4615 4 MP
PP
0 sg
-13 0 0 51 13 0 0 -51 1449 4615 5 MP stroke
c9
0 0 13 0 0 0 1462 4615 4 MP
PP
0 sg
-13 0 0 0 13 0 0 0 1462 4615 5 MP stroke
c9
0 51 13 0 0 -51 1475 4615 4 MP
PP
0 sg
-13 0 0 51 13 0 0 -51 1475 4615 5 MP stroke
c9
0 0 13 0 0 0 1488 4615 4 MP
PP
0 sg
-13 0 0 0 13 0 0 0 1488 4615 5 MP stroke
c9
0 102 13 0 0 -102 1501 4615 4 MP
PP
0 sg
-13 0 0 102 13 0 0 -102 1501 4615 5 MP stroke
c9
0 51 14 0 0 -51 1514 4615 4 MP
PP
0 sg
-14 0 0 51 14 0 0 -51 1514 4615 5 MP stroke
c9
0 0 13 0 0 0 1528 4615 4 MP
PP
0 sg
-13 0 0 0 13 0 0 0 1528 4615 5 MP stroke
c9
0 0 13 0 0 0 1541 4615 4 MP
PP
0 sg
-13 0 0 0 13 0 0 0 1541 4615 5 MP stroke
c9
0 0 13 0 0 0 1554 4615 4 MP
PP
0 sg
-13 0 0 0 13 0 0 0 1554 4615 5 MP stroke
c9
0 0 13 0 0 0 1567 4615 4 MP
PP
0 sg
-13 0 0 0 13 0 0 0 1567 4615 5 MP stroke
c9
0 0 13 0 0 0 1580 4615 4 MP
PP
0 sg
-13 0 0 0 13 0 0 0 1580 4615 5 MP stroke
c9
0 0 14 0 0 0 1593 4615 4 MP
PP
0 sg
-14 0 0 0 14 0 0 0 1593 4615 5 MP stroke
c9
0 0 13 0 0 0 1607 4615 4 MP
PP
0 sg
-13 0 0 0 13 0 0 0 1607 4615 5 MP stroke
c9
0 0 13 0 0 0 1620 4615 4 MP
PP
0 sg
-13 0 0 0 13 0 0 0 1620 4615 5 MP stroke
c9
0 0 13 0 0 0 1633 4615 4 MP
PP
0 sg
-13 0 0 0 13 0 0 0 1633 4615 5 MP stroke
c9
0 0 13 0 0 0 1646 4615 4 MP
PP
0 sg
-13 0 0 0 13 0 0 0 1646 4615 5 MP stroke
c9
0 0 13 0 0 0 1659 4615 4 MP
PP
0 sg
-13 0 0 0 13 0 0 0 1659 4615 5 MP stroke
c9
0 0 13 0 0 0 1672 4615 4 MP
PP
0 sg
-13 0 0 0 13 0 0 0 1672 4615 5 MP stroke
c9
0 0 14 0 0 0 1685 4615 4 MP
PP
0 sg
-14 0 0 0 14 0 0 0 1685 4615 5 MP stroke
c9
0 0 13 0 0 0 1699 4615 4 MP
PP
0 sg
-13 0 0 0 13 0 0 0 1699 4615 5 MP stroke
c9
0 0 13 0 0 0 1712 4615 4 MP
PP
0 sg
-13 0 0 0 13 0 0 0 1712 4615 5 MP stroke
c9
0 0 13 0 0 0 1725 4615 4 MP
PP
0 sg
-13 0 0 0 13 0 0 0 1725 4615 5 MP stroke
c9
0 51 13 0 0 -51 1738 4615 4 MP
PP
0 sg
-13 0 0 51 13 0 0 -51 1738 4615 5 MP stroke
c9
0 0 13 0 0 0 1751 4615 4 MP
PP
0 sg
-13 0 0 0 13 0 0 0 1751 4615 5 MP stroke
c9
0 0 14 0 0 0 1764 4615 4 MP
PP
0 sg
-14 0 0 0 14 0 0 0 1764 4615 5 MP stroke
c9
0 0 13 0 0 0 1778 4615 4 MP
PP
0 sg
-13 0 0 0 13 0 0 0 1778 4615 5 MP stroke
c9
0 0 13 0 0 0 1791 4615 4 MP
PP
0 sg
-13 0 0 0 13 0 0 0 1791 4615 5 MP stroke
c9
0 51 13 0 0 -51 1804 4615 4 MP
PP
0 sg
-13 0 0 51 13 0 0 -51 1804 4615 5 MP stroke
c9
0 0 13 0 0 0 1817 4615 4 MP
PP
0 sg
-13 0 0 0 13 0 0 0 1817 4615 5 MP stroke
c9
0 0 13 0 0 0 1830 4615 4 MP
PP
0 sg
-13 0 0 0 13 0 0 0 1830 4615 5 MP stroke
c9
0 51 13 0 0 -51 1843 4615 4 MP
PP
0 sg
-13 0 0 51 13 0 0 -51 1843 4615 5 MP stroke
c9
0 0 14 0 0 0 1856 4615 4 MP
PP
0 sg
-14 0 0 0 14 0 0 0 1856 4615 5 MP stroke
c9
0 0 13 0 0 0 1870 4615 4 MP
PP
0 sg
-13 0 0 0 13 0 0 0 1870 4615 5 MP stroke
c9
0 0 13 0 0 0 1883 4615 4 MP
PP
0 sg
-13 0 0 0 13 0 0 0 1883 4615 5 MP stroke
c9
0 0 13 0 0 0 1896 4615 4 MP
PP
0 sg
-13 0 0 0 13 0 0 0 1896 4615 5 MP stroke
c9
0 0 13 0 0 0 1909 4615 4 MP
PP
0 sg
-13 0 0 0 13 0 0 0 1909 4615 5 MP stroke
c9
0 0 13 0 0 0 1922 4615 4 MP
PP
0 sg
-13 0 0 0 13 0 0 0 1922 4615 5 MP stroke
c9
0 0 13 0 0 0 1935 4615 4 MP
PP
0 sg
-13 0 0 0 13 0 0 0 1935 4615 5 MP stroke
c9
0 0 14 0 0 0 1948 4615 4 MP
PP
0 sg
-14 0 0 0 14 0 0 0 1948 4615 5 MP stroke
c9
0 0 13 0 0 0 1962 4615 4 MP
PP
0 sg
-13 0 0 0 13 0 0 0 1962 4615 5 MP stroke
c9
0 0 13 0 0 0 1975 4615 4 MP
PP
0 sg
-13 0 0 0 13 0 0 0 1975 4615 5 MP stroke
c9
0 0 13 0 0 0 1988 4615 4 MP
PP
0 sg
-13 0 0 0 13 0 0 0 1988 4615 5 MP stroke
c9
0 0 13 0 0 0 2001 4615 4 MP
PP
0 sg
-13 0 0 0 13 0 0 0 2001 4615 5 MP stroke
c9
0 0 13 0 0 0 2014 4615 4 MP
PP
0 sg
-13 0 0 0 13 0 0 0 2014 4615 5 MP stroke
c9
0 0 14 0 0 0 2027 4615 4 MP
PP
0 sg
-14 0 0 0 14 0 0 0 2027 4615 5 MP stroke
c9
0 0 13 0 0 0 2041 4615 4 MP
PP
0 sg
-13 0 0 0 13 0 0 0 2041 4615 5 MP stroke
c9
0 0 13 0 0 0 2054 4615 4 MP
PP
0 sg
-13 0 0 0 13 0 0 0 2054 4615 5 MP stroke
c9
0 0 13 0 0 0 2067 4615 4 MP
PP
0 sg
-13 0 0 0 13 0 0 0 2067 4615 5 MP stroke
c9
0 0 13 0 0 0 2080 4615 4 MP
PP
0 sg
-13 0 0 0 13 0 0 0 2080 4615 5 MP stroke
c9
0 0 13 0 0 0 2093 4615 4 MP
PP
0 sg
-13 0 0 0 13 0 0 0 2093 4615 5 MP stroke
c9
0 0 13 0 0 0 2106 4615 4 MP
PP
0 sg
-13 0 0 0 13 0 0 0 2106 4615 5 MP stroke
c9
0 0 14 0 0 0 2119 4615 4 MP
PP
0 sg
-14 0 0 0 14 0 0 0 2119 4615 5 MP stroke
c9
0 0 13 0 0 0 2133 4615 4 MP
PP
0 sg
-13 0 0 0 13 0 0 0 2133 4615 5 MP stroke
c9
0 0 13 0 0 0 2146 4615 4 MP
PP
0 sg
-13 0 0 0 13 0 0 0 2146 4615 5 MP stroke
c9
0 0 13 0 0 0 2159 4615 4 MP
PP
0 sg
-13 0 0 0 13 0 0 0 2159 4615 5 MP stroke
c9
0 0 13 0 0 0 2172 4615 4 MP
PP
0 sg
-13 0 0 0 13 0 0 0 2172 4615 5 MP stroke
c9
0 0 13 0 0 0 2185 4615 4 MP
PP
0 sg
-13 0 0 0 13 0 0 0 2185 4615 5 MP stroke
c9
0 0 14 0 0 0 2198 4615 4 MP
PP
0 sg
-14 0 0 0 14 0 0 0 2198 4615 5 MP stroke
c9
0 0 13 0 0 0 2212 4615 4 MP
PP
0 sg
-13 0 0 0 13 0 0 0 2212 4615 5 MP stroke
c9
0 0 13 0 0 0 2225 4615 4 MP
PP
0 sg
-13 0 0 0 13 0 0 0 2225 4615 5 MP stroke
c9
0 51 13 0 0 -51 2238 4615 4 MP
PP
0 sg
-13 0 0 51 13 0 0 -51 2238 4615 5 MP stroke
c9
0 0 13 0 0 0 2251 4615 4 MP
PP
0 sg
-13 0 0 0 13 0 0 0 2251 4615 5 MP stroke
c9
0 0 13 0 0 0 2264 4615 4 MP
PP
0 sg
-13 0 0 0 13 0 0 0 2264 4615 5 MP stroke
c9
0 0 13 0 0 0 2277 4615 4 MP
PP
0 sg
-13 0 0 0 13 0 0 0 2277 4615 5 MP stroke
c9
0 0 14 0 0 0 2290 4615 4 MP
PP
0 sg
-14 0 0 0 14 0 0 0 2290 4615 5 MP stroke
c9
0 0 13 0 0 0 2304 4615 4 MP
PP
0 sg
-13 0 0 0 13 0 0 0 2304 4615 5 MP stroke
c9
0 0 13 0 0 0 2317 4615 4 MP
PP
0 sg
-13 0 0 0 13 0 0 0 2317 4615 5 MP stroke
c9
0 0 13 0 0 0 2330 4615 4 MP
PP
0 sg
-13 0 0 0 13 0 0 0 2330 4615 5 MP stroke
c9
0 0 13 0 0 0 2343 4615 4 MP
PP
0 sg
-13 0 0 0 13 0 0 0 2343 4615 5 MP stroke
c9
0 0 13 0 0 0 2356 4615 4 MP
PP
0 sg
-13 0 0 0 13 0 0 0 2356 4615 5 MP stroke
c9
0 0 13 0 0 0 2369 4615 4 MP
PP
0 sg
-13 0 0 0 13 0 0 0 2369 4615 5 MP stroke
c9
0 0 14 0 0 0 2382 4615 4 MP
PP
0 sg
-14 0 0 0 14 0 0 0 2382 4615 5 MP stroke
c9
0 0 13 0 0 0 2396 4615 4 MP
PP
0 sg
-13 0 0 0 13 0 0 0 2396 4615 5 MP stroke
c9
0 0 13 0 0 0 2409 4615 4 MP
PP
0 sg
-13 0 0 0 13 0 0 0 2409 4615 5 MP stroke
c9
0 0 13 0 0 0 2422 4615 4 MP
PP
0 sg
-13 0 0 0 13 0 0 0 2422 4615 5 MP stroke
c9
0 0 13 0 0 0 2435 4615 4 MP
PP
0 sg
-13 0 0 0 13 0 0 0 2435 4615 5 MP stroke
c9
0 0 13 0 0 0 2448 4615 4 MP
PP
0 sg
-13 0 0 0 13 0 0 0 2448 4615 5 MP stroke
c9
0 0 14 0 0 0 2461 4615 4 MP
PP
0 sg
-14 0 0 0 14 0 0 0 2461 4615 5 MP stroke
c9
0 0 13 0 0 0 2475 4615 4 MP
PP
0 sg
-13 0 0 0 13 0 0 0 2475 4615 5 MP stroke
c9
0 0 13 0 0 0 2488 4615 4 MP
PP
0 sg
-13 0 0 0 13 0 0 0 2488 4615 5 MP stroke
c9
0 0 13 0 0 0 2501 4615 4 MP
PP
0 sg
-13 0 0 0 13 0 0 0 2501 4615 5 MP stroke
c9
0 0 13 0 0 0 2514 4615 4 MP
PP
0 sg
-13 0 0 0 13 0 0 0 2514 4615 5 MP stroke
c9
0 0 13 0 0 0 2527 4615 4 MP
PP
0 sg
-13 0 0 0 13 0 0 0 2527 4615 5 MP stroke
c9
0 0 13 0 0 0 2540 4615 4 MP
PP
0 sg
-13 0 0 0 13 0 0 0 2540 4615 5 MP stroke
c9
0 0 14 0 0 0 2553 4615 4 MP
PP
0 sg
-14 0 0 0 14 0 0 0 2553 4615 5 MP stroke
c9
0 0 13 0 0 0 2567 4615 4 MP
PP
0 sg
-13 0 0 0 13 0 0 0 2567 4615 5 MP stroke
c9
0 0 13 0 0 0 2580 4615 4 MP
PP
0 sg
-13 0 0 0 13 0 0 0 2580 4615 5 MP stroke
c9
0 0 13 0 0 0 2593 4615 4 MP
PP
0 sg
-13 0 0 0 13 0 0 0 2593 4615 5 MP stroke
c9
0 0 13 0 0 0 2606 4615 4 MP
PP
0 sg
-13 0 0 0 13 0 0 0 2606 4615 5 MP stroke
c9
0 0 13 0 0 0 2619 4615 4 MP
PP
0 sg
-13 0 0 0 13 0 0 0 2619 4615 5 MP stroke
c9
0 0 14 0 0 0 2632 4615 4 MP
PP
0 sg
-14 0 0 0 14 0 0 0 2632 4615 5 MP stroke
c9
0 0 13 0 0 0 2646 4615 4 MP
PP
0 sg
-13 0 0 0 13 0 0 0 2646 4615 5 MP stroke
c9
0 0 13 0 0 0 2659 4615 4 MP
PP
0 sg
-13 0 0 0 13 0 0 0 2659 4615 5 MP stroke
c9
0 0 13 0 0 0 2672 4615 4 MP
PP
0 sg
-13 0 0 0 13 0 0 0 2672 4615 5 MP stroke
c9
0 0 13 0 0 0 2685 4615 4 MP
PP
0 sg
-13 0 0 0 13 0 0 0 2685 4615 5 MP stroke
c9
0 0 13 0 0 0 2698 4615 4 MP
PP
0 sg
-13 0 0 0 13 0 0 0 2698 4615 5 MP stroke
c9
0 51 13 0 0 -51 2711 4615 4 MP
PP
0 sg
-13 0 0 51 13 0 0 -51 2711 4615 5 MP stroke
c9
0 0 14 0 0 0 2724 4615 4 MP
PP
0 sg
-14 0 0 0 14 0 0 0 2724 4615 5 MP stroke
c9
0 0 13 0 0 0 2738 4615 4 MP
PP
0 sg
-13 0 0 0 13 0 0 0 2738 4615 5 MP stroke
c9
0 0 13 0 0 0 2751 4615 4 MP
PP
0 sg
-13 0 0 0 13 0 0 0 2751 4615 5 MP stroke
c9
0 0 13 0 0 0 2764 4615 4 MP
PP
0 sg
-13 0 0 0 13 0 0 0 2764 4615 5 MP stroke
c9
0 0 13 0 0 0 2777 4615 4 MP
PP
0 sg
-13 0 0 0 13 0 0 0 2777 4615 5 MP stroke
c9
0 0 13 0 0 0 2790 4615 4 MP
PP
0 sg
-13 0 0 0 13 0 0 0 2790 4615 5 MP stroke
c9
0 0 13 0 0 0 2803 4615 4 MP
PP
0 sg
-13 0 0 0 13 0 0 0 2803 4615 5 MP stroke
c9
0 0 14 0 0 0 2816 4615 4 MP
PP
0 sg
-14 0 0 0 14 0 0 0 2816 4615 5 MP stroke
c9
0 0 13 0 0 0 2830 4615 4 MP
PP
0 sg
-13 0 0 0 13 0 0 0 2830 4615 5 MP stroke
c9
0 0 13 0 0 0 2843 4615 4 MP
PP
0 sg
-13 0 0 0 13 0 0 0 2843 4615 5 MP stroke
c9
0 0 13 0 0 0 2856 4615 4 MP
PP
0 sg
-13 0 0 0 13 0 0 0 2856 4615 5 MP stroke
c9
0 0 13 0 0 0 2869 4615 4 MP
PP
0 sg
-13 0 0 0 13 0 0 0 2869 4615 5 MP stroke
c9
0 51 13 0 0 -51 2882 4615 4 MP
PP
0 sg
-13 0 0 51 13 0 0 -51 2882 4615 5 MP stroke
1834 4903 mt 
(Time \(s\)) s
 649 3891 mt  -90 rotate
(Count) s
90 rotate
1953 2751 mt 
(n=4) s
1 sg
0 1769 2313 0 0 -1769 3942 4615 4 MP
PP
-2313 0 0 1769 2313 0 0 -1769 3942 4615 5 MP stroke
4 w
DO
SO
6 w
0 sg
3942 4615 mt 6255 4615 L
3942 2846 mt 6255 2846 L
3942 4615 mt 3942 2846 L
6255 4615 mt 6255 2846 L
3942 4615 mt 6255 4615 L
3942 4615 mt 3942 2846 L
3942 4615 mt 3942 4591 L
3942 2846 mt 3942 2869 L
3909 4760 mt 
(0) s
4520 4615 mt 4520 4591 L
4520 2846 mt 4520 2869 L
4487 4760 mt 
(2) s
5098 4615 mt 5098 4591 L
5098 2846 mt 5098 2869 L
5065 4760 mt 
(4) s
5676 4615 mt 5676 4591 L
5676 2846 mt 5676 2869 L
5643 4760 mt 
(6) s
6255 4615 mt 6255 4591 L
6255 2846 mt 6255 2869 L
6222 4760 mt 
(8) s
5985 4962 mt 
(x 10) s
%%IncludeResource: font Helvetica
/Helvetica /ISOLatin1Encoding 80 FMSR

6211 4888 mt 
(4) s
3942 4615 mt 3965 4615 L
6255 4615 mt 6231 4615 L
%%IncludeResource: font Helvetica
/Helvetica /ISOLatin1Encoding 120 FMSR

3841 4659 mt 
(0) s
3942 4172 mt 3965 4172 L
6255 4172 mt 6231 4172 L
3774 4216 mt 
(20) s
3942 3730 mt 3965 3730 L
6255 3730 mt 6231 3730 L
3774 3774 mt 
(40) s
3942 3288 mt 3965 3288 L
6255 3288 mt 6231 3288 L
3774 3332 mt 
(60) s
3942 2846 mt 3965 2846 L
6255 2846 mt 6231 2846 L
3774 2890 mt 
(80) s
3942 4615 mt 6255 4615 L
3942 2846 mt 6255 2846 L
3942 4615 mt 3942 2846 L
6255 4615 mt 6255 2846 L
24 w
c8
0 -1769 3946 4615 2 MP stroke
c9
0 1570 12 0 0 -1570 3942 4615 4 MP
PP
6 w
0 sg
-12 0 0 1570 12 0 0 -1570 3942 4615 5 MP stroke
c9
0 288 11 0 0 -288 3954 4615 4 MP
PP
0 sg
-11 0 0 288 11 0 0 -288 3954 4615 5 MP stroke
c9
0 45 12 0 0 -45 3965 4615 4 MP
PP
0 sg
-12 0 0 45 12 0 0 -45 3965 4615 5 MP stroke
c9
0 89 12 0 0 -89 3977 4615 4 MP
PP
0 sg
-12 0 0 89 12 0 0 -89 3977 4615 5 MP stroke
c9
0 67 11 0 0 -67 3989 4615 4 MP
PP
0 sg
-11 0 0 67 11 0 0 -67 3989 4615 5 MP stroke
c9
0 45 12 0 0 -45 4000 4615 4 MP
PP
0 sg
-12 0 0 45 12 0 0 -45 4000 4615 5 MP stroke
c9
0 0 12 0 0 0 4012 4615 4 MP
PP
0 sg
-12 0 0 0 12 0 0 0 4012 4615 5 MP stroke
c9
0 45 12 0 0 -45 4024 4615 4 MP
PP
0 sg
-12 0 0 45 12 0 0 -45 4024 4615 5 MP stroke
c9
0 0 11 0 0 0 4036 4615 4 MP
PP
0 sg
-11 0 0 0 11 0 0 0 4036 4615 5 MP stroke
c9
0 0 12 0 0 0 4047 4615 4 MP
PP
0 sg
-12 0 0 0 12 0 0 0 4047 4615 5 MP stroke
c9
0 23 12 0 0 -23 4059 4615 4 MP
PP
0 sg
-12 0 0 23 12 0 0 -23 4059 4615 5 MP stroke
c9
0 45 12 0 0 -45 4071 4615 4 MP
PP
0 sg
-12 0 0 45 12 0 0 -45 4071 4615 5 MP stroke
c9
0 0 11 0 0 0 4083 4615 4 MP
PP
0 sg
-11 0 0 0 11 0 0 0 4083 4615 5 MP stroke
c9
0 0 12 0 0 0 4094 4615 4 MP
PP
0 sg
-12 0 0 0 12 0 0 0 4094 4615 5 MP stroke
c9
0 0 12 0 0 0 4106 4615 4 MP
PP
0 sg
-12 0 0 0 12 0 0 0 4106 4615 5 MP stroke
c9
0 23 11 0 0 -23 4118 4615 4 MP
PP
0 sg
-11 0 0 23 11 0 0 -23 4118 4615 5 MP stroke
c9
0 0 12 0 0 0 4129 4615 4 MP
PP
0 sg
-12 0 0 0 12 0 0 0 4129 4615 5 MP stroke
c9
0 45 12 0 0 -45 4141 4615 4 MP
PP
0 sg
-12 0 0 45 12 0 0 -45 4141 4615 5 MP stroke
c9
0 0 12 0 0 0 4153 4615 4 MP
PP
0 sg
-12 0 0 0 12 0 0 0 4153 4615 5 MP stroke
c9
0 0 11 0 0 0 4165 4615 4 MP
PP
0 sg
-11 0 0 0 11 0 0 0 4165 4615 5 MP stroke
c9
0 0 12 0 0 0 4176 4615 4 MP
PP
0 sg
-12 0 0 0 12 0 0 0 4176 4615 5 MP stroke
c9
0 0 12 0 0 0 4188 4615 4 MP
PP
0 sg
-12 0 0 0 12 0 0 0 4188 4615 5 MP stroke
c9
0 0 12 0 0 0 4200 4615 4 MP
PP
0 sg
-12 0 0 0 12 0 0 0 4200 4615 5 MP stroke
c9
0 45 11 0 0 -45 4212 4615 4 MP
PP
0 sg
-11 0 0 45 11 0 0 -45 4212 4615 5 MP stroke
c9
0 0 12 0 0 0 4223 4615 4 MP
PP
0 sg
-12 0 0 0 12 0 0 0 4223 4615 5 MP stroke
c9
0 0 12 0 0 0 4235 4615 4 MP
PP
0 sg
-12 0 0 0 12 0 0 0 4235 4615 5 MP stroke
c9
0 0 11 0 0 0 4247 4615 4 MP
PP
0 sg
-11 0 0 0 11 0 0 0 4247 4615 5 MP stroke
c9
0 0 12 0 0 0 4258 4615 4 MP
PP
0 sg
-12 0 0 0 12 0 0 0 4258 4615 5 MP stroke
c9
0 23 12 0 0 -23 4270 4615 4 MP
PP
0 sg
-12 0 0 23 12 0 0 -23 4270 4615 5 MP stroke
c9
0 0 12 0 0 0 4282 4615 4 MP
PP
0 sg
-12 0 0 0 12 0 0 0 4282 4615 5 MP stroke
c9
0 0 11 0 0 0 4294 4615 4 MP
PP
0 sg
-11 0 0 0 11 0 0 0 4294 4615 5 MP stroke
c9
0 0 12 0 0 0 4305 4615 4 MP
PP
0 sg
-12 0 0 0 12 0 0 0 4305 4615 5 MP stroke
c9
0 0 12 0 0 0 4317 4615 4 MP
PP
0 sg
-12 0 0 0 12 0 0 0 4317 4615 5 MP stroke
c9
0 0 12 0 0 0 4329 4615 4 MP
PP
0 sg
-12 0 0 0 12 0 0 0 4329 4615 5 MP stroke
c9
0 0 11 0 0 0 4341 4615 4 MP
PP
0 sg
-11 0 0 0 11 0 0 0 4341 4615 5 MP stroke
c9
0 0 12 0 0 0 4352 4615 4 MP
PP
0 sg
-12 0 0 0 12 0 0 0 4352 4615 5 MP stroke
c9
0 0 12 0 0 0 4364 4615 4 MP
PP
0 sg
-12 0 0 0 12 0 0 0 4364 4615 5 MP stroke
c9
0 23 11 0 0 -23 4376 4615 4 MP
PP
0 sg
-11 0 0 23 11 0 0 -23 4376 4615 5 MP stroke
c9
0 0 12 0 0 0 4387 4615 4 MP
PP
0 sg
-12 0 0 0 12 0 0 0 4387 4615 5 MP stroke
c9
0 0 12 0 0 0 4399 4615 4 MP
PP
0 sg
-12 0 0 0 12 0 0 0 4399 4615 5 MP stroke
c9
0 0 12 0 0 0 4411 4615 4 MP
PP
0 sg
-12 0 0 0 12 0 0 0 4411 4615 5 MP stroke
c9
0 0 11 0 0 0 4423 4615 4 MP
PP
0 sg
-11 0 0 0 11 0 0 0 4423 4615 5 MP stroke
c9
0 0 12 0 0 0 4434 4615 4 MP
PP
0 sg
-12 0 0 0 12 0 0 0 4434 4615 5 MP stroke
c9
0 0 12 0 0 0 4446 4615 4 MP
PP
0 sg
-12 0 0 0 12 0 0 0 4446 4615 5 MP stroke
c9
0 0 12 0 0 0 4458 4615 4 MP
PP
0 sg
-12 0 0 0 12 0 0 0 4458 4615 5 MP stroke
c9
0 0 11 0 0 0 4470 4615 4 MP
PP
0 sg
-11 0 0 0 11 0 0 0 4470 4615 5 MP stroke
c9
0 0 12 0 0 0 4481 4615 4 MP
PP
0 sg
-12 0 0 0 12 0 0 0 4481 4615 5 MP stroke
c9
0 0 12 0 0 0 4493 4615 4 MP
PP
0 sg
-12 0 0 0 12 0 0 0 4493 4615 5 MP stroke
c9
0 0 12 0 0 0 4505 4615 4 MP
PP
0 sg
-12 0 0 0 12 0 0 0 4505 4615 5 MP stroke
c9
0 0 11 0 0 0 4517 4615 4 MP
PP
0 sg
-11 0 0 0 11 0 0 0 4517 4615 5 MP stroke
c9
0 0 12 0 0 0 4528 4615 4 MP
PP
0 sg
-12 0 0 0 12 0 0 0 4528 4615 5 MP stroke
c9
0 0 12 0 0 0 4540 4615 4 MP
PP
0 sg
-12 0 0 0 12 0 0 0 4540 4615 5 MP stroke
c9
0 0 11 0 0 0 4552 4615 4 MP
PP
0 sg
-11 0 0 0 11 0 0 0 4552 4615 5 MP stroke
c9
0 0 12 0 0 0 4563 4615 4 MP
PP
0 sg
-12 0 0 0 12 0 0 0 4563 4615 5 MP stroke
c9
0 0 12 0 0 0 4575 4615 4 MP
PP
0 sg
-12 0 0 0 12 0 0 0 4575 4615 5 MP stroke
c9
0 0 12 0 0 0 4587 4615 4 MP
PP
0 sg
-12 0 0 0 12 0 0 0 4587 4615 5 MP stroke
c9
0 0 11 0 0 0 4599 4615 4 MP
PP
0 sg
-11 0 0 0 11 0 0 0 4599 4615 5 MP stroke
c9
0 0 12 0 0 0 4610 4615 4 MP
PP
0 sg
-12 0 0 0 12 0 0 0 4610 4615 5 MP stroke
c9
0 0 12 0 0 0 4622 4615 4 MP
PP
0 sg
-12 0 0 0 12 0 0 0 4622 4615 5 MP stroke
c9
0 0 12 0 0 0 4634 4615 4 MP
PP
0 sg
-12 0 0 0 12 0 0 0 4634 4615 5 MP stroke
c9
0 0 11 0 0 0 4646 4615 4 MP
PP
0 sg
-11 0 0 0 11 0 0 0 4646 4615 5 MP stroke
c9
0 0 12 0 0 0 4657 4615 4 MP
PP
0 sg
-12 0 0 0 12 0 0 0 4657 4615 5 MP stroke
c9
0 0 12 0 0 0 4669 4615 4 MP
PP
0 sg
-12 0 0 0 12 0 0 0 4669 4615 5 MP stroke
c9
0 0 11 0 0 0 4681 4615 4 MP
PP
0 sg
-11 0 0 0 11 0 0 0 4681 4615 5 MP stroke
c9
0 0 12 0 0 0 4692 4615 4 MP
PP
0 sg
-12 0 0 0 12 0 0 0 4692 4615 5 MP stroke
c9
0 0 12 0 0 0 4704 4615 4 MP
PP
0 sg
-12 0 0 0 12 0 0 0 4704 4615 5 MP stroke
c9
0 0 12 0 0 0 4716 4615 4 MP
PP
0 sg
-12 0 0 0 12 0 0 0 4716 4615 5 MP stroke
c9
0 0 11 0 0 0 4728 4615 4 MP
PP
0 sg
-11 0 0 0 11 0 0 0 4728 4615 5 MP stroke
c9
0 0 12 0 0 0 4739 4615 4 MP
PP
0 sg
-12 0 0 0 12 0 0 0 4739 4615 5 MP stroke
c9
0 0 12 0 0 0 4751 4615 4 MP
PP
0 sg
-12 0 0 0 12 0 0 0 4751 4615 5 MP stroke
c9
0 0 12 0 0 0 4763 4615 4 MP
PP
0 sg
-12 0 0 0 12 0 0 0 4763 4615 5 MP stroke
c9
0 0 11 0 0 0 4775 4615 4 MP
PP
0 sg
-11 0 0 0 11 0 0 0 4775 4615 5 MP stroke
c9
0 0 12 0 0 0 4786 4615 4 MP
PP
0 sg
-12 0 0 0 12 0 0 0 4786 4615 5 MP stroke
c9
0 0 12 0 0 0 4798 4615 4 MP
PP
0 sg
-12 0 0 0 12 0 0 0 4798 4615 5 MP stroke
c9
0 0 11 0 0 0 4810 4615 4 MP
PP
0 sg
-11 0 0 0 11 0 0 0 4810 4615 5 MP stroke
c9
0 0 12 0 0 0 4821 4615 4 MP
PP
0 sg
-12 0 0 0 12 0 0 0 4821 4615 5 MP stroke
c9
0 0 12 0 0 0 4833 4615 4 MP
PP
0 sg
-12 0 0 0 12 0 0 0 4833 4615 5 MP stroke
c9
0 0 12 0 0 0 4845 4615 4 MP
PP
0 sg
-12 0 0 0 12 0 0 0 4845 4615 5 MP stroke
c9
0 0 11 0 0 0 4857 4615 4 MP
PP
0 sg
-11 0 0 0 11 0 0 0 4857 4615 5 MP stroke
c9
0 0 12 0 0 0 4868 4615 4 MP
PP
0 sg
-12 0 0 0 12 0 0 0 4868 4615 5 MP stroke
c9
0 0 12 0 0 0 4880 4615 4 MP
PP
0 sg
-12 0 0 0 12 0 0 0 4880 4615 5 MP stroke
c9
0 23 12 0 0 -23 4892 4615 4 MP
PP
0 sg
-12 0 0 23 12 0 0 -23 4892 4615 5 MP stroke
c9
0 0 11 0 0 0 4904 4615 4 MP
PP
0 sg
-11 0 0 0 11 0 0 0 4904 4615 5 MP stroke
c9
0 0 12 0 0 0 4915 4615 4 MP
PP
0 sg
-12 0 0 0 12 0 0 0 4915 4615 5 MP stroke
c9
0 0 12 0 0 0 4927 4615 4 MP
PP
0 sg
-12 0 0 0 12 0 0 0 4927 4615 5 MP stroke
c9
0 0 11 0 0 0 4939 4615 4 MP
PP
0 sg
-11 0 0 0 11 0 0 0 4939 4615 5 MP stroke
c9
0 0 12 0 0 0 4950 4615 4 MP
PP
0 sg
-12 0 0 0 12 0 0 0 4950 4615 5 MP stroke
c9
0 0 12 0 0 0 4962 4615 4 MP
PP
0 sg
-12 0 0 0 12 0 0 0 4962 4615 5 MP stroke
c9
0 0 12 0 0 0 4974 4615 4 MP
PP
0 sg
-12 0 0 0 12 0 0 0 4974 4615 5 MP stroke
c9
0 0 11 0 0 0 4986 4615 4 MP
PP
0 sg
-11 0 0 0 11 0 0 0 4986 4615 5 MP stroke
c9
0 0 12 0 0 0 4997 4615 4 MP
PP
0 sg
-12 0 0 0 12 0 0 0 4997 4615 5 MP stroke
c9
0 0 12 0 0 0 5009 4615 4 MP
PP
0 sg
-12 0 0 0 12 0 0 0 5009 4615 5 MP stroke
c9
0 0 12 0 0 0 5021 4615 4 MP
PP
0 sg
-12 0 0 0 12 0 0 0 5021 4615 5 MP stroke
c9
0 0 11 0 0 0 5033 4615 4 MP
PP
0 sg
-11 0 0 0 11 0 0 0 5033 4615 5 MP stroke
c9
0 0 12 0 0 0 5044 4615 4 MP
PP
0 sg
-12 0 0 0 12 0 0 0 5044 4615 5 MP stroke
c9
0 0 12 0 0 0 5056 4615 4 MP
PP
0 sg
-12 0 0 0 12 0 0 0 5056 4615 5 MP stroke
c9
0 0 11 0 0 0 5068 4615 4 MP
PP
0 sg
-11 0 0 0 11 0 0 0 5068 4615 5 MP stroke
c9
0 0 12 0 0 0 5079 4615 4 MP
PP
0 sg
-12 0 0 0 12 0 0 0 5079 4615 5 MP stroke
c9
0 0 12 0 0 0 5091 4615 4 MP
PP
0 sg
-12 0 0 0 12 0 0 0 5091 4615 5 MP stroke
c9
0 0 12 0 0 0 5103 4615 4 MP
PP
0 sg
-12 0 0 0 12 0 0 0 5103 4615 5 MP stroke
c9
0 0 11 0 0 0 5115 4615 4 MP
PP
0 sg
-11 0 0 0 11 0 0 0 5115 4615 5 MP stroke
c9
0 0 12 0 0 0 5126 4615 4 MP
PP
0 sg
-12 0 0 0 12 0 0 0 5126 4615 5 MP stroke
c9
0 0 12 0 0 0 5138 4615 4 MP
PP
0 sg
-12 0 0 0 12 0 0 0 5138 4615 5 MP stroke
c9
0 0 12 0 0 0 5150 4615 4 MP
PP
0 sg
-12 0 0 0 12 0 0 0 5150 4615 5 MP stroke
c9
0 0 11 0 0 0 5162 4615 4 MP
PP
0 sg
-11 0 0 0 11 0 0 0 5162 4615 5 MP stroke
c9
0 0 12 0 0 0 5173 4615 4 MP
PP
0 sg
-12 0 0 0 12 0 0 0 5173 4615 5 MP stroke
c9
0 0 12 0 0 0 5185 4615 4 MP
PP
0 sg
-12 0 0 0 12 0 0 0 5185 4615 5 MP stroke
c9
0 0 12 0 0 0 5197 4615 4 MP
PP
0 sg
-12 0 0 0 12 0 0 0 5197 4615 5 MP stroke
c9
0 0 11 0 0 0 5209 4615 4 MP
PP
0 sg
-11 0 0 0 11 0 0 0 5209 4615 5 MP stroke
c9
0 0 12 0 0 0 5220 4615 4 MP
PP
0 sg
-12 0 0 0 12 0 0 0 5220 4615 5 MP stroke
c9
0 0 12 0 0 0 5232 4615 4 MP
PP
0 sg
-12 0 0 0 12 0 0 0 5232 4615 5 MP stroke
c9
0 0 11 0 0 0 5244 4615 4 MP
PP
0 sg
-11 0 0 0 11 0 0 0 5244 4615 5 MP stroke
c9
0 0 12 0 0 0 5255 4615 4 MP
PP
0 sg
-12 0 0 0 12 0 0 0 5255 4615 5 MP stroke
c9
0 0 12 0 0 0 5267 4615 4 MP
PP
0 sg
-12 0 0 0 12 0 0 0 5267 4615 5 MP stroke
c9
0 0 12 0 0 0 5279 4615 4 MP
PP
0 sg
-12 0 0 0 12 0 0 0 5279 4615 5 MP stroke
c9
0 0 11 0 0 0 5291 4615 4 MP
PP
0 sg
-11 0 0 0 11 0 0 0 5291 4615 5 MP stroke
c9
0 0 12 0 0 0 5302 4615 4 MP
PP
0 sg
-12 0 0 0 12 0 0 0 5302 4615 5 MP stroke
c9
0 0 12 0 0 0 5314 4615 4 MP
PP
0 sg
-12 0 0 0 12 0 0 0 5314 4615 5 MP stroke
c9
0 0 12 0 0 0 5326 4615 4 MP
PP
0 sg
-12 0 0 0 12 0 0 0 5326 4615 5 MP stroke
c9
0 0 11 0 0 0 5338 4615 4 MP
PP
0 sg
-11 0 0 0 11 0 0 0 5338 4615 5 MP stroke
c9
0 0 12 0 0 0 5349 4615 4 MP
PP
0 sg
-12 0 0 0 12 0 0 0 5349 4615 5 MP stroke
c9
0 0 12 0 0 0 5361 4615 4 MP
PP
0 sg
-12 0 0 0 12 0 0 0 5361 4615 5 MP stroke
c9
0 0 11 0 0 0 5373 4615 4 MP
PP
0 sg
-11 0 0 0 11 0 0 0 5373 4615 5 MP stroke
c9
0 0 12 0 0 0 5384 4615 4 MP
PP
0 sg
-12 0 0 0 12 0 0 0 5384 4615 5 MP stroke
c9
0 0 12 0 0 0 5396 4615 4 MP
PP
0 sg
-12 0 0 0 12 0 0 0 5396 4615 5 MP stroke
c9
0 0 12 0 0 0 5408 4615 4 MP
PP
0 sg
-12 0 0 0 12 0 0 0 5408 4615 5 MP stroke
c9
0 0 11 0 0 0 5420 4615 4 MP
PP
0 sg
-11 0 0 0 11 0 0 0 5420 4615 5 MP stroke
c9
0 0 12 0 0 0 5431 4615 4 MP
PP
0 sg
-12 0 0 0 12 0 0 0 5431 4615 5 MP stroke
c9
0 0 12 0 0 0 5443 4615 4 MP
PP
0 sg
-12 0 0 0 12 0 0 0 5443 4615 5 MP stroke
c9
0 0 12 0 0 0 5455 4615 4 MP
PP
0 sg
-12 0 0 0 12 0 0 0 5455 4615 5 MP stroke
c9
0 0 11 0 0 0 5467 4615 4 MP
PP
0 sg
-11 0 0 0 11 0 0 0 5467 4615 5 MP stroke
c9
0 0 12 0 0 0 5478 4615 4 MP
PP
0 sg
-12 0 0 0 12 0 0 0 5478 4615 5 MP stroke
c9
0 0 12 0 0 0 5490 4615 4 MP
PP
0 sg
-12 0 0 0 12 0 0 0 5490 4615 5 MP stroke
c9
0 0 11 0 0 0 5502 4615 4 MP
PP
0 sg
-11 0 0 0 11 0 0 0 5502 4615 5 MP stroke
c9
0 0 12 0 0 0 5513 4615 4 MP
PP
0 sg
-12 0 0 0 12 0 0 0 5513 4615 5 MP stroke
c9
0 0 12 0 0 0 5525 4615 4 MP
PP
0 sg
-12 0 0 0 12 0 0 0 5525 4615 5 MP stroke
c9
0 0 12 0 0 0 5537 4615 4 MP
PP
0 sg
-12 0 0 0 12 0 0 0 5537 4615 5 MP stroke
c9
0 0 11 0 0 0 5549 4615 4 MP
PP
0 sg
-11 0 0 0 11 0 0 0 5549 4615 5 MP stroke
c9
0 0 12 0 0 0 5560 4615 4 MP
PP
0 sg
-12 0 0 0 12 0 0 0 5560 4615 5 MP stroke
c9
0 0 12 0 0 0 5572 4615 4 MP
PP
0 sg
-12 0 0 0 12 0 0 0 5572 4615 5 MP stroke
c9
0 0 12 0 0 0 5584 4615 4 MP
PP
0 sg
-12 0 0 0 12 0 0 0 5584 4615 5 MP stroke
c9
0 0 11 0 0 0 5596 4615 4 MP
PP
0 sg
-11 0 0 0 11 0 0 0 5596 4615 5 MP stroke
c9
0 0 12 0 0 0 5607 4615 4 MP
PP
0 sg
-12 0 0 0 12 0 0 0 5607 4615 5 MP stroke
c9
0 0 12 0 0 0 5619 4615 4 MP
PP
0 sg
-12 0 0 0 12 0 0 0 5619 4615 5 MP stroke
c9
0 0 11 0 0 0 5631 4615 4 MP
PP
0 sg
-11 0 0 0 11 0 0 0 5631 4615 5 MP stroke
c9
0 0 12 0 0 0 5642 4615 4 MP
PP
0 sg
-12 0 0 0 12 0 0 0 5642 4615 5 MP stroke
c9
0 0 12 0 0 0 5654 4615 4 MP
PP
0 sg
-12 0 0 0 12 0 0 0 5654 4615 5 MP stroke
c9
0 0 12 0 0 0 5666 4615 4 MP
PP
0 sg
-12 0 0 0 12 0 0 0 5666 4615 5 MP stroke
c9
0 0 11 0 0 0 5678 4615 4 MP
PP
0 sg
-11 0 0 0 11 0 0 0 5678 4615 5 MP stroke
c9
0 23 12 0 0 -23 5689 4615 4 MP
PP
0 sg
-12 0 0 23 12 0 0 -23 5689 4615 5 MP stroke
4877 4903 mt 
(Time \(s\)) s
3692 3891 mt  -90 rotate
(Count) s
90 rotate
4996 2751 mt 
(n=5) s

end %%Color Dict

eplot
%%EndObject

epage
end

showpage

%%Trailer
%%EOF
