%!PS-Adobe-2.0 EPSF-1.2
%%Creator: MATLAB, The MathWorks, Inc. Version 8.2.0.701 (R2013b). Operating System: Linux 3.2.0-61-generic #92-Ubuntu SMP Mon Mar 31 23:47:59 UTC 2014 x86_64.
%%Title: ../graphs/dist_2.eps
%%CreationDate: 04/29/2014  20:05:03
%%DocumentNeededFonts: Helvetica
%%DocumentProcessColors: Cyan Magenta Yellow Black
%%Extensions: CMYK
%%Pages: 1
%%BoundingBox:    55   198   546   602
%%EndComments

%%BeginProlog
% MathWorks dictionary
/MathWorks 160 dict begin
% definition operators
/bdef {bind def} bind def
/ldef {load def} bind def
/xdef {exch def} bdef
/xstore {exch store} bdef
% operator abbreviations
/c  /clip ldef
/cc /concat ldef
/cp /closepath ldef
/gr /grestore ldef
/gs /gsave ldef
/mt /moveto ldef
/np /newpath ldef
/cm /currentmatrix ldef
/sm /setmatrix ldef
/rm /rmoveto ldef
/rl /rlineto ldef
/s {show newpath} bdef
/sc {setcmykcolor} bdef
/sr /setrgbcolor ldef
/sg /setgray ldef
/w /setlinewidth ldef
/j /setlinejoin ldef
/cap /setlinecap ldef
/rc {rectclip} bdef
/rf {rectfill} bdef
% page state control
/pgsv () def
/bpage {/pgsv save def} bdef
/epage {pgsv restore} bdef
/bplot /gsave ldef
/eplot {stroke grestore} bdef
% orientation switch
/portraitMode 0 def /landscapeMode 1 def /rotateMode 2 def
% coordinate system mappings
/dpi2point 0 def
% font control
/FontSize 0 def
/FMS {/FontSize xstore findfont [FontSize 0 0 FontSize neg 0 0]
  makefont setfont} bdef
/reencode {exch dup where {pop load} {pop StandardEncoding} ifelse
  exch dup 3 1 roll findfont dup length dict begin
  { 1 index /FID ne {def}{pop pop} ifelse } forall
  /Encoding exch def currentdict end definefont pop} bdef
/isroman {findfont /CharStrings get /Agrave known} bdef
/FMSR {3 1 roll 1 index dup isroman {reencode} {pop pop} ifelse
  exch FMS} bdef
/csm {1 dpi2point div -1 dpi2point div scale neg translate
 dup landscapeMode eq {pop -90 rotate}
  {rotateMode eq {90 rotate} if} ifelse} bdef
% line types: solid, dotted, dashed, dotdash
/SO { [] 0 setdash } bdef
/DO { [.5 dpi2point mul 4 dpi2point mul] 0 setdash } bdef
/DA { [6 dpi2point mul] 0 setdash } bdef
/DD { [.5 dpi2point mul 4 dpi2point mul 6 dpi2point mul 4
  dpi2point mul] 0 setdash } bdef
% macros for lines and objects
/L {lineto stroke} bdef
/MP {3 1 roll moveto 1 sub {rlineto} repeat} bdef
/AP {{rlineto} repeat} bdef
/PDlw -1 def
/W {/PDlw currentlinewidth def setlinewidth} def
/PP {closepath eofill} bdef
/DP {closepath stroke} bdef
/MR {4 -2 roll moveto dup  0 exch rlineto exch 0 rlineto
  neg 0 exch rlineto closepath} bdef
/FR {MR stroke} bdef
/PR {MR fill} bdef
/L1i {{currentfile picstr readhexstring pop} image} bdef
/tMatrix matrix def
/MakeOval {newpath tMatrix currentmatrix pop translate scale
0 0 1 0 360 arc tMatrix setmatrix} bdef
/FO {MakeOval stroke} bdef
/PO {MakeOval fill} bdef
/PD {currentlinewidth 2 div 0 360 arc fill
   PDlw -1 eq not {PDlw w /PDlw -1 def} if} def
/FA {newpath tMatrix currentmatrix pop translate scale
  0 0 1 5 -2 roll arc tMatrix setmatrix stroke} bdef
/PA {newpath tMatrix currentmatrix pop	translate 0 0 moveto scale
  0 0 1 5 -2 roll arc closepath tMatrix setmatrix fill} bdef
/FAn {newpath tMatrix currentmatrix pop translate scale
  0 0 1 5 -2 roll arcn tMatrix setmatrix stroke} bdef
/PAn {newpath tMatrix currentmatrix pop translate 0 0 moveto scale
  0 0 1 5 -2 roll arcn closepath tMatrix setmatrix fill} bdef
/vradius 0 def /hradius 0 def /lry 0 def
/lrx 0 def /uly 0 def /ulx 0 def /rad 0 def
/MRR {/vradius xdef /hradius xdef /lry xdef /lrx xdef /uly xdef
  /ulx xdef newpath tMatrix currentmatrix pop ulx hradius add uly
  vradius add translate hradius vradius scale 0 0 1 180 270 arc 
  tMatrix setmatrix lrx hradius sub uly vradius add translate
  hradius vradius scale 0 0 1 270 360 arc tMatrix setmatrix
  lrx hradius sub lry vradius sub translate hradius vradius scale
  0 0 1 0 90 arc tMatrix setmatrix ulx hradius add lry vradius sub
  translate hradius vradius scale 0 0 1 90 180 arc tMatrix setmatrix
  closepath} bdef
/FRR {MRR stroke } bdef
/PRR {MRR fill } bdef
/MlrRR {/lry xdef /lrx xdef /uly xdef /ulx xdef /rad lry uly sub 2 div def
  newpath tMatrix currentmatrix pop ulx rad add uly rad add translate
  rad rad scale 0 0 1 90 270 arc tMatrix setmatrix lrx rad sub lry rad
  sub translate rad rad scale 0 0 1 270 90 arc tMatrix setmatrix
  closepath} bdef
/FlrRR {MlrRR stroke } bdef
/PlrRR {MlrRR fill } bdef
/MtbRR {/lry xdef /lrx xdef /uly xdef /ulx xdef /rad lrx ulx sub 2 div def
  newpath tMatrix currentmatrix pop ulx rad add uly rad add translate
  rad rad scale 0 0 1 180 360 arc tMatrix setmatrix lrx rad sub lry rad
  sub translate rad rad scale 0 0 1 0 180 arc tMatrix setmatrix
  closepath} bdef
/FtbRR {MtbRR stroke } bdef
/PtbRR {MtbRR fill } bdef
/stri 6 array def /dtri 6 array def
/smat 6 array def /dmat 6 array def
/tmat1 6 array def /tmat2 6 array def /dif 3 array def
/asub {/ind2 exch def /ind1 exch def dup dup
  ind1 get exch ind2 get sub exch } bdef
/tri_to_matrix {
  2 0 asub 3 1 asub 4 0 asub 5 1 asub
  dup 0 get exch 1 get 7 -1 roll astore } bdef
/compute_transform {
  dmat dtri tri_to_matrix tmat1 invertmatrix 
  smat stri tri_to_matrix tmat2 concatmatrix } bdef
/ds {stri astore pop} bdef
/dt {dtri astore pop} bdef
/db {2 copy /cols xdef /rows xdef mul dup 3 mul string
  currentfile exch readhexstring pop
  dup 0 3 index getinterval /rbmap xdef
  dup 2 index dup getinterval /gbmap xdef
  1 index dup 2 mul exch getinterval /bbmap xdef pop pop}bdef
/it {gs np dtri aload pop moveto lineto lineto cp c
  cols rows 8 compute_transform 
  rbmap gbmap bbmap true 3 colorimage gr}bdef
/il {newpath moveto lineto stroke}bdef
currentdict end def
%%EndProlog

%%BeginSetup
MathWorks begin

0 cap

end
%%EndSetup

%%Page: 1 1
%%BeginPageSetup
%%PageBoundingBox:    55   198   546   602
MathWorks begin
bpage
%%EndPageSetup

%%BeginObject: obj1
bplot

/dpi2point 12 def
portraitMode 0216 7344 csm

  446   110  5891  4853 MR c np
76 dict begin %Colortable dictionary
/c0 { 0.000000 0.000000 0.000000 sr} bdef
/c1 { 1.000000 1.000000 1.000000 sr} bdef
/c2 { 0.900000 0.000000 0.000000 sr} bdef
/c3 { 0.000000 0.820000 0.000000 sr} bdef
/c4 { 0.000000 0.000000 0.800000 sr} bdef
/c5 { 0.910000 0.820000 0.320000 sr} bdef
/c6 { 1.000000 0.260000 0.820000 sr} bdef
/c7 { 0.000000 0.820000 0.820000 sr} bdef
c0
1 j
1 sg
   0    0 6913 5186 PR
6 w
0 1769 2313 0 0 -1769 899 2158 4 MP
PP
-2313 0 0 1769 2313 0 0 -1769 899 2158 5 MP stroke
4 w
DO
SO
6 w
0 sg
 899 2158 mt 3212 2158 L
 899  389 mt 3212  389 L
 899 2158 mt  899  389 L
3212 2158 mt 3212  389 L
 899 2158 mt 3212 2158 L
 899 2158 mt  899  389 L
 899 2158 mt  899 2134 L
 899  389 mt  899  412 L
%%IncludeResource: font Helvetica
/Helvetica /ISOLatin1Encoding 120 FMSR

 866 2303 mt 
(0) s
1361 2158 mt 1361 2134 L
1361  389 mt 1361  412 L
1245 2303 mt 
(0.01) s
1824 2158 mt 1824 2134 L
1824  389 mt 1824  412 L
1708 2303 mt 
(0.02) s
2286 2158 mt 2286 2134 L
2286  389 mt 2286  412 L
2170 2303 mt 
(0.03) s
2749 2158 mt 2749 2134 L
2749  389 mt 2749  412 L
2633 2303 mt 
(0.04) s
3212 2158 mt 3212 2134 L
3212  389 mt 3212  412 L
3096 2303 mt 
(0.05) s
 899 2158 mt  922 2158 L
3212 2158 mt 3188 2158 L
 798 2202 mt 
(0) s
 899 1715 mt  922 1715 L
3212 1715 mt 3188 1715 L
 798 1759 mt 
(5) s
 899 1273 mt  922 1273 L
3212 1273 mt 3188 1273 L
 731 1317 mt 
(10) s
 899  831 mt  922  831 L
3212  831 mt 3188  831 L
 731  875 mt 
(15) s
 899  389 mt  922  389 L
3212  389 mt 3188  389 L
 731  433 mt 
(20) s
 899 2158 mt 3212 2158 L
 899  389 mt 3212  389 L
 899 2158 mt  899  389 L
3212 2158 mt 3212  389 L
24 w
/c8 { 1.000000 0.000000 0.000000 sr} bdef
c8
0 -1769 1500 2158 2 MP stroke
/c9 { 0.000000 0.000000 0.562500 sr} bdef
c9
0 354 10 0 0 -354 1315 2158 4 MP
PP
6 w
0 sg
-10 0 0 354 10 0 0 -354 1315 2158 5 MP stroke
c9
0 0 10 0 0 0 1325 2158 4 MP
PP
0 sg
-10 0 0 0 10 0 0 0 1325 2158 5 MP stroke
c9
0 0 9 0 0 0 1335 2158 4 MP
PP
0 sg
-9 0 0 0 9 0 0 0 1335 2158 5 MP stroke
c9
0 0 10 0 0 0 1344 2158 4 MP
PP
0 sg
-10 0 0 0 10 0 0 0 1344 2158 5 MP stroke
c9
0 1504 10 0 0 -1504 1354 2158 4 MP
PP
0 sg
-10 0 0 1504 10 0 0 -1504 1354 2158 5 MP stroke
c9
0 0 10 0 0 0 1364 2158 4 MP
PP
0 sg
-10 0 0 0 10 0 0 0 1364 2158 5 MP stroke
c9
0 0 10 0 0 0 1374 2158 4 MP
PP
0 sg
-10 0 0 0 10 0 0 0 1374 2158 5 MP stroke
c9
0 0 10 0 0 0 1384 2158 4 MP
PP
0 sg
-10 0 0 0 10 0 0 0 1384 2158 5 MP stroke
c9
0 0 10 0 0 0 1394 2158 4 MP
PP
0 sg
-10 0 0 0 10 0 0 0 1394 2158 5 MP stroke
c9
0 1062 10 0 0 -1062 1404 2158 4 MP
PP
0 sg
-10 0 0 1062 10 0 0 -1062 1404 2158 5 MP stroke
c9
0 0 9 0 0 0 1414 2158 4 MP
PP
0 sg
-9 0 0 0 9 0 0 0 1414 2158 5 MP stroke
c9
0 0 10 0 0 0 1423 2158 4 MP
PP
0 sg
-10 0 0 0 10 0 0 0 1423 2158 5 MP stroke
c9
0 0 10 0 0 0 1433 2158 4 MP
PP
0 sg
-10 0 0 0 10 0 0 0 1433 2158 5 MP stroke
c9
0 0 10 0 0 0 1443 2158 4 MP
PP
0 sg
-10 0 0 0 10 0 0 0 1443 2158 5 MP stroke
c9
0 973 10 0 0 -973 1453 2158 4 MP
PP
0 sg
-10 0 0 973 10 0 0 -973 1453 2158 5 MP stroke
c9
0 0 10 0 0 0 1463 2158 4 MP
PP
0 sg
-10 0 0 0 10 0 0 0 1463 2158 5 MP stroke
c9
0 0 10 0 0 0 1473 2158 4 MP
PP
0 sg
-10 0 0 0 10 0 0 0 1473 2158 5 MP stroke
c9
0 0 9 0 0 0 1483 2158 4 MP
PP
0 sg
-9 0 0 0 9 0 0 0 1483 2158 5 MP stroke
c9
0 1150 10 0 0 -1150 1492 2158 4 MP
PP
0 sg
-10 0 0 1150 10 0 0 -1150 1492 2158 5 MP stroke
c9
0 0 10 0 0 0 1502 2158 4 MP
PP
0 sg
-10 0 0 0 10 0 0 0 1502 2158 5 MP stroke
c9
0 0 10 0 0 0 1512 2158 4 MP
PP
0 sg
-10 0 0 0 10 0 0 0 1512 2158 5 MP stroke
c9
0 0 10 0 0 0 1522 2158 4 MP
PP
0 sg
-10 0 0 0 10 0 0 0 1522 2158 5 MP stroke
c9
0 0 10 0 0 0 1532 2158 4 MP
PP
0 sg
-10 0 0 0 10 0 0 0 1532 2158 5 MP stroke
c9
0 973 10 0 0 -973 1542 2158 4 MP
PP
0 sg
-10 0 0 973 10 0 0 -973 1542 2158 5 MP stroke
c9
0 0 10 0 0 0 1552 2158 4 MP
PP
0 sg
-10 0 0 0 10 0 0 0 1552 2158 5 MP stroke
c9
0 0 9 0 0 0 1562 2158 4 MP
PP
0 sg
-9 0 0 0 9 0 0 0 1562 2158 5 MP stroke
c9
0 0 10 0 0 0 1571 2158 4 MP
PP
0 sg
-10 0 0 0 10 0 0 0 1571 2158 5 MP stroke
c9
0 0 10 0 0 0 1581 2158 4 MP
PP
0 sg
-10 0 0 0 10 0 0 0 1581 2158 5 MP stroke
c9
0 354 10 0 0 -354 1591 2158 4 MP
PP
0 sg
-10 0 0 354 10 0 0 -354 1591 2158 5 MP stroke
c9
0 0 10 0 0 0 1601 2158 4 MP
PP
0 sg
-10 0 0 0 10 0 0 0 1601 2158 5 MP stroke
c9
0 0 10 0 0 0 1611 2158 4 MP
PP
0 sg
-10 0 0 0 10 0 0 0 1611 2158 5 MP stroke
c9
0 0 10 0 0 0 1621 2158 4 MP
PP
0 sg
-10 0 0 0 10 0 0 0 1621 2158 5 MP stroke
c9
0 266 10 0 0 -266 1631 2158 4 MP
PP
0 sg
-10 0 0 266 10 0 0 -266 1631 2158 5 MP stroke
c9
0 0 9 0 0 0 1641 2158 4 MP
PP
0 sg
-9 0 0 0 9 0 0 0 1641 2158 5 MP stroke
c9
0 0 10 0 0 0 1650 2158 4 MP
PP
0 sg
-10 0 0 0 10 0 0 0 1650 2158 5 MP stroke
c9
0 0 10 0 0 0 1660 2158 4 MP
PP
0 sg
-10 0 0 0 10 0 0 0 1660 2158 5 MP stroke
c9
0 0 10 0 0 0 1670 2158 4 MP
PP
0 sg
-10 0 0 0 10 0 0 0 1670 2158 5 MP stroke
c9
0 89 10 0 0 -89 1680 2158 4 MP
PP
0 sg
-10 0 0 89 10 0 0 -89 1680 2158 5 MP stroke
c9
0 0 10 0 0 0 1690 2158 4 MP
PP
0 sg
-10 0 0 0 10 0 0 0 1690 2158 5 MP stroke
c9
0 0 10 0 0 0 1700 2158 4 MP
PP
0 sg
-10 0 0 0 10 0 0 0 1700 2158 5 MP stroke
c9
0 0 9 0 0 0 1710 2158 4 MP
PP
0 sg
-9 0 0 0 9 0 0 0 1710 2158 5 MP stroke
c9
0 0 10 0 0 0 1719 2158 4 MP
PP
0 sg
-10 0 0 0 10 0 0 0 1719 2158 5 MP stroke
c9
0 354 10 0 0 -354 1729 2158 4 MP
PP
0 sg
-10 0 0 354 10 0 0 -354 1729 2158 5 MP stroke
c9
0 0 10 0 0 0 1739 2158 4 MP
PP
0 sg
-10 0 0 0 10 0 0 0 1739 2158 5 MP stroke
c9
0 0 10 0 0 0 1749 2158 4 MP
PP
0 sg
-10 0 0 0 10 0 0 0 1749 2158 5 MP stroke
c9
0 0 10 0 0 0 1759 2158 4 MP
PP
0 sg
-10 0 0 0 10 0 0 0 1759 2158 5 MP stroke
c9
0 354 10 0 0 -354 1769 2158 4 MP
PP
0 sg
-10 0 0 354 10 0 0 -354 1769 2158 5 MP stroke
c9
0 0 10 0 0 0 1779 2158 4 MP
PP
0 sg
-10 0 0 0 10 0 0 0 1779 2158 5 MP stroke
c9
0 0 9 0 0 0 1789 2158 4 MP
PP
0 sg
-9 0 0 0 9 0 0 0 1789 2158 5 MP stroke
c9
0 0 10 0 0 0 1798 2158 4 MP
PP
0 sg
-10 0 0 0 10 0 0 0 1798 2158 5 MP stroke
c9
0 0 10 0 0 0 1808 2158 4 MP
PP
0 sg
-10 0 0 0 10 0 0 0 1808 2158 5 MP stroke
c9
0 0 10 0 0 0 1818 2158 4 MP
PP
0 sg
-10 0 0 0 10 0 0 0 1818 2158 5 MP stroke
c9
0 0 10 0 0 0 1828 2158 4 MP
PP
0 sg
-10 0 0 0 10 0 0 0 1828 2158 5 MP stroke
c9
0 0 10 0 0 0 1838 2158 4 MP
PP
0 sg
-10 0 0 0 10 0 0 0 1838 2158 5 MP stroke
c9
0 0 10 0 0 0 1848 2158 4 MP
PP
0 sg
-10 0 0 0 10 0 0 0 1848 2158 5 MP stroke
c9
0 0 9 0 0 0 1858 2158 4 MP
PP
0 sg
-9 0 0 0 9 0 0 0 1858 2158 5 MP stroke
c9
0 443 10 0 0 -443 1867 2158 4 MP
PP
0 sg
-10 0 0 443 10 0 0 -443 1867 2158 5 MP stroke
c9
0 0 10 0 0 0 1877 2158 4 MP
PP
0 sg
-10 0 0 0 10 0 0 0 1877 2158 5 MP stroke
c9
0 0 10 0 0 0 1887 2158 4 MP
PP
0 sg
-10 0 0 0 10 0 0 0 1887 2158 5 MP stroke
c9
0 0 10 0 0 0 1897 2158 4 MP
PP
0 sg
-10 0 0 0 10 0 0 0 1897 2158 5 MP stroke
c9
0 0 10 0 0 0 1907 2158 4 MP
PP
0 sg
-10 0 0 0 10 0 0 0 1907 2158 5 MP stroke
c9
0 0 10 0 0 0 1917 2158 4 MP
PP
0 sg
-10 0 0 0 10 0 0 0 1917 2158 5 MP stroke
c9
0 0 10 0 0 0 1927 2158 4 MP
PP
0 sg
-10 0 0 0 10 0 0 0 1927 2158 5 MP stroke
c9
0 0 9 0 0 0 1937 2158 4 MP
PP
0 sg
-9 0 0 0 9 0 0 0 1937 2158 5 MP stroke
c9
0 0 10 0 0 0 1946 2158 4 MP
PP
0 sg
-10 0 0 0 10 0 0 0 1946 2158 5 MP stroke
c9
0 89 10 0 0 -89 1956 2158 4 MP
PP
0 sg
-10 0 0 89 10 0 0 -89 1956 2158 5 MP stroke
c9
0 0 10 0 0 0 1966 2158 4 MP
PP
0 sg
-10 0 0 0 10 0 0 0 1966 2158 5 MP stroke
c9
0 0 10 0 0 0 1976 2158 4 MP
PP
0 sg
-10 0 0 0 10 0 0 0 1976 2158 5 MP stroke
c9
0 0 10 0 0 0 1986 2158 4 MP
PP
0 sg
-10 0 0 0 10 0 0 0 1986 2158 5 MP stroke
c9
0 0 10 0 0 0 1996 2158 4 MP
PP
0 sg
-10 0 0 0 10 0 0 0 1996 2158 5 MP stroke
c9
0 89 10 0 0 -89 2006 2158 4 MP
PP
0 sg
-10 0 0 89 10 0 0 -89 2006 2158 5 MP stroke
c9
0 0 9 0 0 0 2016 2158 4 MP
PP
0 sg
-9 0 0 0 9 0 0 0 2016 2158 5 MP stroke
c9
0 0 10 0 0 0 2025 2158 4 MP
PP
0 sg
-10 0 0 0 10 0 0 0 2025 2158 5 MP stroke
c9
0 0 10 0 0 0 2035 2158 4 MP
PP
0 sg
-10 0 0 0 10 0 0 0 2035 2158 5 MP stroke
c9
0 89 10 0 0 -89 2045 2158 4 MP
PP
0 sg
-10 0 0 89 10 0 0 -89 2045 2158 5 MP stroke
c9
0 0 10 0 0 0 2055 2158 4 MP
PP
0 sg
-10 0 0 0 10 0 0 0 2055 2158 5 MP stroke
c9
0 0 10 0 0 0 2065 2158 4 MP
PP
0 sg
-10 0 0 0 10 0 0 0 2065 2158 5 MP stroke
c9
0 0 10 0 0 0 2075 2158 4 MP
PP
0 sg
-10 0 0 0 10 0 0 0 2075 2158 5 MP stroke
c9
0 0 9 0 0 0 2085 2158 4 MP
PP
0 sg
-9 0 0 0 9 0 0 0 2085 2158 5 MP stroke
c9
0 89 10 0 0 -89 2094 2158 4 MP
PP
0 sg
-10 0 0 89 10 0 0 -89 2094 2158 5 MP stroke
c9
0 0 10 0 0 0 2104 2158 4 MP
PP
0 sg
-10 0 0 0 10 0 0 0 2104 2158 5 MP stroke
c9
0 0 10 0 0 0 2114 2158 4 MP
PP
0 sg
-10 0 0 0 10 0 0 0 2114 2158 5 MP stroke
c9
0 0 10 0 0 0 2124 2158 4 MP
PP
0 sg
-10 0 0 0 10 0 0 0 2124 2158 5 MP stroke
c9
0 0 10 0 0 0 2134 2158 4 MP
PP
0 sg
-10 0 0 0 10 0 0 0 2134 2158 5 MP stroke
c9
0 0 10 0 0 0 2144 2158 4 MP
PP
0 sg
-10 0 0 0 10 0 0 0 2144 2158 5 MP stroke
c9
0 0 10 0 0 0 2154 2158 4 MP
PP
0 sg
-10 0 0 0 10 0 0 0 2154 2158 5 MP stroke
c9
0 0 9 0 0 0 2164 2158 4 MP
PP
0 sg
-9 0 0 0 9 0 0 0 2164 2158 5 MP stroke
c9
0 0 10 0 0 0 2173 2158 4 MP
PP
0 sg
-10 0 0 0 10 0 0 0 2173 2158 5 MP stroke
c9
0 0 10 0 0 0 2183 2158 4 MP
PP
0 sg
-10 0 0 0 10 0 0 0 2183 2158 5 MP stroke
c9
0 0 10 0 0 0 2193 2158 4 MP
PP
0 sg
-10 0 0 0 10 0 0 0 2193 2158 5 MP stroke
c9
0 0 10 0 0 0 2203 2158 4 MP
PP
0 sg
-10 0 0 0 10 0 0 0 2203 2158 5 MP stroke
c9
0 0 10 0 0 0 2213 2158 4 MP
PP
0 sg
-10 0 0 0 10 0 0 0 2213 2158 5 MP stroke
c9
0 0 10 0 0 0 2223 2158 4 MP
PP
0 sg
-10 0 0 0 10 0 0 0 2223 2158 5 MP stroke
c9
0 89 10 0 0 -89 2233 2158 4 MP
PP
0 sg
-10 0 0 89 10 0 0 -89 2233 2158 5 MP stroke
c9
0 0 9 0 0 0 2243 2158 4 MP
PP
0 sg
-9 0 0 0 9 0 0 0 2243 2158 5 MP stroke
c9
0 0 10 0 0 0 2252 2158 4 MP
PP
0 sg
-10 0 0 0 10 0 0 0 2252 2158 5 MP stroke
c9
0 0 10 0 0 0 2262 2158 4 MP
PP
0 sg
-10 0 0 0 10 0 0 0 2262 2158 5 MP stroke
c9
0 0 10 0 0 0 2272 2158 4 MP
PP
0 sg
-10 0 0 0 10 0 0 0 2272 2158 5 MP stroke
c9
0 0 10 0 0 0 2282 2158 4 MP
PP
0 sg
-10 0 0 0 10 0 0 0 2282 2158 5 MP stroke
c9
0 0 10 0 0 0 2292 2158 4 MP
PP
0 sg
-10 0 0 0 10 0 0 0 2292 2158 5 MP stroke
c9
0 0 10 0 0 0 2302 2158 4 MP
PP
0 sg
-10 0 0 0 10 0 0 0 2302 2158 5 MP stroke
c9
0 0 9 0 0 0 2312 2158 4 MP
PP
0 sg
-9 0 0 0 9 0 0 0 2312 2158 5 MP stroke
c9
0 0 10 0 0 0 2321 2158 4 MP
PP
0 sg
-10 0 0 0 10 0 0 0 2321 2158 5 MP stroke
c9
0 0 10 0 0 0 2331 2158 4 MP
PP
0 sg
-10 0 0 0 10 0 0 0 2331 2158 5 MP stroke
c9
0 0 10 0 0 0 2341 2158 4 MP
PP
0 sg
-10 0 0 0 10 0 0 0 2341 2158 5 MP stroke
c9
0 0 10 0 0 0 2351 2158 4 MP
PP
0 sg
-10 0 0 0 10 0 0 0 2351 2158 5 MP stroke
c9
0 0 10 0 0 0 2361 2158 4 MP
PP
0 sg
-10 0 0 0 10 0 0 0 2361 2158 5 MP stroke
c9
0 0 10 0 0 0 2371 2158 4 MP
PP
0 sg
-10 0 0 0 10 0 0 0 2371 2158 5 MP stroke
c9
0 0 10 0 0 0 2381 2158 4 MP
PP
0 sg
-10 0 0 0 10 0 0 0 2381 2158 5 MP stroke
c9
0 0 9 0 0 0 2391 2158 4 MP
PP
0 sg
-9 0 0 0 9 0 0 0 2391 2158 5 MP stroke
c9
0 0 10 0 0 0 2400 2158 4 MP
PP
0 sg
-10 0 0 0 10 0 0 0 2400 2158 5 MP stroke
c9
0 0 10 0 0 0 2410 2158 4 MP
PP
0 sg
-10 0 0 0 10 0 0 0 2410 2158 5 MP stroke
c9
0 0 10 0 0 0 2420 2158 4 MP
PP
0 sg
-10 0 0 0 10 0 0 0 2420 2158 5 MP stroke
c9
0 0 10 0 0 0 2430 2158 4 MP
PP
0 sg
-10 0 0 0 10 0 0 0 2430 2158 5 MP stroke
c9
0 0 10 0 0 0 2440 2158 4 MP
PP
0 sg
-10 0 0 0 10 0 0 0 2440 2158 5 MP stroke
c9
0 0 10 0 0 0 2450 2158 4 MP
PP
0 sg
-10 0 0 0 10 0 0 0 2450 2158 5 MP stroke
c9
0 0 9 0 0 0 2460 2158 4 MP
PP
0 sg
-9 0 0 0 9 0 0 0 2460 2158 5 MP stroke
c9
0 89 10 0 0 -89 2469 2158 4 MP
PP
0 sg
-10 0 0 89 10 0 0 -89 2469 2158 5 MP stroke
c9
0 0 10 0 0 0 2479 2158 4 MP
PP
0 sg
-10 0 0 0 10 0 0 0 2479 2158 5 MP stroke
c9
0 0 10 0 0 0 2489 2158 4 MP
PP
0 sg
-10 0 0 0 10 0 0 0 2489 2158 5 MP stroke
c9
0 0 10 0 0 0 2499 2158 4 MP
PP
0 sg
-10 0 0 0 10 0 0 0 2499 2158 5 MP stroke
c9
0 89 10 0 0 -89 2509 2158 4 MP
PP
0 sg
-10 0 0 89 10 0 0 -89 2509 2158 5 MP stroke
c9
0 0 10 0 0 0 2519 2158 4 MP
PP
0 sg
-10 0 0 0 10 0 0 0 2519 2158 5 MP stroke
c9
0 0 10 0 0 0 2529 2158 4 MP
PP
0 sg
-10 0 0 0 10 0 0 0 2529 2158 5 MP stroke
c9
0 0 9 0 0 0 2539 2158 4 MP
PP
0 sg
-9 0 0 0 9 0 0 0 2539 2158 5 MP stroke
c9
0 0 10 0 0 0 2548 2158 4 MP
PP
0 sg
-10 0 0 0 10 0 0 0 2548 2158 5 MP stroke
c9
0 0 10 0 0 0 2558 2158 4 MP
PP
0 sg
-10 0 0 0 10 0 0 0 2558 2158 5 MP stroke
c9
0 0 10 0 0 0 2568 2158 4 MP
PP
0 sg
-10 0 0 0 10 0 0 0 2568 2158 5 MP stroke
c9
0 0 10 0 0 0 2578 2158 4 MP
PP
0 sg
-10 0 0 0 10 0 0 0 2578 2158 5 MP stroke
c9
0 0 10 0 0 0 2588 2158 4 MP
PP
0 sg
-10 0 0 0 10 0 0 0 2588 2158 5 MP stroke
c9
0 0 10 0 0 0 2598 2158 4 MP
PP
0 sg
-10 0 0 0 10 0 0 0 2598 2158 5 MP stroke
c9
0 0 10 0 0 0 2608 2158 4 MP
PP
0 sg
-10 0 0 0 10 0 0 0 2608 2158 5 MP stroke
c9
0 0 9 0 0 0 2618 2158 4 MP
PP
0 sg
-9 0 0 0 9 0 0 0 2618 2158 5 MP stroke
c9
0 0 10 0 0 0 2627 2158 4 MP
PP
0 sg
-10 0 0 0 10 0 0 0 2627 2158 5 MP stroke
c9
0 0 10 0 0 0 2637 2158 4 MP
PP
0 sg
-10 0 0 0 10 0 0 0 2637 2158 5 MP stroke
c9
0 0 10 0 0 0 2647 2158 4 MP
PP
0 sg
-10 0 0 0 10 0 0 0 2647 2158 5 MP stroke
c9
0 0 10 0 0 0 2657 2158 4 MP
PP
0 sg
-10 0 0 0 10 0 0 0 2657 2158 5 MP stroke
c9
0 0 10 0 0 0 2667 2158 4 MP
PP
0 sg
-10 0 0 0 10 0 0 0 2667 2158 5 MP stroke
c9
0 0 10 0 0 0 2677 2158 4 MP
PP
0 sg
-10 0 0 0 10 0 0 0 2677 2158 5 MP stroke
c9
0 0 9 0 0 0 2687 2158 4 MP
PP
0 sg
-9 0 0 0 9 0 0 0 2687 2158 5 MP stroke
c9
0 0 10 0 0 0 2696 2158 4 MP
PP
0 sg
-10 0 0 0 10 0 0 0 2696 2158 5 MP stroke
c9
0 0 10 0 0 0 2706 2158 4 MP
PP
0 sg
-10 0 0 0 10 0 0 0 2706 2158 5 MP stroke
c9
0 0 10 0 0 0 2716 2158 4 MP
PP
0 sg
-10 0 0 0 10 0 0 0 2716 2158 5 MP stroke
c9
0 0 10 0 0 0 2726 2158 4 MP
PP
0 sg
-10 0 0 0 10 0 0 0 2726 2158 5 MP stroke
c9
0 0 10 0 0 0 2736 2158 4 MP
PP
0 sg
-10 0 0 0 10 0 0 0 2736 2158 5 MP stroke
c9
0 266 10 0 0 -266 2746 2158 4 MP
PP
0 sg
-10 0 0 266 10 0 0 -266 2746 2158 5 MP stroke
c9
0 0 10 0 0 0 2756 2158 4 MP
PP
0 sg
-10 0 0 0 10 0 0 0 2756 2158 5 MP stroke
c9
0 0 9 0 0 0 2766 2158 4 MP
PP
0 sg
-9 0 0 0 9 0 0 0 2766 2158 5 MP stroke
c9
0 0 10 0 0 0 2775 2158 4 MP
PP
0 sg
-10 0 0 0 10 0 0 0 2775 2158 5 MP stroke
c9
0 177 10 0 0 -177 2785 2158 4 MP
PP
0 sg
-10 0 0 177 10 0 0 -177 2785 2158 5 MP stroke
1834 2446 mt 
(Time \(s\)) s
 649 1434 mt  -90 rotate
(Count) s
90 rotate
1953  294 mt 
(n=2) s
1 sg
0 1769 2313 0 0 -1769 3942 2158 4 MP
PP
-2313 0 0 1769 2313 0 0 -1769 3942 2158 5 MP stroke
4 w
DO
SO
6 w
0 sg
3942 2158 mt 6255 2158 L
3942  389 mt 6255  389 L
3942 2158 mt 3942  389 L
6255 2158 mt 6255  389 L
3942 2158 mt 6255 2158 L
3942 2158 mt 3942  389 L
3942 2158 mt 3942 2134 L
3942  389 mt 3942  412 L
3909 2303 mt 
(0) s
4713 2158 mt 4713 2134 L
4713  389 mt 4713  412 L
4680 2303 mt 
(2) s
5484 2158 mt 5484 2134 L
5484  389 mt 5484  412 L
5451 2303 mt 
(4) s
6255 2158 mt 6255 2134 L
6255  389 mt 6255  412 L
6222 2303 mt 
(6) s
3942 2158 mt 3965 2158 L
6255 2158 mt 6231 2158 L
3841 2202 mt 
(0) s
3942 1863 mt 3965 1863 L
6255 1863 mt 6231 1863 L
3841 1907 mt 
(2) s
3942 1568 mt 3965 1568 L
6255 1568 mt 6231 1568 L
3841 1612 mt 
(4) s
3942 1273 mt 3965 1273 L
6255 1273 mt 6231 1273 L
3841 1317 mt 
(6) s
3942  978 mt 3965  978 L
6255  978 mt 6231  978 L
3841 1022 mt 
(8) s
3942  683 mt 3965  683 L
6255  683 mt 6231  683 L
3774  727 mt 
(10) s
3942  389 mt 3965  389 L
6255  389 mt 6231  389 L
3774  433 mt 
(12) s
3942 2158 mt 6255 2158 L
3942  389 mt 6255  389 L
3942 2158 mt 3942  389 L
6255 2158 mt 6255  389 L
24 w
c8
0 -1769 4160 2158 2 MP stroke
c9
0 1180 14 0 0 -1180 4035 2158 4 MP
PP
6 w
0 sg
-14 0 0 1180 14 0 0 -1180 4035 2158 5 MP stroke
c9
0 738 14 0 0 -738 4049 2158 4 MP
PP
0 sg
-14 0 0 738 14 0 0 -738 4049 2158 5 MP stroke
c9
0 590 14 0 0 -590 4063 2158 4 MP
PP
0 sg
-14 0 0 590 14 0 0 -590 4063 2158 5 MP stroke
c9
0 1622 14 0 0 -1622 4077 2158 4 MP
PP
0 sg
-14 0 0 1622 14 0 0 -1622 4077 2158 5 MP stroke
c9
0 1327 14 0 0 -1327 4091 2158 4 MP
PP
0 sg
-14 0 0 1327 14 0 0 -1327 4091 2158 5 MP stroke
c9
0 295 13 0 0 -295 4105 2158 4 MP
PP
0 sg
-13 0 0 295 13 0 0 -295 4105 2158 5 MP stroke
c9
0 590 14 0 0 -590 4118 2158 4 MP
PP
0 sg
-14 0 0 590 14 0 0 -590 4118 2158 5 MP stroke
c9
0 738 14 0 0 -738 4132 2158 4 MP
PP
0 sg
-14 0 0 738 14 0 0 -738 4132 2158 5 MP stroke
c9
0 295 14 0 0 -295 4146 2158 4 MP
PP
0 sg
-14 0 0 295 14 0 0 -295 4146 2158 5 MP stroke
c9
0 1032 14 0 0 -1032 4160 2158 4 MP
PP
0 sg
-14 0 0 1032 14 0 0 -1032 4160 2158 5 MP stroke
c9
0 1032 14 0 0 -1032 4174 2158 4 MP
PP
0 sg
-14 0 0 1032 14 0 0 -1032 4174 2158 5 MP stroke
c9
0 295 14 0 0 -295 4188 2158 4 MP
PP
0 sg
-14 0 0 295 14 0 0 -295 4188 2158 5 MP stroke
c9
0 443 13 0 0 -443 4202 2158 4 MP
PP
0 sg
-13 0 0 443 13 0 0 -443 4202 2158 5 MP stroke
c9
0 0 14 0 0 0 4215 2158 4 MP
PP
0 sg
-14 0 0 0 14 0 0 0 4215 2158 5 MP stroke
c9
0 590 14 0 0 -590 4229 2158 4 MP
PP
0 sg
-14 0 0 590 14 0 0 -590 4229 2158 5 MP stroke
c9
0 443 14 0 0 -443 4243 2158 4 MP
PP
0 sg
-14 0 0 443 14 0 0 -443 4243 2158 5 MP stroke
c9
0 148 14 0 0 -148 4257 2158 4 MP
PP
0 sg
-14 0 0 148 14 0 0 -148 4257 2158 5 MP stroke
c9
0 295 14 0 0 -295 4271 2158 4 MP
PP
0 sg
-14 0 0 295 14 0 0 -295 4271 2158 5 MP stroke
c9
0 0 14 0 0 0 4285 2158 4 MP
PP
0 sg
-14 0 0 0 14 0 0 0 4285 2158 5 MP stroke
c9
0 295 14 0 0 -295 4299 2158 4 MP
PP
0 sg
-14 0 0 295 14 0 0 -295 4299 2158 5 MP stroke
c9
0 443 13 0 0 -443 4313 2158 4 MP
PP
0 sg
-13 0 0 443 13 0 0 -443 4313 2158 5 MP stroke
c9
0 0 14 0 0 0 4326 2158 4 MP
PP
0 sg
-14 0 0 0 14 0 0 0 4326 2158 5 MP stroke
c9
0 0 14 0 0 0 4340 2158 4 MP
PP
0 sg
-14 0 0 0 14 0 0 0 4340 2158 5 MP stroke
c9
0 0 14 0 0 0 4354 2158 4 MP
PP
0 sg
-14 0 0 0 14 0 0 0 4354 2158 5 MP stroke
c9
0 443 14 0 0 -443 4368 2158 4 MP
PP
0 sg
-14 0 0 443 14 0 0 -443 4368 2158 5 MP stroke
c9
0 0 14 0 0 0 4382 2158 4 MP
PP
0 sg
-14 0 0 0 14 0 0 0 4382 2158 5 MP stroke
c9
0 148 14 0 0 -148 4396 2158 4 MP
PP
0 sg
-14 0 0 148 14 0 0 -148 4396 2158 5 MP stroke
c9
0 0 14 0 0 0 4410 2158 4 MP
PP
0 sg
-14 0 0 0 14 0 0 0 4410 2158 5 MP stroke
c9
0 0 13 0 0 0 4424 2158 4 MP
PP
0 sg
-13 0 0 0 13 0 0 0 4424 2158 5 MP stroke
c9
0 148 14 0 0 -148 4437 2158 4 MP
PP
0 sg
-14 0 0 148 14 0 0 -148 4437 2158 5 MP stroke
c9
0 0 14 0 0 0 4451 2158 4 MP
PP
0 sg
-14 0 0 0 14 0 0 0 4451 2158 5 MP stroke
c9
0 148 14 0 0 -148 4465 2158 4 MP
PP
0 sg
-14 0 0 148 14 0 0 -148 4465 2158 5 MP stroke
c9
0 295 14 0 0 -295 4479 2158 4 MP
PP
0 sg
-14 0 0 295 14 0 0 -295 4479 2158 5 MP stroke
c9
0 0 14 0 0 0 4493 2158 4 MP
PP
0 sg
-14 0 0 0 14 0 0 0 4493 2158 5 MP stroke
c9
0 0 14 0 0 0 4507 2158 4 MP
PP
0 sg
-14 0 0 0 14 0 0 0 4507 2158 5 MP stroke
c9
0 0 14 0 0 0 4521 2158 4 MP
PP
0 sg
-14 0 0 0 14 0 0 0 4521 2158 5 MP stroke
c9
0 0 13 0 0 0 4535 2158 4 MP
PP
0 sg
-13 0 0 0 13 0 0 0 4535 2158 5 MP stroke
c9
0 148 14 0 0 -148 4548 2158 4 MP
PP
0 sg
-14 0 0 148 14 0 0 -148 4548 2158 5 MP stroke
c9
0 0 14 0 0 0 4562 2158 4 MP
PP
0 sg
-14 0 0 0 14 0 0 0 4562 2158 5 MP stroke
c9
0 148 14 0 0 -148 4576 2158 4 MP
PP
0 sg
-14 0 0 148 14 0 0 -148 4576 2158 5 MP stroke
c9
0 0 14 0 0 0 4590 2158 4 MP
PP
0 sg
-14 0 0 0 14 0 0 0 4590 2158 5 MP stroke
c9
0 148 14 0 0 -148 4604 2158 4 MP
PP
0 sg
-14 0 0 148 14 0 0 -148 4604 2158 5 MP stroke
c9
0 0 14 0 0 0 4618 2158 4 MP
PP
0 sg
-14 0 0 0 14 0 0 0 4618 2158 5 MP stroke
c9
0 0 13 0 0 0 4632 2158 4 MP
PP
0 sg
-13 0 0 0 13 0 0 0 4632 2158 5 MP stroke
c9
0 0 14 0 0 0 4645 2158 4 MP
PP
0 sg
-14 0 0 0 14 0 0 0 4645 2158 5 MP stroke
c9
0 148 14 0 0 -148 4659 2158 4 MP
PP
0 sg
-14 0 0 148 14 0 0 -148 4659 2158 5 MP stroke
c9
0 0 14 0 0 0 4673 2158 4 MP
PP
0 sg
-14 0 0 0 14 0 0 0 4673 2158 5 MP stroke
c9
0 148 14 0 0 -148 4687 2158 4 MP
PP
0 sg
-14 0 0 148 14 0 0 -148 4687 2158 5 MP stroke
c9
0 0 14 0 0 0 4701 2158 4 MP
PP
0 sg
-14 0 0 0 14 0 0 0 4701 2158 5 MP stroke
c9
0 0 14 0 0 0 4715 2158 4 MP
PP
0 sg
-14 0 0 0 14 0 0 0 4715 2158 5 MP stroke
c9
0 0 14 0 0 0 4729 2158 4 MP
PP
0 sg
-14 0 0 0 14 0 0 0 4729 2158 5 MP stroke
c9
0 0 13 0 0 0 4743 2158 4 MP
PP
0 sg
-13 0 0 0 13 0 0 0 4743 2158 5 MP stroke
c9
0 0 14 0 0 0 4756 2158 4 MP
PP
0 sg
-14 0 0 0 14 0 0 0 4756 2158 5 MP stroke
c9
0 0 14 0 0 0 4770 2158 4 MP
PP
0 sg
-14 0 0 0 14 0 0 0 4770 2158 5 MP stroke
c9
0 0 14 0 0 0 4784 2158 4 MP
PP
0 sg
-14 0 0 0 14 0 0 0 4784 2158 5 MP stroke
c9
0 0 14 0 0 0 4798 2158 4 MP
PP
0 sg
-14 0 0 0 14 0 0 0 4798 2158 5 MP stroke
c9
0 0 14 0 0 0 4812 2158 4 MP
PP
0 sg
-14 0 0 0 14 0 0 0 4812 2158 5 MP stroke
c9
0 0 14 0 0 0 4826 2158 4 MP
PP
0 sg
-14 0 0 0 14 0 0 0 4826 2158 5 MP stroke
c9
0 148 14 0 0 -148 4840 2158 4 MP
PP
0 sg
-14 0 0 148 14 0 0 -148 4840 2158 5 MP stroke
c9
0 0 13 0 0 0 4854 2158 4 MP
PP
0 sg
-13 0 0 0 13 0 0 0 4854 2158 5 MP stroke
c9
0 0 14 0 0 0 4867 2158 4 MP
PP
0 sg
-14 0 0 0 14 0 0 0 4867 2158 5 MP stroke
c9
0 0 14 0 0 0 4881 2158 4 MP
PP
0 sg
-14 0 0 0 14 0 0 0 4881 2158 5 MP stroke
c9
0 0 14 0 0 0 4895 2158 4 MP
PP
0 sg
-14 0 0 0 14 0 0 0 4895 2158 5 MP stroke
c9
0 0 14 0 0 0 4909 2158 4 MP
PP
0 sg
-14 0 0 0 14 0 0 0 4909 2158 5 MP stroke
c9
0 0 14 0 0 0 4923 2158 4 MP
PP
0 sg
-14 0 0 0 14 0 0 0 4923 2158 5 MP stroke
c9
0 0 14 0 0 0 4937 2158 4 MP
PP
0 sg
-14 0 0 0 14 0 0 0 4937 2158 5 MP stroke
c9
0 0 13 0 0 0 4951 2158 4 MP
PP
0 sg
-13 0 0 0 13 0 0 0 4951 2158 5 MP stroke
c9
0 0 14 0 0 0 4964 2158 4 MP
PP
0 sg
-14 0 0 0 14 0 0 0 4964 2158 5 MP stroke
c9
0 148 14 0 0 -148 4978 2158 4 MP
PP
0 sg
-14 0 0 148 14 0 0 -148 4978 2158 5 MP stroke
c9
0 0 14 0 0 0 4992 2158 4 MP
PP
0 sg
-14 0 0 0 14 0 0 0 4992 2158 5 MP stroke
c9
0 0 14 0 0 0 5006 2158 4 MP
PP
0 sg
-14 0 0 0 14 0 0 0 5006 2158 5 MP stroke
c9
0 0 14 0 0 0 5020 2158 4 MP
PP
0 sg
-14 0 0 0 14 0 0 0 5020 2158 5 MP stroke
c9
0 0 14 0 0 0 5034 2158 4 MP
PP
0 sg
-14 0 0 0 14 0 0 0 5034 2158 5 MP stroke
c9
0 0 14 0 0 0 5048 2158 4 MP
PP
0 sg
-14 0 0 0 14 0 0 0 5048 2158 5 MP stroke
c9
0 0 13 0 0 0 5062 2158 4 MP
PP
0 sg
-13 0 0 0 13 0 0 0 5062 2158 5 MP stroke
c9
0 0 14 0 0 0 5075 2158 4 MP
PP
0 sg
-14 0 0 0 14 0 0 0 5075 2158 5 MP stroke
c9
0 0 14 0 0 0 5089 2158 4 MP
PP
0 sg
-14 0 0 0 14 0 0 0 5089 2158 5 MP stroke
c9
0 0 14 0 0 0 5103 2158 4 MP
PP
0 sg
-14 0 0 0 14 0 0 0 5103 2158 5 MP stroke
c9
0 0 14 0 0 0 5117 2158 4 MP
PP
0 sg
-14 0 0 0 14 0 0 0 5117 2158 5 MP stroke
c9
0 0 14 0 0 0 5131 2158 4 MP
PP
0 sg
-14 0 0 0 14 0 0 0 5131 2158 5 MP stroke
c9
0 0 14 0 0 0 5145 2158 4 MP
PP
0 sg
-14 0 0 0 14 0 0 0 5145 2158 5 MP stroke
c9
0 0 14 0 0 0 5159 2158 4 MP
PP
0 sg
-14 0 0 0 14 0 0 0 5159 2158 5 MP stroke
c9
0 0 13 0 0 0 5173 2158 4 MP
PP
0 sg
-13 0 0 0 13 0 0 0 5173 2158 5 MP stroke
c9
0 0 14 0 0 0 5186 2158 4 MP
PP
0 sg
-14 0 0 0 14 0 0 0 5186 2158 5 MP stroke
c9
0 0 14 0 0 0 5200 2158 4 MP
PP
0 sg
-14 0 0 0 14 0 0 0 5200 2158 5 MP stroke
c9
0 0 14 0 0 0 5214 2158 4 MP
PP
0 sg
-14 0 0 0 14 0 0 0 5214 2158 5 MP stroke
c9
0 0 14 0 0 0 5228 2158 4 MP
PP
0 sg
-14 0 0 0 14 0 0 0 5228 2158 5 MP stroke
c9
0 0 14 0 0 0 5242 2158 4 MP
PP
0 sg
-14 0 0 0 14 0 0 0 5242 2158 5 MP stroke
c9
0 0 14 0 0 0 5256 2158 4 MP
PP
0 sg
-14 0 0 0 14 0 0 0 5256 2158 5 MP stroke
c9
0 0 14 0 0 0 5270 2158 4 MP
PP
0 sg
-14 0 0 0 14 0 0 0 5270 2158 5 MP stroke
c9
0 0 13 0 0 0 5284 2158 4 MP
PP
0 sg
-13 0 0 0 13 0 0 0 5284 2158 5 MP stroke
c9
0 0 14 0 0 0 5297 2158 4 MP
PP
0 sg
-14 0 0 0 14 0 0 0 5297 2158 5 MP stroke
c9
0 0 14 0 0 0 5311 2158 4 MP
PP
0 sg
-14 0 0 0 14 0 0 0 5311 2158 5 MP stroke
c9
0 0 14 0 0 0 5325 2158 4 MP
PP
0 sg
-14 0 0 0 14 0 0 0 5325 2158 5 MP stroke
c9
0 0 14 0 0 0 5339 2158 4 MP
PP
0 sg
-14 0 0 0 14 0 0 0 5339 2158 5 MP stroke
c9
0 0 14 0 0 0 5353 2158 4 MP
PP
0 sg
-14 0 0 0 14 0 0 0 5353 2158 5 MP stroke
c9
0 0 14 0 0 0 5367 2158 4 MP
PP
0 sg
-14 0 0 0 14 0 0 0 5367 2158 5 MP stroke
c9
0 0 13 0 0 0 5381 2158 4 MP
PP
0 sg
-13 0 0 0 13 0 0 0 5381 2158 5 MP stroke
c9
0 0 14 0 0 0 5394 2158 4 MP
PP
0 sg
-14 0 0 0 14 0 0 0 5394 2158 5 MP stroke
c9
0 0 14 0 0 0 5408 2158 4 MP
PP
0 sg
-14 0 0 0 14 0 0 0 5408 2158 5 MP stroke
c9
0 0 14 0 0 0 5422 2158 4 MP
PP
0 sg
-14 0 0 0 14 0 0 0 5422 2158 5 MP stroke
c9
0 0 14 0 0 0 5436 2158 4 MP
PP
0 sg
-14 0 0 0 14 0 0 0 5436 2158 5 MP stroke
c9
0 0 14 0 0 0 5450 2158 4 MP
PP
0 sg
-14 0 0 0 14 0 0 0 5450 2158 5 MP stroke
c9
0 0 14 0 0 0 5464 2158 4 MP
PP
0 sg
-14 0 0 0 14 0 0 0 5464 2158 5 MP stroke
c9
0 0 14 0 0 0 5478 2158 4 MP
PP
0 sg
-14 0 0 0 14 0 0 0 5478 2158 5 MP stroke
c9
0 0 13 0 0 0 5492 2158 4 MP
PP
0 sg
-13 0 0 0 13 0 0 0 5492 2158 5 MP stroke
c9
0 0 14 0 0 0 5505 2158 4 MP
PP
0 sg
-14 0 0 0 14 0 0 0 5505 2158 5 MP stroke
c9
0 148 14 0 0 -148 5519 2158 4 MP
PP
0 sg
-14 0 0 148 14 0 0 -148 5519 2158 5 MP stroke
c9
0 0 14 0 0 0 5533 2158 4 MP
PP
0 sg
-14 0 0 0 14 0 0 0 5533 2158 5 MP stroke
c9
0 0 14 0 0 0 5547 2158 4 MP
PP
0 sg
-14 0 0 0 14 0 0 0 5547 2158 5 MP stroke
c9
0 0 14 0 0 0 5561 2158 4 MP
PP
0 sg
-14 0 0 0 14 0 0 0 5561 2158 5 MP stroke
c9
0 0 14 0 0 0 5575 2158 4 MP
PP
0 sg
-14 0 0 0 14 0 0 0 5575 2158 5 MP stroke
c9
0 0 14 0 0 0 5589 2158 4 MP
PP
0 sg
-14 0 0 0 14 0 0 0 5589 2158 5 MP stroke
c9
0 0 13 0 0 0 5603 2158 4 MP
PP
0 sg
-13 0 0 0 13 0 0 0 5603 2158 5 MP stroke
c9
0 0 14 0 0 0 5616 2158 4 MP
PP
0 sg
-14 0 0 0 14 0 0 0 5616 2158 5 MP stroke
c9
0 0 14 0 0 0 5630 2158 4 MP
PP
0 sg
-14 0 0 0 14 0 0 0 5630 2158 5 MP stroke
c9
0 0 14 0 0 0 5644 2158 4 MP
PP
0 sg
-14 0 0 0 14 0 0 0 5644 2158 5 MP stroke
c9
0 0 14 0 0 0 5658 2158 4 MP
PP
0 sg
-14 0 0 0 14 0 0 0 5658 2158 5 MP stroke
c9
0 0 14 0 0 0 5672 2158 4 MP
PP
0 sg
-14 0 0 0 14 0 0 0 5672 2158 5 MP stroke
c9
0 0 14 0 0 0 5686 2158 4 MP
PP
0 sg
-14 0 0 0 14 0 0 0 5686 2158 5 MP stroke
c9
0 0 13 0 0 0 5700 2158 4 MP
PP
0 sg
-13 0 0 0 13 0 0 0 5700 2158 5 MP stroke
c9
0 0 14 0 0 0 5713 2158 4 MP
PP
0 sg
-14 0 0 0 14 0 0 0 5713 2158 5 MP stroke
c9
0 0 14 0 0 0 5727 2158 4 MP
PP
0 sg
-14 0 0 0 14 0 0 0 5727 2158 5 MP stroke
c9
0 0 14 0 0 0 5741 2158 4 MP
PP
0 sg
-14 0 0 0 14 0 0 0 5741 2158 5 MP stroke
c9
0 0 14 0 0 0 5755 2158 4 MP
PP
0 sg
-14 0 0 0 14 0 0 0 5755 2158 5 MP stroke
c9
0 0 14 0 0 0 5769 2158 4 MP
PP
0 sg
-14 0 0 0 14 0 0 0 5769 2158 5 MP stroke
c9
0 0 14 0 0 0 5783 2158 4 MP
PP
0 sg
-14 0 0 0 14 0 0 0 5783 2158 5 MP stroke
c9
0 0 14 0 0 0 5797 2158 4 MP
PP
0 sg
-14 0 0 0 14 0 0 0 5797 2158 5 MP stroke
c9
0 0 13 0 0 0 5811 2158 4 MP
PP
0 sg
-13 0 0 0 13 0 0 0 5811 2158 5 MP stroke
c9
0 0 14 0 0 0 5824 2158 4 MP
PP
0 sg
-14 0 0 0 14 0 0 0 5824 2158 5 MP stroke
c9
0 0 14 0 0 0 5838 2158 4 MP
PP
0 sg
-14 0 0 0 14 0 0 0 5838 2158 5 MP stroke
c9
0 0 14 0 0 0 5852 2158 4 MP
PP
0 sg
-14 0 0 0 14 0 0 0 5852 2158 5 MP stroke
c9
0 0 14 0 0 0 5866 2158 4 MP
PP
0 sg
-14 0 0 0 14 0 0 0 5866 2158 5 MP stroke
c9
0 0 14 0 0 0 5880 2158 4 MP
PP
0 sg
-14 0 0 0 14 0 0 0 5880 2158 5 MP stroke
c9
0 0 14 0 0 0 5894 2158 4 MP
PP
0 sg
-14 0 0 0 14 0 0 0 5894 2158 5 MP stroke
c9
0 0 14 0 0 0 5908 2158 4 MP
PP
0 sg
-14 0 0 0 14 0 0 0 5908 2158 5 MP stroke
c9
0 0 13 0 0 0 5922 2158 4 MP
PP
0 sg
-13 0 0 0 13 0 0 0 5922 2158 5 MP stroke
c9
0 0 14 0 0 0 5935 2158 4 MP
PP
0 sg
-14 0 0 0 14 0 0 0 5935 2158 5 MP stroke
c9
0 0 14 0 0 0 5949 2158 4 MP
PP
0 sg
-14 0 0 0 14 0 0 0 5949 2158 5 MP stroke
c9
0 0 14 0 0 0 5963 2158 4 MP
PP
0 sg
-14 0 0 0 14 0 0 0 5963 2158 5 MP stroke
c9
0 0 14 0 0 0 5977 2158 4 MP
PP
0 sg
-14 0 0 0 14 0 0 0 5977 2158 5 MP stroke
c9
0 0 14 0 0 0 5991 2158 4 MP
PP
0 sg
-14 0 0 0 14 0 0 0 5991 2158 5 MP stroke
c9
0 0 14 0 0 0 6005 2158 4 MP
PP
0 sg
-14 0 0 0 14 0 0 0 6005 2158 5 MP stroke
c9
0 0 13 0 0 0 6019 2158 4 MP
PP
0 sg
-13 0 0 0 13 0 0 0 6019 2158 5 MP stroke
c9
0 0 14 0 0 0 6032 2158 4 MP
PP
0 sg
-14 0 0 0 14 0 0 0 6032 2158 5 MP stroke
c9
0 0 14 0 0 0 6046 2158 4 MP
PP
0 sg
-14 0 0 0 14 0 0 0 6046 2158 5 MP stroke
c9
0 0 14 0 0 0 6060 2158 4 MP
PP
0 sg
-14 0 0 0 14 0 0 0 6060 2158 5 MP stroke
c9
0 0 14 0 0 0 6074 2158 4 MP
PP
0 sg
-14 0 0 0 14 0 0 0 6074 2158 5 MP stroke
c9
0 0 14 0 0 0 6088 2158 4 MP
PP
0 sg
-14 0 0 0 14 0 0 0 6088 2158 5 MP stroke
c9
0 148 14 0 0 -148 6102 2158 4 MP
PP
0 sg
-14 0 0 148 14 0 0 -148 6102 2158 5 MP stroke
4877 2446 mt 
(Time \(s\)) s
3692 1434 mt  -90 rotate
(Count) s
90 rotate
4996  294 mt 
(n=3) s
1 sg
0 1769 2313 0 0 -1769 899 4615 4 MP
PP
-2313 0 0 1769 2313 0 0 -1769 899 4615 5 MP stroke
4 w
DO
SO
6 w
0 sg
 899 4615 mt 3212 4615 L
 899 2846 mt 3212 2846 L
 899 4615 mt  899 2846 L
3212 4615 mt 3212 2846 L
 899 4615 mt 3212 4615 L
 899 4615 mt  899 2846 L
 899 4615 mt  899 4591 L
 899 2846 mt  899 2869 L
 866 4760 mt 
(0) s
1477 4615 mt 1477 4591 L
1477 2846 mt 1477 2869 L
1444 4760 mt 
(2) s
2055 4615 mt 2055 4591 L
2055 2846 mt 2055 2869 L
2022 4760 mt 
(4) s
2633 4615 mt 2633 4591 L
2633 2846 mt 2633 2869 L
2600 4760 mt 
(6) s
3212 4615 mt 3212 4591 L
3212 2846 mt 3212 2869 L
3179 4760 mt 
(8) s
2942 4962 mt 
(x 10) s
%%IncludeResource: font Helvetica
/Helvetica /ISOLatin1Encoding 80 FMSR

3168 4888 mt 
(4) s
 899 4615 mt  922 4615 L
3212 4615 mt 3188 4615 L
%%IncludeResource: font Helvetica
/Helvetica /ISOLatin1Encoding 120 FMSR

 798 4659 mt 
(0) s
 899 4261 mt  922 4261 L
3212 4261 mt 3188 4261 L
 731 4305 mt 
(20) s
 899 3907 mt  922 3907 L
3212 3907 mt 3188 3907 L
 731 3951 mt 
(40) s
 899 3553 mt  922 3553 L
3212 3553 mt 3188 3553 L
 731 3597 mt 
(60) s
 899 3199 mt  922 3199 L
3212 3199 mt 3188 3199 L
 731 3243 mt 
(80) s
 899 2846 mt  922 2846 L
3212 2846 mt 3188 2846 L
 664 2890 mt 
(100) s
 899 4615 mt 3212 4615 L
 899 2846 mt 3212 2846 L
 899 4615 mt  899 2846 L
3212 4615 mt 3212 2846 L
24 w
c8
0 -1769 912 4615 2 MP stroke
c9
0 1663 12 0 0 -1663 899 4615 4 MP
PP
6 w
0 sg
-12 0 0 1663 12 0 0 -1663 899 4615 5 MP stroke
c9
0 567 12 0 0 -567 911 4615 4 MP
PP
0 sg
-12 0 0 567 12 0 0 -567 911 4615 5 MP stroke
c9
0 266 13 0 0 -266 923 4615 4 MP
PP
0 sg
-13 0 0 266 13 0 0 -266 923 4615 5 MP stroke
c9
0 160 12 0 0 -160 936 4615 4 MP
PP
0 sg
-12 0 0 160 12 0 0 -160 936 4615 5 MP stroke
c9
0 160 12 0 0 -160 948 4615 4 MP
PP
0 sg
-12 0 0 160 12 0 0 -160 948 4615 5 MP stroke
c9
0 0 12 0 0 0 960 4615 4 MP
PP
0 sg
-12 0 0 0 12 0 0 0 960 4615 5 MP stroke
c9
0 71 13 0 0 -71 972 4615 4 MP
PP
0 sg
-13 0 0 71 13 0 0 -71 972 4615 5 MP stroke
c9
0 71 12 0 0 -71 985 4615 4 MP
PP
0 sg
-12 0 0 71 12 0 0 -71 985 4615 5 MP stroke
c9
0 71 12 0 0 -71 997 4615 4 MP
PP
0 sg
-12 0 0 71 12 0 0 -71 997 4615 5 MP stroke
c9
0 54 13 0 0 -54 1009 4615 4 MP
PP
0 sg
-13 0 0 54 13 0 0 -54 1009 4615 5 MP stroke
c9
0 107 12 0 0 -107 1022 4615 4 MP
PP
0 sg
-12 0 0 107 12 0 0 -107 1022 4615 5 MP stroke
c9
0 18 12 0 0 -18 1034 4615 4 MP
PP
0 sg
-12 0 0 18 12 0 0 -18 1034 4615 5 MP stroke
c9
0 36 13 0 0 -36 1046 4615 4 MP
PP
0 sg
-13 0 0 36 13 0 0 -36 1046 4615 5 MP stroke
c9
0 18 12 0 0 -18 1059 4615 4 MP
PP
0 sg
-12 0 0 18 12 0 0 -18 1059 4615 5 MP stroke
c9
0 0 12 0 0 0 1071 4615 4 MP
PP
0 sg
-12 0 0 0 12 0 0 0 1071 4615 5 MP stroke
c9
0 54 13 0 0 -54 1083 4615 4 MP
PP
0 sg
-13 0 0 54 13 0 0 -54 1083 4615 5 MP stroke
c9
0 36 12 0 0 -36 1096 4615 4 MP
PP
0 sg
-12 0 0 36 12 0 0 -36 1096 4615 5 MP stroke
c9
0 0 12 0 0 0 1108 4615 4 MP
PP
0 sg
-12 0 0 0 12 0 0 0 1108 4615 5 MP stroke
c9
0 0 12 0 0 0 1120 4615 4 MP
PP
0 sg
-12 0 0 0 12 0 0 0 1120 4615 5 MP stroke
c9
0 36 13 0 0 -36 1132 4615 4 MP
PP
0 sg
-13 0 0 36 13 0 0 -36 1132 4615 5 MP stroke
c9
0 18 12 0 0 -18 1145 4615 4 MP
PP
0 sg
-12 0 0 18 12 0 0 -18 1145 4615 5 MP stroke
c9
0 0 12 0 0 0 1157 4615 4 MP
PP
0 sg
-12 0 0 0 12 0 0 0 1157 4615 5 MP stroke
c9
0 0 13 0 0 0 1169 4615 4 MP
PP
0 sg
-13 0 0 0 13 0 0 0 1169 4615 5 MP stroke
c9
0 0 12 0 0 0 1182 4615 4 MP
PP
0 sg
-12 0 0 0 12 0 0 0 1182 4615 5 MP stroke
c9
0 0 12 0 0 0 1194 4615 4 MP
PP
0 sg
-12 0 0 0 12 0 0 0 1194 4615 5 MP stroke
c9
0 18 13 0 0 -18 1206 4615 4 MP
PP
0 sg
-13 0 0 18 13 0 0 -18 1206 4615 5 MP stroke
c9
0 0 12 0 0 0 1219 4615 4 MP
PP
0 sg
-12 0 0 0 12 0 0 0 1219 4615 5 MP stroke
c9
0 0 12 0 0 0 1231 4615 4 MP
PP
0 sg
-12 0 0 0 12 0 0 0 1231 4615 5 MP stroke
c9
0 0 12 0 0 0 1243 4615 4 MP
PP
0 sg
-12 0 0 0 12 0 0 0 1243 4615 5 MP stroke
c9
0 0 13 0 0 0 1255 4615 4 MP
PP
0 sg
-13 0 0 0 13 0 0 0 1255 4615 5 MP stroke
c9
0 36 12 0 0 -36 1268 4615 4 MP
PP
0 sg
-12 0 0 36 12 0 0 -36 1268 4615 5 MP stroke
c9
0 0 12 0 0 0 1280 4615 4 MP
PP
0 sg
-12 0 0 0 12 0 0 0 1280 4615 5 MP stroke
c9
0 18 13 0 0 -18 1292 4615 4 MP
PP
0 sg
-13 0 0 18 13 0 0 -18 1292 4615 5 MP stroke
c9
0 0 12 0 0 0 1305 4615 4 MP
PP
0 sg
-12 0 0 0 12 0 0 0 1305 4615 5 MP stroke
c9
0 0 12 0 0 0 1317 4615 4 MP
PP
0 sg
-12 0 0 0 12 0 0 0 1317 4615 5 MP stroke
c9
0 0 13 0 0 0 1329 4615 4 MP
PP
0 sg
-13 0 0 0 13 0 0 0 1329 4615 5 MP stroke
c9
0 0 12 0 0 0 1342 4615 4 MP
PP
0 sg
-12 0 0 0 12 0 0 0 1342 4615 5 MP stroke
c9
0 0 12 0 0 0 1354 4615 4 MP
PP
0 sg
-12 0 0 0 12 0 0 0 1354 4615 5 MP stroke
c9
0 0 13 0 0 0 1366 4615 4 MP
PP
0 sg
-13 0 0 0 13 0 0 0 1366 4615 5 MP stroke
c9
0 0 12 0 0 0 1379 4615 4 MP
PP
0 sg
-12 0 0 0 12 0 0 0 1379 4615 5 MP stroke
c9
0 0 12 0 0 0 1391 4615 4 MP
PP
0 sg
-12 0 0 0 12 0 0 0 1391 4615 5 MP stroke
c9
0 0 12 0 0 0 1403 4615 4 MP
PP
0 sg
-12 0 0 0 12 0 0 0 1403 4615 5 MP stroke
c9
0 0 13 0 0 0 1415 4615 4 MP
PP
0 sg
-13 0 0 0 13 0 0 0 1415 4615 5 MP stroke
c9
0 0 12 0 0 0 1428 4615 4 MP
PP
0 sg
-12 0 0 0 12 0 0 0 1428 4615 5 MP stroke
c9
0 0 12 0 0 0 1440 4615 4 MP
PP
0 sg
-12 0 0 0 12 0 0 0 1440 4615 5 MP stroke
c9
0 0 13 0 0 0 1452 4615 4 MP
PP
0 sg
-13 0 0 0 13 0 0 0 1452 4615 5 MP stroke
c9
0 0 12 0 0 0 1465 4615 4 MP
PP
0 sg
-12 0 0 0 12 0 0 0 1465 4615 5 MP stroke
c9
0 0 12 0 0 0 1477 4615 4 MP
PP
0 sg
-12 0 0 0 12 0 0 0 1477 4615 5 MP stroke
c9
0 0 13 0 0 0 1489 4615 4 MP
PP
0 sg
-13 0 0 0 13 0 0 0 1489 4615 5 MP stroke
c9
0 0 12 0 0 0 1502 4615 4 MP
PP
0 sg
-12 0 0 0 12 0 0 0 1502 4615 5 MP stroke
c9
0 0 12 0 0 0 1514 4615 4 MP
PP
0 sg
-12 0 0 0 12 0 0 0 1514 4615 5 MP stroke
c9
0 0 12 0 0 0 1526 4615 4 MP
PP
0 sg
-12 0 0 0 12 0 0 0 1526 4615 5 MP stroke
c9
0 18 13 0 0 -18 1538 4615 4 MP
PP
0 sg
-13 0 0 18 13 0 0 -18 1538 4615 5 MP stroke
c9
0 0 12 0 0 0 1551 4615 4 MP
PP
0 sg
-12 0 0 0 12 0 0 0 1551 4615 5 MP stroke
c9
0 0 12 0 0 0 1563 4615 4 MP
PP
0 sg
-12 0 0 0 12 0 0 0 1563 4615 5 MP stroke
c9
0 0 13 0 0 0 1575 4615 4 MP
PP
0 sg
-13 0 0 0 13 0 0 0 1575 4615 5 MP stroke
c9
0 0 12 0 0 0 1588 4615 4 MP
PP
0 sg
-12 0 0 0 12 0 0 0 1588 4615 5 MP stroke
c9
0 0 12 0 0 0 1600 4615 4 MP
PP
0 sg
-12 0 0 0 12 0 0 0 1600 4615 5 MP stroke
c9
0 0 13 0 0 0 1612 4615 4 MP
PP
0 sg
-13 0 0 0 13 0 0 0 1612 4615 5 MP stroke
c9
0 0 12 0 0 0 1625 4615 4 MP
PP
0 sg
-12 0 0 0 12 0 0 0 1625 4615 5 MP stroke
c9
0 0 12 0 0 0 1637 4615 4 MP
PP
0 sg
-12 0 0 0 12 0 0 0 1637 4615 5 MP stroke
c9
0 0 13 0 0 0 1649 4615 4 MP
PP
0 sg
-13 0 0 0 13 0 0 0 1649 4615 5 MP stroke
c9
0 0 12 0 0 0 1662 4615 4 MP
PP
0 sg
-12 0 0 0 12 0 0 0 1662 4615 5 MP stroke
c9
0 0 12 0 0 0 1674 4615 4 MP
PP
0 sg
-12 0 0 0 12 0 0 0 1674 4615 5 MP stroke
c9
0 0 12 0 0 0 1686 4615 4 MP
PP
0 sg
-12 0 0 0 12 0 0 0 1686 4615 5 MP stroke
c9
0 0 13 0 0 0 1698 4615 4 MP
PP
0 sg
-13 0 0 0 13 0 0 0 1698 4615 5 MP stroke
c9
0 0 12 0 0 0 1711 4615 4 MP
PP
0 sg
-12 0 0 0 12 0 0 0 1711 4615 5 MP stroke
c9
0 0 12 0 0 0 1723 4615 4 MP
PP
0 sg
-12 0 0 0 12 0 0 0 1723 4615 5 MP stroke
c9
0 0 13 0 0 0 1735 4615 4 MP
PP
0 sg
-13 0 0 0 13 0 0 0 1735 4615 5 MP stroke
c9
0 0 12 0 0 0 1748 4615 4 MP
PP
0 sg
-12 0 0 0 12 0 0 0 1748 4615 5 MP stroke
c9
0 0 12 0 0 0 1760 4615 4 MP
PP
0 sg
-12 0 0 0 12 0 0 0 1760 4615 5 MP stroke
c9
0 0 13 0 0 0 1772 4615 4 MP
PP
0 sg
-13 0 0 0 13 0 0 0 1772 4615 5 MP stroke
c9
0 0 12 0 0 0 1785 4615 4 MP
PP
0 sg
-12 0 0 0 12 0 0 0 1785 4615 5 MP stroke
c9
0 0 12 0 0 0 1797 4615 4 MP
PP
0 sg
-12 0 0 0 12 0 0 0 1797 4615 5 MP stroke
c9
0 0 12 0 0 0 1809 4615 4 MP
PP
0 sg
-12 0 0 0 12 0 0 0 1809 4615 5 MP stroke
c9
0 0 13 0 0 0 1821 4615 4 MP
PP
0 sg
-13 0 0 0 13 0 0 0 1821 4615 5 MP stroke
c9
0 0 12 0 0 0 1834 4615 4 MP
PP
0 sg
-12 0 0 0 12 0 0 0 1834 4615 5 MP stroke
c9
0 0 12 0 0 0 1846 4615 4 MP
PP
0 sg
-12 0 0 0 12 0 0 0 1846 4615 5 MP stroke
c9
0 0 13 0 0 0 1858 4615 4 MP
PP
0 sg
-13 0 0 0 13 0 0 0 1858 4615 5 MP stroke
c9
0 0 12 0 0 0 1871 4615 4 MP
PP
0 sg
-12 0 0 0 12 0 0 0 1871 4615 5 MP stroke
c9
0 0 12 0 0 0 1883 4615 4 MP
PP
0 sg
-12 0 0 0 12 0 0 0 1883 4615 5 MP stroke
c9
0 0 13 0 0 0 1895 4615 4 MP
PP
0 sg
-13 0 0 0 13 0 0 0 1895 4615 5 MP stroke
c9
0 0 12 0 0 0 1908 4615 4 MP
PP
0 sg
-12 0 0 0 12 0 0 0 1908 4615 5 MP stroke
c9
0 0 12 0 0 0 1920 4615 4 MP
PP
0 sg
-12 0 0 0 12 0 0 0 1920 4615 5 MP stroke
c9
0 0 12 0 0 0 1932 4615 4 MP
PP
0 sg
-12 0 0 0 12 0 0 0 1932 4615 5 MP stroke
c9
0 0 13 0 0 0 1944 4615 4 MP
PP
0 sg
-13 0 0 0 13 0 0 0 1944 4615 5 MP stroke
c9
0 0 12 0 0 0 1957 4615 4 MP
PP
0 sg
-12 0 0 0 12 0 0 0 1957 4615 5 MP stroke
c9
0 0 12 0 0 0 1969 4615 4 MP
PP
0 sg
-12 0 0 0 12 0 0 0 1969 4615 5 MP stroke
c9
0 0 13 0 0 0 1981 4615 4 MP
PP
0 sg
-13 0 0 0 13 0 0 0 1981 4615 5 MP stroke
c9
0 0 12 0 0 0 1994 4615 4 MP
PP
0 sg
-12 0 0 0 12 0 0 0 1994 4615 5 MP stroke
c9
0 0 12 0 0 0 2006 4615 4 MP
PP
0 sg
-12 0 0 0 12 0 0 0 2006 4615 5 MP stroke
c9
0 0 13 0 0 0 2018 4615 4 MP
PP
0 sg
-13 0 0 0 13 0 0 0 2018 4615 5 MP stroke
c9
0 0 12 0 0 0 2031 4615 4 MP
PP
0 sg
-12 0 0 0 12 0 0 0 2031 4615 5 MP stroke
c9
0 0 12 0 0 0 2043 4615 4 MP
PP
0 sg
-12 0 0 0 12 0 0 0 2043 4615 5 MP stroke
c9
0 0 13 0 0 0 2055 4615 4 MP
PP
0 sg
-13 0 0 0 13 0 0 0 2055 4615 5 MP stroke
c9
0 0 12 0 0 0 2068 4615 4 MP
PP
0 sg
-12 0 0 0 12 0 0 0 2068 4615 5 MP stroke
c9
0 0 12 0 0 0 2080 4615 4 MP
PP
0 sg
-12 0 0 0 12 0 0 0 2080 4615 5 MP stroke
c9
0 0 12 0 0 0 2092 4615 4 MP
PP
0 sg
-12 0 0 0 12 0 0 0 2092 4615 5 MP stroke
c9
0 0 13 0 0 0 2104 4615 4 MP
PP
0 sg
-13 0 0 0 13 0 0 0 2104 4615 5 MP stroke
c9
0 0 12 0 0 0 2117 4615 4 MP
PP
0 sg
-12 0 0 0 12 0 0 0 2117 4615 5 MP stroke
c9
0 0 12 0 0 0 2129 4615 4 MP
PP
0 sg
-12 0 0 0 12 0 0 0 2129 4615 5 MP stroke
c9
0 0 13 0 0 0 2141 4615 4 MP
PP
0 sg
-13 0 0 0 13 0 0 0 2141 4615 5 MP stroke
c9
0 0 12 0 0 0 2154 4615 4 MP
PP
0 sg
-12 0 0 0 12 0 0 0 2154 4615 5 MP stroke
c9
0 0 12 0 0 0 2166 4615 4 MP
PP
0 sg
-12 0 0 0 12 0 0 0 2166 4615 5 MP stroke
c9
0 0 13 0 0 0 2178 4615 4 MP
PP
0 sg
-13 0 0 0 13 0 0 0 2178 4615 5 MP stroke
c9
0 0 12 0 0 0 2191 4615 4 MP
PP
0 sg
-12 0 0 0 12 0 0 0 2191 4615 5 MP stroke
c9
0 0 12 0 0 0 2203 4615 4 MP
PP
0 sg
-12 0 0 0 12 0 0 0 2203 4615 5 MP stroke
c9
0 0 12 0 0 0 2215 4615 4 MP
PP
0 sg
-12 0 0 0 12 0 0 0 2215 4615 5 MP stroke
c9
0 0 13 0 0 0 2227 4615 4 MP
PP
0 sg
-13 0 0 0 13 0 0 0 2227 4615 5 MP stroke
c9
0 0 12 0 0 0 2240 4615 4 MP
PP
0 sg
-12 0 0 0 12 0 0 0 2240 4615 5 MP stroke
c9
0 0 12 0 0 0 2252 4615 4 MP
PP
0 sg
-12 0 0 0 12 0 0 0 2252 4615 5 MP stroke
c9
0 0 13 0 0 0 2264 4615 4 MP
PP
0 sg
-13 0 0 0 13 0 0 0 2264 4615 5 MP stroke
c9
0 0 12 0 0 0 2277 4615 4 MP
PP
0 sg
-12 0 0 0 12 0 0 0 2277 4615 5 MP stroke
c9
0 0 12 0 0 0 2289 4615 4 MP
PP
0 sg
-12 0 0 0 12 0 0 0 2289 4615 5 MP stroke
c9
0 0 13 0 0 0 2301 4615 4 MP
PP
0 sg
-13 0 0 0 13 0 0 0 2301 4615 5 MP stroke
c9
0 0 12 0 0 0 2314 4615 4 MP
PP
0 sg
-12 0 0 0 12 0 0 0 2314 4615 5 MP stroke
c9
0 0 12 0 0 0 2326 4615 4 MP
PP
0 sg
-12 0 0 0 12 0 0 0 2326 4615 5 MP stroke
c9
0 0 13 0 0 0 2338 4615 4 MP
PP
0 sg
-13 0 0 0 13 0 0 0 2338 4615 5 MP stroke
c9
0 0 12 0 0 0 2351 4615 4 MP
PP
0 sg
-12 0 0 0 12 0 0 0 2351 4615 5 MP stroke
c9
0 0 12 0 0 0 2363 4615 4 MP
PP
0 sg
-12 0 0 0 12 0 0 0 2363 4615 5 MP stroke
c9
0 0 12 0 0 0 2375 4615 4 MP
PP
0 sg
-12 0 0 0 12 0 0 0 2375 4615 5 MP stroke
c9
0 0 13 0 0 0 2387 4615 4 MP
PP
0 sg
-13 0 0 0 13 0 0 0 2387 4615 5 MP stroke
c9
0 0 12 0 0 0 2400 4615 4 MP
PP
0 sg
-12 0 0 0 12 0 0 0 2400 4615 5 MP stroke
c9
0 0 12 0 0 0 2412 4615 4 MP
PP
0 sg
-12 0 0 0 12 0 0 0 2412 4615 5 MP stroke
c9
0 0 13 0 0 0 2424 4615 4 MP
PP
0 sg
-13 0 0 0 13 0 0 0 2424 4615 5 MP stroke
c9
0 0 12 0 0 0 2437 4615 4 MP
PP
0 sg
-12 0 0 0 12 0 0 0 2437 4615 5 MP stroke
c9
0 0 12 0 0 0 2449 4615 4 MP
PP
0 sg
-12 0 0 0 12 0 0 0 2449 4615 5 MP stroke
c9
0 0 13 0 0 0 2461 4615 4 MP
PP
0 sg
-13 0 0 0 13 0 0 0 2461 4615 5 MP stroke
c9
0 0 12 0 0 0 2474 4615 4 MP
PP
0 sg
-12 0 0 0 12 0 0 0 2474 4615 5 MP stroke
c9
0 0 12 0 0 0 2486 4615 4 MP
PP
0 sg
-12 0 0 0 12 0 0 0 2486 4615 5 MP stroke
c9
0 0 12 0 0 0 2498 4615 4 MP
PP
0 sg
-12 0 0 0 12 0 0 0 2498 4615 5 MP stroke
c9
0 0 13 0 0 0 2510 4615 4 MP
PP
0 sg
-13 0 0 0 13 0 0 0 2510 4615 5 MP stroke
c9
0 0 12 0 0 0 2523 4615 4 MP
PP
0 sg
-12 0 0 0 12 0 0 0 2523 4615 5 MP stroke
c9
0 0 12 0 0 0 2535 4615 4 MP
PP
0 sg
-12 0 0 0 12 0 0 0 2535 4615 5 MP stroke
c9
0 0 13 0 0 0 2547 4615 4 MP
PP
0 sg
-13 0 0 0 13 0 0 0 2547 4615 5 MP stroke
c9
0 0 12 0 0 0 2560 4615 4 MP
PP
0 sg
-12 0 0 0 12 0 0 0 2560 4615 5 MP stroke
c9
0 0 12 0 0 0 2572 4615 4 MP
PP
0 sg
-12 0 0 0 12 0 0 0 2572 4615 5 MP stroke
c9
0 0 13 0 0 0 2584 4615 4 MP
PP
0 sg
-13 0 0 0 13 0 0 0 2584 4615 5 MP stroke
c9
0 0 12 0 0 0 2597 4615 4 MP
PP
0 sg
-12 0 0 0 12 0 0 0 2597 4615 5 MP stroke
c9
0 0 12 0 0 0 2609 4615 4 MP
PP
0 sg
-12 0 0 0 12 0 0 0 2609 4615 5 MP stroke
c9
0 0 13 0 0 0 2621 4615 4 MP
PP
0 sg
-13 0 0 0 13 0 0 0 2621 4615 5 MP stroke
c9
0 0 12 0 0 0 2634 4615 4 MP
PP
0 sg
-12 0 0 0 12 0 0 0 2634 4615 5 MP stroke
c9
0 0 12 0 0 0 2646 4615 4 MP
PP
0 sg
-12 0 0 0 12 0 0 0 2646 4615 5 MP stroke
c9
0 0 12 0 0 0 2658 4615 4 MP
PP
0 sg
-12 0 0 0 12 0 0 0 2658 4615 5 MP stroke
c9
0 0 13 0 0 0 2670 4615 4 MP
PP
0 sg
-13 0 0 0 13 0 0 0 2670 4615 5 MP stroke
c9
0 0 12 0 0 0 2683 4615 4 MP
PP
0 sg
-12 0 0 0 12 0 0 0 2683 4615 5 MP stroke
c9
0 0 12 0 0 0 2695 4615 4 MP
PP
0 sg
-12 0 0 0 12 0 0 0 2695 4615 5 MP stroke
c9
0 0 13 0 0 0 2707 4615 4 MP
PP
0 sg
-13 0 0 0 13 0 0 0 2707 4615 5 MP stroke
c9
0 0 12 0 0 0 2720 4615 4 MP
PP
0 sg
-12 0 0 0 12 0 0 0 2720 4615 5 MP stroke
c9
0 18 12 0 0 -18 2732 4615 4 MP
PP
0 sg
-12 0 0 18 12 0 0 -18 2732 4615 5 MP stroke
1834 4903 mt 
(Time \(s\)) s
 582 3891 mt  -90 rotate
(Count) s
90 rotate
1953 2751 mt 
(n=4) s

end %%Color Dict

eplot
%%EndObject

epage
end

showpage

%%Trailer
%%EOF
