%!PS-Adobe-2.0 EPSF-1.2
%%Creator: MATLAB, The MathWorks, Inc. Version 8.2.0.701 (R2013b). Operating System: Linux 3.2.0-61-generic #92-Ubuntu SMP Mon Mar 31 23:47:59 UTC 2014 x86_64.
%%Title: ../graphs/dist_6.eps
%%CreationDate: 04/29/2014  20:05:01
%%DocumentNeededFonts: Helvetica
%%DocumentProcessColors: Cyan Magenta Yellow Black
%%Extensions: CMYK
%%Pages: 1
%%BoundingBox:    55   198   550   602
%%EndComments

%%BeginProlog
% MathWorks dictionary
/MathWorks 160 dict begin
% definition operators
/bdef {bind def} bind def
/ldef {load def} bind def
/xdef {exch def} bdef
/xstore {exch store} bdef
% operator abbreviations
/c  /clip ldef
/cc /concat ldef
/cp /closepath ldef
/gr /grestore ldef
/gs /gsave ldef
/mt /moveto ldef
/np /newpath ldef
/cm /currentmatrix ldef
/sm /setmatrix ldef
/rm /rmoveto ldef
/rl /rlineto ldef
/s {show newpath} bdef
/sc {setcmykcolor} bdef
/sr /setrgbcolor ldef
/sg /setgray ldef
/w /setlinewidth ldef
/j /setlinejoin ldef
/cap /setlinecap ldef
/rc {rectclip} bdef
/rf {rectfill} bdef
% page state control
/pgsv () def
/bpage {/pgsv save def} bdef
/epage {pgsv restore} bdef
/bplot /gsave ldef
/eplot {stroke grestore} bdef
% orientation switch
/portraitMode 0 def /landscapeMode 1 def /rotateMode 2 def
% coordinate system mappings
/dpi2point 0 def
% font control
/FontSize 0 def
/FMS {/FontSize xstore findfont [FontSize 0 0 FontSize neg 0 0]
  makefont setfont} bdef
/reencode {exch dup where {pop load} {pop StandardEncoding} ifelse
  exch dup 3 1 roll findfont dup length dict begin
  { 1 index /FID ne {def}{pop pop} ifelse } forall
  /Encoding exch def currentdict end definefont pop} bdef
/isroman {findfont /CharStrings get /Agrave known} bdef
/FMSR {3 1 roll 1 index dup isroman {reencode} {pop pop} ifelse
  exch FMS} bdef
/csm {1 dpi2point div -1 dpi2point div scale neg translate
 dup landscapeMode eq {pop -90 rotate}
  {rotateMode eq {90 rotate} if} ifelse} bdef
% line types: solid, dotted, dashed, dotdash
/SO { [] 0 setdash } bdef
/DO { [.5 dpi2point mul 4 dpi2point mul] 0 setdash } bdef
/DA { [6 dpi2point mul] 0 setdash } bdef
/DD { [.5 dpi2point mul 4 dpi2point mul 6 dpi2point mul 4
  dpi2point mul] 0 setdash } bdef
% macros for lines and objects
/L {lineto stroke} bdef
/MP {3 1 roll moveto 1 sub {rlineto} repeat} bdef
/AP {{rlineto} repeat} bdef
/PDlw -1 def
/W {/PDlw currentlinewidth def setlinewidth} def
/PP {closepath eofill} bdef
/DP {closepath stroke} bdef
/MR {4 -2 roll moveto dup  0 exch rlineto exch 0 rlineto
  neg 0 exch rlineto closepath} bdef
/FR {MR stroke} bdef
/PR {MR fill} bdef
/L1i {{currentfile picstr readhexstring pop} image} bdef
/tMatrix matrix def
/MakeOval {newpath tMatrix currentmatrix pop translate scale
0 0 1 0 360 arc tMatrix setmatrix} bdef
/FO {MakeOval stroke} bdef
/PO {MakeOval fill} bdef
/PD {currentlinewidth 2 div 0 360 arc fill
   PDlw -1 eq not {PDlw w /PDlw -1 def} if} def
/FA {newpath tMatrix currentmatrix pop translate scale
  0 0 1 5 -2 roll arc tMatrix setmatrix stroke} bdef
/PA {newpath tMatrix currentmatrix pop	translate 0 0 moveto scale
  0 0 1 5 -2 roll arc closepath tMatrix setmatrix fill} bdef
/FAn {newpath tMatrix currentmatrix pop translate scale
  0 0 1 5 -2 roll arcn tMatrix setmatrix stroke} bdef
/PAn {newpath tMatrix currentmatrix pop translate 0 0 moveto scale
  0 0 1 5 -2 roll arcn closepath tMatrix setmatrix fill} bdef
/vradius 0 def /hradius 0 def /lry 0 def
/lrx 0 def /uly 0 def /ulx 0 def /rad 0 def
/MRR {/vradius xdef /hradius xdef /lry xdef /lrx xdef /uly xdef
  /ulx xdef newpath tMatrix currentmatrix pop ulx hradius add uly
  vradius add translate hradius vradius scale 0 0 1 180 270 arc 
  tMatrix setmatrix lrx hradius sub uly vradius add translate
  hradius vradius scale 0 0 1 270 360 arc tMatrix setmatrix
  lrx hradius sub lry vradius sub translate hradius vradius scale
  0 0 1 0 90 arc tMatrix setmatrix ulx hradius add lry vradius sub
  translate hradius vradius scale 0 0 1 90 180 arc tMatrix setmatrix
  closepath} bdef
/FRR {MRR stroke } bdef
/PRR {MRR fill } bdef
/MlrRR {/lry xdef /lrx xdef /uly xdef /ulx xdef /rad lry uly sub 2 div def
  newpath tMatrix currentmatrix pop ulx rad add uly rad add translate
  rad rad scale 0 0 1 90 270 arc tMatrix setmatrix lrx rad sub lry rad
  sub translate rad rad scale 0 0 1 270 90 arc tMatrix setmatrix
  closepath} bdef
/FlrRR {MlrRR stroke } bdef
/PlrRR {MlrRR fill } bdef
/MtbRR {/lry xdef /lrx xdef /uly xdef /ulx xdef /rad lrx ulx sub 2 div def
  newpath tMatrix currentmatrix pop ulx rad add uly rad add translate
  rad rad scale 0 0 1 180 360 arc tMatrix setmatrix lrx rad sub lry rad
  sub translate rad rad scale 0 0 1 0 180 arc tMatrix setmatrix
  closepath} bdef
/FtbRR {MtbRR stroke } bdef
/PtbRR {MtbRR fill } bdef
/stri 6 array def /dtri 6 array def
/smat 6 array def /dmat 6 array def
/tmat1 6 array def /tmat2 6 array def /dif 3 array def
/asub {/ind2 exch def /ind1 exch def dup dup
  ind1 get exch ind2 get sub exch } bdef
/tri_to_matrix {
  2 0 asub 3 1 asub 4 0 asub 5 1 asub
  dup 0 get exch 1 get 7 -1 roll astore } bdef
/compute_transform {
  dmat dtri tri_to_matrix tmat1 invertmatrix 
  smat stri tri_to_matrix tmat2 concatmatrix } bdef
/ds {stri astore pop} bdef
/dt {dtri astore pop} bdef
/db {2 copy /cols xdef /rows xdef mul dup 3 mul string
  currentfile exch readhexstring pop
  dup 0 3 index getinterval /rbmap xdef
  dup 2 index dup getinterval /gbmap xdef
  1 index dup 2 mul exch getinterval /bbmap xdef pop pop}bdef
/it {gs np dtri aload pop moveto lineto lineto cp c
  cols rows 8 compute_transform 
  rbmap gbmap bbmap true 3 colorimage gr}bdef
/il {newpath moveto lineto stroke}bdef
currentdict end def
%%EndProlog

%%BeginSetup
MathWorks begin

0 cap

end
%%EndSetup

%%Page: 1 1
%%BeginPageSetup
%%PageBoundingBox:    55   198   550   602
MathWorks begin
bpage
%%EndPageSetup

%%BeginObject: obj1
bplot

/dpi2point 12 def
portraitMode 0216 7344 csm

  446   110  5941  4853 MR c np
76 dict begin %Colortable dictionary
/c0 { 0.000000 0.000000 0.000000 sr} bdef
/c1 { 1.000000 1.000000 1.000000 sr} bdef
/c2 { 0.900000 0.000000 0.000000 sr} bdef
/c3 { 0.000000 0.820000 0.000000 sr} bdef
/c4 { 0.000000 0.000000 0.800000 sr} bdef
/c5 { 0.910000 0.820000 0.320000 sr} bdef
/c6 { 1.000000 0.260000 0.820000 sr} bdef
/c7 { 0.000000 0.820000 0.820000 sr} bdef
c0
1 j
1 sg
   0    0 6913 5186 PR
6 w
0 1769 2313 0 0 -1769 899 2158 4 MP
PP
-2313 0 0 1769 2313 0 0 -1769 899 2158 5 MP stroke
4 w
DO
SO
6 w
0 sg
 899 2158 mt 3212 2158 L
 899  389 mt 3212  389 L
 899 2158 mt  899  389 L
3212 2158 mt 3212  389 L
 899 2158 mt 3212 2158 L
 899 2158 mt  899  389 L
 899 2158 mt  899 2134 L
 899  389 mt  899  412 L
%%IncludeResource: font Helvetica
/Helvetica /ISOLatin1Encoding 120 FMSR

 866 2303 mt 
(0) s
1361 2158 mt 1361 2134 L
1361  389 mt 1361  412 L
1245 2303 mt 
(0.02) s
1824 2158 mt 1824 2134 L
1824  389 mt 1824  412 L
1708 2303 mt 
(0.04) s
2286 2158 mt 2286 2134 L
2286  389 mt 2286  412 L
2170 2303 mt 
(0.06) s
2749 2158 mt 2749 2134 L
2749  389 mt 2749  412 L
2633 2303 mt 
(0.08) s
3212 2158 mt 3212 2134 L
3212  389 mt 3212  412 L
3129 2303 mt 
(0.1) s
 899 2158 mt  922 2158 L
3212 2158 mt 3188 2158 L
 798 2202 mt 
(0) s
 899 1715 mt  922 1715 L
3212 1715 mt 3188 1715 L
 798 1759 mt 
(5) s
 899 1273 mt  922 1273 L
3212 1273 mt 3188 1273 L
 731 1317 mt 
(10) s
 899  831 mt  922  831 L
3212  831 mt 3188  831 L
 731  875 mt 
(15) s
 899  389 mt  922  389 L
3212  389 mt 3188  389 L
 731  433 mt 
(20) s
 899 2158 mt 3212 2158 L
 899  389 mt 3212  389 L
 899 2158 mt  899  389 L
3212 2158 mt 3212  389 L
24 w
/c8 { 1.000000 0.000000 0.000000 sr} bdef
c8
0 -1769 2749 2158 2 MP stroke
/c9 { 0.000000 0.000000 0.562500 sr} bdef
c9
0 89 8 0 0 -89 2078 2158 4 MP
PP
6 w
0 sg
-8 0 0 89 8 0 0 -89 2078 2158 5 MP stroke
c9
0 0 7 0 0 0 2086 2158 4 MP
PP
0 sg
-7 0 0 0 7 0 0 0 2086 2158 5 MP stroke
c9
0 0 7 0 0 0 2093 2158 4 MP
PP
0 sg
-7 0 0 0 7 0 0 0 2093 2158 5 MP stroke
c9
0 266 8 0 0 -266 2100 2158 4 MP
PP
0 sg
-8 0 0 266 8 0 0 -266 2100 2158 5 MP stroke
c9
0 0 7 0 0 0 2108 2158 4 MP
PP
0 sg
-7 0 0 0 7 0 0 0 2108 2158 5 MP stroke
c9
0 0 8 0 0 0 2115 2158 4 MP
PP
0 sg
-8 0 0 0 8 0 0 0 2115 2158 5 MP stroke
c9
0 620 7 0 0 -620 2123 2158 4 MP
PP
0 sg
-7 0 0 620 7 0 0 -620 2123 2158 5 MP stroke
c9
0 0 7 0 0 0 2130 2158 4 MP
PP
0 sg
-7 0 0 0 7 0 0 0 2130 2158 5 MP stroke
c9
0 0 8 0 0 0 2137 2158 4 MP
PP
0 sg
-8 0 0 0 8 0 0 0 2137 2158 5 MP stroke
c9
0 973 7 0 0 -973 2145 2158 4 MP
PP
0 sg
-7 0 0 973 7 0 0 -973 2145 2158 5 MP stroke
c9
0 0 8 0 0 0 2152 2158 4 MP
PP
0 sg
-8 0 0 0 8 0 0 0 2152 2158 5 MP stroke
c9
0 0 7 0 0 0 2160 2158 4 MP
PP
0 sg
-7 0 0 0 7 0 0 0 2160 2158 5 MP stroke
c9
0 266 7 0 0 -266 2167 2158 4 MP
PP
0 sg
-7 0 0 266 7 0 0 -266 2167 2158 5 MP stroke
c9
0 0 8 0 0 0 2174 2158 4 MP
PP
0 sg
-8 0 0 0 8 0 0 0 2174 2158 5 MP stroke
c9
0 0 7 0 0 0 2182 2158 4 MP
PP
0 sg
-7 0 0 0 7 0 0 0 2182 2158 5 MP stroke
c9
0 177 8 0 0 -177 2189 2158 4 MP
PP
0 sg
-8 0 0 177 8 0 0 -177 2189 2158 5 MP stroke
c9
0 0 7 0 0 0 2197 2158 4 MP
PP
0 sg
-7 0 0 0 7 0 0 0 2197 2158 5 MP stroke
c9
0 0 7 0 0 0 2204 2158 4 MP
PP
0 sg
-7 0 0 0 7 0 0 0 2204 2158 5 MP stroke
c9
0 89 8 0 0 -89 2211 2158 4 MP
PP
0 sg
-8 0 0 89 8 0 0 -89 2211 2158 5 MP stroke
c9
0 0 7 0 0 0 2219 2158 4 MP
PP
0 sg
-7 0 0 0 7 0 0 0 2219 2158 5 MP stroke
c9
0 0 8 0 0 0 2226 2158 4 MP
PP
0 sg
-8 0 0 0 8 0 0 0 2226 2158 5 MP stroke
c9
0 177 7 0 0 -177 2234 2158 4 MP
PP
0 sg
-7 0 0 177 7 0 0 -177 2234 2158 5 MP stroke
c9
0 0 7 0 0 0 2241 2158 4 MP
PP
0 sg
-7 0 0 0 7 0 0 0 2241 2158 5 MP stroke
c9
0 0 8 0 0 0 2248 2158 4 MP
PP
0 sg
-8 0 0 0 8 0 0 0 2248 2158 5 MP stroke
c9
0 89 7 0 0 -89 2256 2158 4 MP
PP
0 sg
-7 0 0 89 7 0 0 -89 2256 2158 5 MP stroke
c9
0 0 8 0 0 0 2263 2158 4 MP
PP
0 sg
-8 0 0 0 8 0 0 0 2263 2158 5 MP stroke
c9
0 0 7 0 0 0 2271 2158 4 MP
PP
0 sg
-7 0 0 0 7 0 0 0 2271 2158 5 MP stroke
c9
0 0 7 0 0 0 2278 2158 4 MP
PP
0 sg
-7 0 0 0 7 0 0 0 2278 2158 5 MP stroke
c9
0 0 8 0 0 0 2285 2158 4 MP
PP
0 sg
-8 0 0 0 8 0 0 0 2285 2158 5 MP stroke
c9
0 0 7 0 0 0 2293 2158 4 MP
PP
0 sg
-7 0 0 0 7 0 0 0 2293 2158 5 MP stroke
c9
0 0 8 0 0 0 2300 2158 4 MP
PP
0 sg
-8 0 0 0 8 0 0 0 2300 2158 5 MP stroke
c9
0 0 7 0 0 0 2308 2158 4 MP
PP
0 sg
-7 0 0 0 7 0 0 0 2308 2158 5 MP stroke
c9
0 0 7 0 0 0 2315 2158 4 MP
PP
0 sg
-7 0 0 0 7 0 0 0 2315 2158 5 MP stroke
c9
0 0 8 0 0 0 2322 2158 4 MP
PP
0 sg
-8 0 0 0 8 0 0 0 2322 2158 5 MP stroke
c9
0 0 7 0 0 0 2330 2158 4 MP
PP
0 sg
-7 0 0 0 7 0 0 0 2330 2158 5 MP stroke
c9
0 0 8 0 0 0 2337 2158 4 MP
PP
0 sg
-8 0 0 0 8 0 0 0 2337 2158 5 MP stroke
c9
0 0 7 0 0 0 2345 2158 4 MP
PP
0 sg
-7 0 0 0 7 0 0 0 2345 2158 5 MP stroke
c9
0 0 7 0 0 0 2352 2158 4 MP
PP
0 sg
-7 0 0 0 7 0 0 0 2352 2158 5 MP stroke
c9
0 0 8 0 0 0 2359 2158 4 MP
PP
0 sg
-8 0 0 0 8 0 0 0 2359 2158 5 MP stroke
c9
0 0 7 0 0 0 2367 2158 4 MP
PP
0 sg
-7 0 0 0 7 0 0 0 2367 2158 5 MP stroke
c9
0 0 8 0 0 0 2374 2158 4 MP
PP
0 sg
-8 0 0 0 8 0 0 0 2374 2158 5 MP stroke
c9
0 0 7 0 0 0 2382 2158 4 MP
PP
0 sg
-7 0 0 0 7 0 0 0 2382 2158 5 MP stroke
c9
0 0 7 0 0 0 2389 2158 4 MP
PP
0 sg
-7 0 0 0 7 0 0 0 2389 2158 5 MP stroke
c9
0 0 8 0 0 0 2396 2158 4 MP
PP
0 sg
-8 0 0 0 8 0 0 0 2396 2158 5 MP stroke
c9
0 0 7 0 0 0 2404 2158 4 MP
PP
0 sg
-7 0 0 0 7 0 0 0 2404 2158 5 MP stroke
c9
0 0 8 0 0 0 2411 2158 4 MP
PP
0 sg
-8 0 0 0 8 0 0 0 2411 2158 5 MP stroke
c9
0 89 7 0 0 -89 2419 2158 4 MP
PP
0 sg
-7 0 0 89 7 0 0 -89 2419 2158 5 MP stroke
c9
0 0 7 0 0 0 2426 2158 4 MP
PP
0 sg
-7 0 0 0 7 0 0 0 2426 2158 5 MP stroke
c9
0 0 8 0 0 0 2433 2158 4 MP
PP
0 sg
-8 0 0 0 8 0 0 0 2433 2158 5 MP stroke
c9
0 0 7 0 0 0 2441 2158 4 MP
PP
0 sg
-7 0 0 0 7 0 0 0 2441 2158 5 MP stroke
c9
0 0 8 0 0 0 2448 2158 4 MP
PP
0 sg
-8 0 0 0 8 0 0 0 2448 2158 5 MP stroke
c9
0 0 7 0 0 0 2456 2158 4 MP
PP
0 sg
-7 0 0 0 7 0 0 0 2456 2158 5 MP stroke
c9
0 0 7 0 0 0 2463 2158 4 MP
PP
0 sg
-7 0 0 0 7 0 0 0 2463 2158 5 MP stroke
c9
0 0 8 0 0 0 2470 2158 4 MP
PP
0 sg
-8 0 0 0 8 0 0 0 2470 2158 5 MP stroke
c9
0 0 7 0 0 0 2478 2158 4 MP
PP
0 sg
-7 0 0 0 7 0 0 0 2478 2158 5 MP stroke
c9
0 0 8 0 0 0 2485 2158 4 MP
PP
0 sg
-8 0 0 0 8 0 0 0 2485 2158 5 MP stroke
c9
0 0 7 0 0 0 2493 2158 4 MP
PP
0 sg
-7 0 0 0 7 0 0 0 2493 2158 5 MP stroke
c9
0 0 7 0 0 0 2500 2158 4 MP
PP
0 sg
-7 0 0 0 7 0 0 0 2500 2158 5 MP stroke
c9
0 0 8 0 0 0 2507 2158 4 MP
PP
0 sg
-8 0 0 0 8 0 0 0 2507 2158 5 MP stroke
c9
0 0 7 0 0 0 2515 2158 4 MP
PP
0 sg
-7 0 0 0 7 0 0 0 2515 2158 5 MP stroke
c9
0 0 8 0 0 0 2522 2158 4 MP
PP
0 sg
-8 0 0 0 8 0 0 0 2522 2158 5 MP stroke
c9
0 0 7 0 0 0 2530 2158 4 MP
PP
0 sg
-7 0 0 0 7 0 0 0 2530 2158 5 MP stroke
c9
0 0 7 0 0 0 2537 2158 4 MP
PP
0 sg
-7 0 0 0 7 0 0 0 2537 2158 5 MP stroke
c9
0 0 8 0 0 0 2544 2158 4 MP
PP
0 sg
-8 0 0 0 8 0 0 0 2544 2158 5 MP stroke
c9
0 0 7 0 0 0 2552 2158 4 MP
PP
0 sg
-7 0 0 0 7 0 0 0 2552 2158 5 MP stroke
c9
0 0 8 0 0 0 2559 2158 4 MP
PP
0 sg
-8 0 0 0 8 0 0 0 2559 2158 5 MP stroke
c9
0 0 7 0 0 0 2567 2158 4 MP
PP
0 sg
-7 0 0 0 7 0 0 0 2567 2158 5 MP stroke
c9
0 0 7 0 0 0 2574 2158 4 MP
PP
0 sg
-7 0 0 0 7 0 0 0 2574 2158 5 MP stroke
c9
0 89 8 0 0 -89 2581 2158 4 MP
PP
0 sg
-8 0 0 89 8 0 0 -89 2581 2158 5 MP stroke
c9
0 0 7 0 0 0 2589 2158 4 MP
PP
0 sg
-7 0 0 0 7 0 0 0 2589 2158 5 MP stroke
c9
0 0 8 0 0 0 2596 2158 4 MP
PP
0 sg
-8 0 0 0 8 0 0 0 2596 2158 5 MP stroke
c9
0 0 7 0 0 0 2604 2158 4 MP
PP
0 sg
-7 0 0 0 7 0 0 0 2604 2158 5 MP stroke
c9
0 0 7 0 0 0 2611 2158 4 MP
PP
0 sg
-7 0 0 0 7 0 0 0 2611 2158 5 MP stroke
c9
0 0 8 0 0 0 2618 2158 4 MP
PP
0 sg
-8 0 0 0 8 0 0 0 2618 2158 5 MP stroke
c9
0 0 7 0 0 0 2626 2158 4 MP
PP
0 sg
-7 0 0 0 7 0 0 0 2626 2158 5 MP stroke
c9
0 0 8 0 0 0 2633 2158 4 MP
PP
0 sg
-8 0 0 0 8 0 0 0 2633 2158 5 MP stroke
c9
0 0 7 0 0 0 2641 2158 4 MP
PP
0 sg
-7 0 0 0 7 0 0 0 2641 2158 5 MP stroke
c9
0 0 7 0 0 0 2648 2158 4 MP
PP
0 sg
-7 0 0 0 7 0 0 0 2648 2158 5 MP stroke
c9
0 0 8 0 0 0 2655 2158 4 MP
PP
0 sg
-8 0 0 0 8 0 0 0 2655 2158 5 MP stroke
c9
0 0 7 0 0 0 2663 2158 4 MP
PP
0 sg
-7 0 0 0 7 0 0 0 2663 2158 5 MP stroke
c9
0 0 8 0 0 0 2670 2158 4 MP
PP
0 sg
-8 0 0 0 8 0 0 0 2670 2158 5 MP stroke
c9
0 177 7 0 0 -177 2678 2158 4 MP
PP
0 sg
-7 0 0 177 7 0 0 -177 2678 2158 5 MP stroke
c9
0 0 7 0 0 0 2685 2158 4 MP
PP
0 sg
-7 0 0 0 7 0 0 0 2685 2158 5 MP stroke
c9
0 0 8 0 0 0 2692 2158 4 MP
PP
0 sg
-8 0 0 0 8 0 0 0 2692 2158 5 MP stroke
c9
0 89 7 0 0 -89 2700 2158 4 MP
PP
0 sg
-7 0 0 89 7 0 0 -89 2700 2158 5 MP stroke
c9
0 0 8 0 0 0 2707 2158 4 MP
PP
0 sg
-8 0 0 0 8 0 0 0 2707 2158 5 MP stroke
c9
0 0 7 0 0 0 2715 2158 4 MP
PP
0 sg
-7 0 0 0 7 0 0 0 2715 2158 5 MP stroke
c9
0 1062 7 0 0 -1062 2722 2158 4 MP
PP
0 sg
-7 0 0 1062 7 0 0 -1062 2722 2158 5 MP stroke
c9
0 0 8 0 0 0 2729 2158 4 MP
PP
0 sg
-8 0 0 0 8 0 0 0 2729 2158 5 MP stroke
c9
0 0 7 0 0 0 2737 2158 4 MP
PP
0 sg
-7 0 0 0 7 0 0 0 2737 2158 5 MP stroke
c9
0 1593 8 0 0 -1593 2744 2158 4 MP
PP
0 sg
-8 0 0 1593 8 0 0 -1593 2744 2158 5 MP stroke
c9
0 0 7 0 0 0 2752 2158 4 MP
PP
0 sg
-7 0 0 0 7 0 0 0 2752 2158 5 MP stroke
c9
0 0 7 0 0 0 2759 2158 4 MP
PP
0 sg
-7 0 0 0 7 0 0 0 2759 2158 5 MP stroke
c9
0 1150 8 0 0 -1150 2766 2158 4 MP
PP
0 sg
-8 0 0 1150 8 0 0 -1150 2766 2158 5 MP stroke
c9
0 0 7 0 0 0 2774 2158 4 MP
PP
0 sg
-7 0 0 0 7 0 0 0 2774 2158 5 MP stroke
c9
0 0 8 0 0 0 2781 2158 4 MP
PP
0 sg
-8 0 0 0 8 0 0 0 2781 2158 5 MP stroke
c9
0 797 7 0 0 -797 2789 2158 4 MP
PP
0 sg
-7 0 0 797 7 0 0 -797 2789 2158 5 MP stroke
c9
0 0 7 0 0 0 2796 2158 4 MP
PP
0 sg
-7 0 0 0 7 0 0 0 2796 2158 5 MP stroke
c9
0 0 8 0 0 0 2803 2158 4 MP
PP
0 sg
-8 0 0 0 8 0 0 0 2803 2158 5 MP stroke
c9
0 0 7 0 0 0 2811 2158 4 MP
PP
0 sg
-7 0 0 0 7 0 0 0 2811 2158 5 MP stroke
c9
0 266 8 0 0 -266 2818 2158 4 MP
PP
0 sg
-8 0 0 266 8 0 0 -266 2818 2158 5 MP stroke
c9
0 0 7 0 0 0 2826 2158 4 MP
PP
0 sg
-7 0 0 0 7 0 0 0 2826 2158 5 MP stroke
c9
0 0 7 0 0 0 2833 2158 4 MP
PP
0 sg
-7 0 0 0 7 0 0 0 2833 2158 5 MP stroke
c9
0 89 8 0 0 -89 2840 2158 4 MP
PP
0 sg
-8 0 0 89 8 0 0 -89 2840 2158 5 MP stroke
c9
0 0 7 0 0 0 2848 2158 4 MP
PP
0 sg
-7 0 0 0 7 0 0 0 2848 2158 5 MP stroke
c9
0 0 8 0 0 0 2855 2158 4 MP
PP
0 sg
-8 0 0 0 8 0 0 0 2855 2158 5 MP stroke
c9
0 266 7 0 0 -266 2863 2158 4 MP
PP
0 sg
-7 0 0 266 7 0 0 -266 2863 2158 5 MP stroke
c9
0 0 8 0 0 0 2870 2158 4 MP
PP
0 sg
-8 0 0 0 8 0 0 0 2870 2158 5 MP stroke
c9
0 0 7 0 0 0 2878 2158 4 MP
PP
0 sg
-7 0 0 0 7 0 0 0 2878 2158 5 MP stroke
c9
0 0 7 0 0 0 2885 2158 4 MP
PP
0 sg
-7 0 0 0 7 0 0 0 2885 2158 5 MP stroke
c9
0 0 8 0 0 0 2892 2158 4 MP
PP
0 sg
-8 0 0 0 8 0 0 0 2892 2158 5 MP stroke
c9
0 0 7 0 0 0 2900 2158 4 MP
PP
0 sg
-7 0 0 0 7 0 0 0 2900 2158 5 MP stroke
c9
0 0 8 0 0 0 2907 2158 4 MP
PP
0 sg
-8 0 0 0 8 0 0 0 2907 2158 5 MP stroke
c9
0 0 7 0 0 0 2915 2158 4 MP
PP
0 sg
-7 0 0 0 7 0 0 0 2915 2158 5 MP stroke
c9
0 0 7 0 0 0 2922 2158 4 MP
PP
0 sg
-7 0 0 0 7 0 0 0 2922 2158 5 MP stroke
c9
0 89 8 0 0 -89 2929 2158 4 MP
PP
0 sg
-8 0 0 89 8 0 0 -89 2929 2158 5 MP stroke
c9
0 0 7 0 0 0 2937 2158 4 MP
PP
0 sg
-7 0 0 0 7 0 0 0 2937 2158 5 MP stroke
c9
0 0 8 0 0 0 2944 2158 4 MP
PP
0 sg
-8 0 0 0 8 0 0 0 2944 2158 5 MP stroke
c9
0 177 7 0 0 -177 2952 2158 4 MP
PP
0 sg
-7 0 0 177 7 0 0 -177 2952 2158 5 MP stroke
c9
0 0 7 0 0 0 2959 2158 4 MP
PP
0 sg
-7 0 0 0 7 0 0 0 2959 2158 5 MP stroke
c9
0 0 8 0 0 0 2966 2158 4 MP
PP
0 sg
-8 0 0 0 8 0 0 0 2966 2158 5 MP stroke
c9
0 0 7 0 0 0 2974 2158 4 MP
PP
0 sg
-7 0 0 0 7 0 0 0 2974 2158 5 MP stroke
c9
0 0 8 0 0 0 2981 2158 4 MP
PP
0 sg
-8 0 0 0 8 0 0 0 2981 2158 5 MP stroke
c9
0 0 7 0 0 0 2989 2158 4 MP
PP
0 sg
-7 0 0 0 7 0 0 0 2989 2158 5 MP stroke
c9
0 89 7 0 0 -89 2996 2158 4 MP
PP
0 sg
-7 0 0 89 7 0 0 -89 2996 2158 5 MP stroke
c9
0 0 8 0 0 0 3003 2158 4 MP
PP
0 sg
-8 0 0 0 8 0 0 0 3003 2158 5 MP stroke
c9
0 0 7 0 0 0 3011 2158 4 MP
PP
0 sg
-7 0 0 0 7 0 0 0 3011 2158 5 MP stroke
c9
0 0 8 0 0 0 3018 2158 4 MP
PP
0 sg
-8 0 0 0 8 0 0 0 3018 2158 5 MP stroke
c9
0 0 7 0 0 0 3026 2158 4 MP
PP
0 sg
-7 0 0 0 7 0 0 0 3026 2158 5 MP stroke
c9
0 0 7 0 0 0 3033 2158 4 MP
PP
0 sg
-7 0 0 0 7 0 0 0 3033 2158 5 MP stroke
c9
0 0 8 0 0 0 3040 2158 4 MP
PP
0 sg
-8 0 0 0 8 0 0 0 3040 2158 5 MP stroke
c9
0 89 7 0 0 -89 3048 2158 4 MP
PP
0 sg
-7 0 0 89 7 0 0 -89 3048 2158 5 MP stroke
c9
0 0 8 0 0 0 3055 2158 4 MP
PP
0 sg
-8 0 0 0 8 0 0 0 3055 2158 5 MP stroke
c9
0 0 7 0 0 0 3063 2158 4 MP
PP
0 sg
-7 0 0 0 7 0 0 0 3063 2158 5 MP stroke
c9
0 0 7 0 0 0 3070 2158 4 MP
PP
0 sg
-7 0 0 0 7 0 0 0 3070 2158 5 MP stroke
c9
0 0 8 0 0 0 3077 2158 4 MP
PP
0 sg
-8 0 0 0 8 0 0 0 3077 2158 5 MP stroke
c9
0 0 7 0 0 0 3085 2158 4 MP
PP
0 sg
-7 0 0 0 7 0 0 0 3085 2158 5 MP stroke
c9
0 0 8 0 0 0 3092 2158 4 MP
PP
0 sg
-8 0 0 0 8 0 0 0 3092 2158 5 MP stroke
c9
0 0 7 0 0 0 3100 2158 4 MP
PP
0 sg
-7 0 0 0 7 0 0 0 3100 2158 5 MP stroke
c9
0 0 7 0 0 0 3107 2158 4 MP
PP
0 sg
-7 0 0 0 7 0 0 0 3107 2158 5 MP stroke
c9
0 0 8 0 0 0 3114 2158 4 MP
PP
0 sg
-8 0 0 0 8 0 0 0 3114 2158 5 MP stroke
c9
0 0 7 0 0 0 3122 2158 4 MP
PP
0 sg
-7 0 0 0 7 0 0 0 3122 2158 5 MP stroke
c9
0 0 8 0 0 0 3129 2158 4 MP
PP
0 sg
-8 0 0 0 8 0 0 0 3129 2158 5 MP stroke
c9
0 0 7 0 0 0 3137 2158 4 MP
PP
0 sg
-7 0 0 0 7 0 0 0 3137 2158 5 MP stroke
c9
0 0 7 0 0 0 3144 2158 4 MP
PP
0 sg
-7 0 0 0 7 0 0 0 3144 2158 5 MP stroke
c9
0 0 8 0 0 0 3151 2158 4 MP
PP
0 sg
-8 0 0 0 8 0 0 0 3151 2158 5 MP stroke
c9
0 0 7 0 0 0 3159 2158 4 MP
PP
0 sg
-7 0 0 0 7 0 0 0 3159 2158 5 MP stroke
c9
0 0 8 0 0 0 3166 2158 4 MP
PP
0 sg
-8 0 0 0 8 0 0 0 3166 2158 5 MP stroke
c9
0 0 7 0 0 0 3174 2158 4 MP
PP
0 sg
-7 0 0 0 7 0 0 0 3174 2158 5 MP stroke
c9
0 89 7 0 0 -89 3181 2158 4 MP
PP
0 sg
-7 0 0 89 7 0 0 -89 3181 2158 5 MP stroke
1834 2446 mt 
(Time \(s\)) s
 649 1434 mt  -90 rotate
(Count) s
90 rotate
1953  294 mt 
(n=2) s
1 sg
0 1769 2313 0 0 -1769 3942 2158 4 MP
PP
-2313 0 0 1769 2313 0 0 -1769 3942 2158 5 MP stroke
4 w
DO
SO
6 w
0 sg
3942 2158 mt 6255 2158 L
3942  389 mt 6255  389 L
3942 2158 mt 3942  389 L
6255 2158 mt 6255  389 L
3942 2158 mt 6255 2158 L
3942 2158 mt 3942  389 L
3942 2158 mt 3942 2134 L
3942  389 mt 3942  412 L
3909 2303 mt 
(0) s
4713 2158 mt 4713 2134 L
4713  389 mt 4713  412 L
4630 2303 mt 
(0.5) s
5484 2158 mt 5484 2134 L
5484  389 mt 5484  412 L
5451 2303 mt 
(1) s
6255 2158 mt 6255 2134 L
6255  389 mt 6255  412 L
6172 2303 mt 
(1.5) s
3942 2158 mt 3965 2158 L
6255 2158 mt 6231 2158 L
3841 2202 mt 
(0) s
3942 1715 mt 3965 1715 L
6255 1715 mt 6231 1715 L
3841 1759 mt 
(2) s
3942 1273 mt 3965 1273 L
6255 1273 mt 6231 1273 L
3841 1317 mt 
(4) s
3942  831 mt 3965  831 L
6255  831 mt 6231  831 L
3841  875 mt 
(6) s
3942  389 mt 3965  389 L
6255  389 mt 6231  389 L
3841  433 mt 
(8) s
3942 2158 mt 6255 2158 L
3942  389 mt 6255  389 L
3942 2158 mt 3942  389 L
6255 2158 mt 6255  389 L
24 w
c8
0 -1769 4262 2158 2 MP stroke
c9
0 222 10 0 0 -222 4113 2158 4 MP
PP
6 w
0 sg
-10 0 0 222 10 0 0 -222 4113 2158 5 MP stroke
c9
0 443 10 0 0 -443 4123 2158 4 MP
PP
0 sg
-10 0 0 443 10 0 0 -443 4123 2158 5 MP stroke
c9
0 885 10 0 0 -885 4133 2158 4 MP
PP
0 sg
-10 0 0 885 10 0 0 -885 4133 2158 5 MP stroke
c9
0 664 10 0 0 -664 4143 2158 4 MP
PP
0 sg
-10 0 0 664 10 0 0 -664 4143 2158 5 MP stroke
c9
0 885 10 0 0 -885 4153 2158 4 MP
PP
0 sg
-10 0 0 885 10 0 0 -885 4153 2158 5 MP stroke
c9
0 1106 10 0 0 -1106 4163 2158 4 MP
PP
0 sg
-10 0 0 1106 10 0 0 -1106 4163 2158 5 MP stroke
c9
0 1106 11 0 0 -1106 4173 2158 4 MP
PP
0 sg
-11 0 0 1106 11 0 0 -1106 4173 2158 5 MP stroke
c9
0 885 10 0 0 -885 4184 2158 4 MP
PP
0 sg
-10 0 0 885 10 0 0 -885 4184 2158 5 MP stroke
c9
0 443 10 0 0 -443 4194 2158 4 MP
PP
0 sg
-10 0 0 443 10 0 0 -443 4194 2158 5 MP stroke
c9
0 664 10 0 0 -664 4204 2158 4 MP
PP
0 sg
-10 0 0 664 10 0 0 -664 4204 2158 5 MP stroke
c9
0 443 10 0 0 -443 4214 2158 4 MP
PP
0 sg
-10 0 0 443 10 0 0 -443 4214 2158 5 MP stroke
c9
0 443 10 0 0 -443 4224 2158 4 MP
PP
0 sg
-10 0 0 443 10 0 0 -443 4224 2158 5 MP stroke
c9
0 1106 10 0 0 -1106 4234 2158 4 MP
PP
0 sg
-10 0 0 1106 10 0 0 -1106 4234 2158 5 MP stroke
c9
0 443 11 0 0 -443 4244 2158 4 MP
PP
0 sg
-11 0 0 443 11 0 0 -443 4244 2158 5 MP stroke
c9
0 1769 10 0 0 -1769 4255 2158 4 MP
PP
0 sg
-10 0 0 1769 10 0 0 -1769 4255 2158 5 MP stroke
c9
0 1106 10 0 0 -1106 4265 2158 4 MP
PP
0 sg
-10 0 0 1106 10 0 0 -1106 4265 2158 5 MP stroke
c9
0 443 10 0 0 -443 4275 2158 4 MP
PP
0 sg
-10 0 0 443 10 0 0 -443 4275 2158 5 MP stroke
c9
0 443 10 0 0 -443 4285 2158 4 MP
PP
0 sg
-10 0 0 443 10 0 0 -443 4285 2158 5 MP stroke
c9
0 664 10 0 0 -664 4295 2158 4 MP
PP
0 sg
-10 0 0 664 10 0 0 -664 4295 2158 5 MP stroke
c9
0 664 10 0 0 -664 4305 2158 4 MP
PP
0 sg
-10 0 0 664 10 0 0 -664 4305 2158 5 MP stroke
c9
0 664 11 0 0 -664 4315 2158 4 MP
PP
0 sg
-11 0 0 664 11 0 0 -664 4315 2158 5 MP stroke
c9
0 0 10 0 0 0 4326 2158 4 MP
PP
0 sg
-10 0 0 0 10 0 0 0 4326 2158 5 MP stroke
c9
0 0 10 0 0 0 4336 2158 4 MP
PP
0 sg
-10 0 0 0 10 0 0 0 4336 2158 5 MP stroke
c9
0 443 10 0 0 -443 4346 2158 4 MP
PP
0 sg
-10 0 0 443 10 0 0 -443 4346 2158 5 MP stroke
c9
0 443 10 0 0 -443 4356 2158 4 MP
PP
0 sg
-10 0 0 443 10 0 0 -443 4356 2158 5 MP stroke
c9
0 222 10 0 0 -222 4366 2158 4 MP
PP
0 sg
-10 0 0 222 10 0 0 -222 4366 2158 5 MP stroke
c9
0 443 10 0 0 -443 4376 2158 4 MP
PP
0 sg
-10 0 0 443 10 0 0 -443 4376 2158 5 MP stroke
c9
0 443 10 0 0 -443 4386 2158 4 MP
PP
0 sg
-10 0 0 443 10 0 0 -443 4386 2158 5 MP stroke
c9
0 443 11 0 0 -443 4396 2158 4 MP
PP
0 sg
-11 0 0 443 11 0 0 -443 4396 2158 5 MP stroke
c9
0 1106 10 0 0 -1106 4407 2158 4 MP
PP
0 sg
-10 0 0 1106 10 0 0 -1106 4407 2158 5 MP stroke
c9
0 0 10 0 0 0 4417 2158 4 MP
PP
0 sg
-10 0 0 0 10 0 0 0 4417 2158 5 MP stroke
c9
0 222 10 0 0 -222 4427 2158 4 MP
PP
0 sg
-10 0 0 222 10 0 0 -222 4427 2158 5 MP stroke
c9
0 0 10 0 0 0 4437 2158 4 MP
PP
0 sg
-10 0 0 0 10 0 0 0 4437 2158 5 MP stroke
c9
0 443 10 0 0 -443 4447 2158 4 MP
PP
0 sg
-10 0 0 443 10 0 0 -443 4447 2158 5 MP stroke
c9
0 0 10 0 0 0 4457 2158 4 MP
PP
0 sg
-10 0 0 0 10 0 0 0 4457 2158 5 MP stroke
c9
0 0 11 0 0 0 4467 2158 4 MP
PP
0 sg
-11 0 0 0 11 0 0 0 4467 2158 5 MP stroke
c9
0 0 10 0 0 0 4478 2158 4 MP
PP
0 sg
-10 0 0 0 10 0 0 0 4478 2158 5 MP stroke
c9
0 443 10 0 0 -443 4488 2158 4 MP
PP
0 sg
-10 0 0 443 10 0 0 -443 4488 2158 5 MP stroke
c9
0 222 10 0 0 -222 4498 2158 4 MP
PP
0 sg
-10 0 0 222 10 0 0 -222 4498 2158 5 MP stroke
c9
0 0 10 0 0 0 4508 2158 4 MP
PP
0 sg
-10 0 0 0 10 0 0 0 4508 2158 5 MP stroke
c9
0 443 10 0 0 -443 4518 2158 4 MP
PP
0 sg
-10 0 0 443 10 0 0 -443 4518 2158 5 MP stroke
c9
0 0 10 0 0 0 4528 2158 4 MP
PP
0 sg
-10 0 0 0 10 0 0 0 4528 2158 5 MP stroke
c9
0 222 11 0 0 -222 4538 2158 4 MP
PP
0 sg
-11 0 0 222 11 0 0 -222 4538 2158 5 MP stroke
c9
0 0 10 0 0 0 4549 2158 4 MP
PP
0 sg
-10 0 0 0 10 0 0 0 4549 2158 5 MP stroke
c9
0 0 10 0 0 0 4559 2158 4 MP
PP
0 sg
-10 0 0 0 10 0 0 0 4559 2158 5 MP stroke
c9
0 0 10 0 0 0 4569 2158 4 MP
PP
0 sg
-10 0 0 0 10 0 0 0 4569 2158 5 MP stroke
c9
0 0 10 0 0 0 4579 2158 4 MP
PP
0 sg
-10 0 0 0 10 0 0 0 4579 2158 5 MP stroke
c9
0 0 10 0 0 0 4589 2158 4 MP
PP
0 sg
-10 0 0 0 10 0 0 0 4589 2158 5 MP stroke
c9
0 222 10 0 0 -222 4599 2158 4 MP
PP
0 sg
-10 0 0 222 10 0 0 -222 4599 2158 5 MP stroke
c9
0 0 10 0 0 0 4609 2158 4 MP
PP
0 sg
-10 0 0 0 10 0 0 0 4609 2158 5 MP stroke
c9
0 0 11 0 0 0 4619 2158 4 MP
PP
0 sg
-11 0 0 0 11 0 0 0 4619 2158 5 MP stroke
c9
0 0 10 0 0 0 4630 2158 4 MP
PP
0 sg
-10 0 0 0 10 0 0 0 4630 2158 5 MP stroke
c9
0 0 10 0 0 0 4640 2158 4 MP
PP
0 sg
-10 0 0 0 10 0 0 0 4640 2158 5 MP stroke
c9
0 0 10 0 0 0 4650 2158 4 MP
PP
0 sg
-10 0 0 0 10 0 0 0 4650 2158 5 MP stroke
c9
0 0 10 0 0 0 4660 2158 4 MP
PP
0 sg
-10 0 0 0 10 0 0 0 4660 2158 5 MP stroke
c9
0 222 10 0 0 -222 4670 2158 4 MP
PP
0 sg
-10 0 0 222 10 0 0 -222 4670 2158 5 MP stroke
c9
0 222 10 0 0 -222 4680 2158 4 MP
PP
0 sg
-10 0 0 222 10 0 0 -222 4680 2158 5 MP stroke
c9
0 0 11 0 0 0 4690 2158 4 MP
PP
0 sg
-11 0 0 0 11 0 0 0 4690 2158 5 MP stroke
c9
0 0 10 0 0 0 4701 2158 4 MP
PP
0 sg
-10 0 0 0 10 0 0 0 4701 2158 5 MP stroke
c9
0 0 10 0 0 0 4711 2158 4 MP
PP
0 sg
-10 0 0 0 10 0 0 0 4711 2158 5 MP stroke
c9
0 0 10 0 0 0 4721 2158 4 MP
PP
0 sg
-10 0 0 0 10 0 0 0 4721 2158 5 MP stroke
c9
0 0 10 0 0 0 4731 2158 4 MP
PP
0 sg
-10 0 0 0 10 0 0 0 4731 2158 5 MP stroke
c9
0 0 10 0 0 0 4741 2158 4 MP
PP
0 sg
-10 0 0 0 10 0 0 0 4741 2158 5 MP stroke
c9
0 0 10 0 0 0 4751 2158 4 MP
PP
0 sg
-10 0 0 0 10 0 0 0 4751 2158 5 MP stroke
c9
0 0 11 0 0 0 4761 2158 4 MP
PP
0 sg
-11 0 0 0 11 0 0 0 4761 2158 5 MP stroke
c9
0 0 10 0 0 0 4772 2158 4 MP
PP
0 sg
-10 0 0 0 10 0 0 0 4772 2158 5 MP stroke
c9
0 0 10 0 0 0 4782 2158 4 MP
PP
0 sg
-10 0 0 0 10 0 0 0 4782 2158 5 MP stroke
c9
0 0 10 0 0 0 4792 2158 4 MP
PP
0 sg
-10 0 0 0 10 0 0 0 4792 2158 5 MP stroke
c9
0 0 10 0 0 0 4802 2158 4 MP
PP
0 sg
-10 0 0 0 10 0 0 0 4802 2158 5 MP stroke
c9
0 0 10 0 0 0 4812 2158 4 MP
PP
0 sg
-10 0 0 0 10 0 0 0 4812 2158 5 MP stroke
c9
0 0 10 0 0 0 4822 2158 4 MP
PP
0 sg
-10 0 0 0 10 0 0 0 4822 2158 5 MP stroke
c9
0 0 10 0 0 0 4832 2158 4 MP
PP
0 sg
-10 0 0 0 10 0 0 0 4832 2158 5 MP stroke
c9
0 0 11 0 0 0 4842 2158 4 MP
PP
0 sg
-11 0 0 0 11 0 0 0 4842 2158 5 MP stroke
c9
0 0 10 0 0 0 4853 2158 4 MP
PP
0 sg
-10 0 0 0 10 0 0 0 4853 2158 5 MP stroke
c9
0 0 10 0 0 0 4863 2158 4 MP
PP
0 sg
-10 0 0 0 10 0 0 0 4863 2158 5 MP stroke
c9
0 222 10 0 0 -222 4873 2158 4 MP
PP
0 sg
-10 0 0 222 10 0 0 -222 4873 2158 5 MP stroke
c9
0 222 10 0 0 -222 4883 2158 4 MP
PP
0 sg
-10 0 0 222 10 0 0 -222 4883 2158 5 MP stroke
c9
0 0 10 0 0 0 4893 2158 4 MP
PP
0 sg
-10 0 0 0 10 0 0 0 4893 2158 5 MP stroke
c9
0 0 10 0 0 0 4903 2158 4 MP
PP
0 sg
-10 0 0 0 10 0 0 0 4903 2158 5 MP stroke
c9
0 0 11 0 0 0 4913 2158 4 MP
PP
0 sg
-11 0 0 0 11 0 0 0 4913 2158 5 MP stroke
c9
0 0 10 0 0 0 4924 2158 4 MP
PP
0 sg
-10 0 0 0 10 0 0 0 4924 2158 5 MP stroke
c9
0 0 10 0 0 0 4934 2158 4 MP
PP
0 sg
-10 0 0 0 10 0 0 0 4934 2158 5 MP stroke
c9
0 0 10 0 0 0 4944 2158 4 MP
PP
0 sg
-10 0 0 0 10 0 0 0 4944 2158 5 MP stroke
c9
0 0 10 0 0 0 4954 2158 4 MP
PP
0 sg
-10 0 0 0 10 0 0 0 4954 2158 5 MP stroke
c9
0 0 10 0 0 0 4964 2158 4 MP
PP
0 sg
-10 0 0 0 10 0 0 0 4964 2158 5 MP stroke
c9
0 0 10 0 0 0 4974 2158 4 MP
PP
0 sg
-10 0 0 0 10 0 0 0 4974 2158 5 MP stroke
c9
0 0 11 0 0 0 4984 2158 4 MP
PP
0 sg
-11 0 0 0 11 0 0 0 4984 2158 5 MP stroke
c9
0 0 10 0 0 0 4995 2158 4 MP
PP
0 sg
-10 0 0 0 10 0 0 0 4995 2158 5 MP stroke
c9
0 0 10 0 0 0 5005 2158 4 MP
PP
0 sg
-10 0 0 0 10 0 0 0 5005 2158 5 MP stroke
c9
0 0 10 0 0 0 5015 2158 4 MP
PP
0 sg
-10 0 0 0 10 0 0 0 5015 2158 5 MP stroke
c9
0 0 10 0 0 0 5025 2158 4 MP
PP
0 sg
-10 0 0 0 10 0 0 0 5025 2158 5 MP stroke
c9
0 0 10 0 0 0 5035 2158 4 MP
PP
0 sg
-10 0 0 0 10 0 0 0 5035 2158 5 MP stroke
c9
0 0 10 0 0 0 5045 2158 4 MP
PP
0 sg
-10 0 0 0 10 0 0 0 5045 2158 5 MP stroke
c9
0 0 10 0 0 0 5055 2158 4 MP
PP
0 sg
-10 0 0 0 10 0 0 0 5055 2158 5 MP stroke
c9
0 0 11 0 0 0 5065 2158 4 MP
PP
0 sg
-11 0 0 0 11 0 0 0 5065 2158 5 MP stroke
c9
0 0 10 0 0 0 5076 2158 4 MP
PP
0 sg
-10 0 0 0 10 0 0 0 5076 2158 5 MP stroke
c9
0 0 10 0 0 0 5086 2158 4 MP
PP
0 sg
-10 0 0 0 10 0 0 0 5086 2158 5 MP stroke
c9
0 0 10 0 0 0 5096 2158 4 MP
PP
0 sg
-10 0 0 0 10 0 0 0 5096 2158 5 MP stroke
c9
0 0 10 0 0 0 5106 2158 4 MP
PP
0 sg
-10 0 0 0 10 0 0 0 5106 2158 5 MP stroke
c9
0 0 10 0 0 0 5116 2158 4 MP
PP
0 sg
-10 0 0 0 10 0 0 0 5116 2158 5 MP stroke
c9
0 0 10 0 0 0 5126 2158 4 MP
PP
0 sg
-10 0 0 0 10 0 0 0 5126 2158 5 MP stroke
c9
0 0 11 0 0 0 5136 2158 4 MP
PP
0 sg
-11 0 0 0 11 0 0 0 5136 2158 5 MP stroke
c9
0 0 10 0 0 0 5147 2158 4 MP
PP
0 sg
-10 0 0 0 10 0 0 0 5147 2158 5 MP stroke
c9
0 0 10 0 0 0 5157 2158 4 MP
PP
0 sg
-10 0 0 0 10 0 0 0 5157 2158 5 MP stroke
c9
0 0 10 0 0 0 5167 2158 4 MP
PP
0 sg
-10 0 0 0 10 0 0 0 5167 2158 5 MP stroke
c9
0 0 10 0 0 0 5177 2158 4 MP
PP
0 sg
-10 0 0 0 10 0 0 0 5177 2158 5 MP stroke
c9
0 0 10 0 0 0 5187 2158 4 MP
PP
0 sg
-10 0 0 0 10 0 0 0 5187 2158 5 MP stroke
c9
0 0 10 0 0 0 5197 2158 4 MP
PP
0 sg
-10 0 0 0 10 0 0 0 5197 2158 5 MP stroke
c9
0 0 10 0 0 0 5207 2158 4 MP
PP
0 sg
-10 0 0 0 10 0 0 0 5207 2158 5 MP stroke
c9
0 0 11 0 0 0 5217 2158 4 MP
PP
0 sg
-11 0 0 0 11 0 0 0 5217 2158 5 MP stroke
c9
0 0 10 0 0 0 5228 2158 4 MP
PP
0 sg
-10 0 0 0 10 0 0 0 5228 2158 5 MP stroke
c9
0 0 10 0 0 0 5238 2158 4 MP
PP
0 sg
-10 0 0 0 10 0 0 0 5238 2158 5 MP stroke
c9
0 0 10 0 0 0 5248 2158 4 MP
PP
0 sg
-10 0 0 0 10 0 0 0 5248 2158 5 MP stroke
c9
0 0 10 0 0 0 5258 2158 4 MP
PP
0 sg
-10 0 0 0 10 0 0 0 5258 2158 5 MP stroke
c9
0 0 10 0 0 0 5268 2158 4 MP
PP
0 sg
-10 0 0 0 10 0 0 0 5268 2158 5 MP stroke
c9
0 0 10 0 0 0 5278 2158 4 MP
PP
0 sg
-10 0 0 0 10 0 0 0 5278 2158 5 MP stroke
c9
0 0 11 0 0 0 5288 2158 4 MP
PP
0 sg
-11 0 0 0 11 0 0 0 5288 2158 5 MP stroke
c9
0 0 10 0 0 0 5299 2158 4 MP
PP
0 sg
-10 0 0 0 10 0 0 0 5299 2158 5 MP stroke
c9
0 0 10 0 0 0 5309 2158 4 MP
PP
0 sg
-10 0 0 0 10 0 0 0 5309 2158 5 MP stroke
c9
0 0 10 0 0 0 5319 2158 4 MP
PP
0 sg
-10 0 0 0 10 0 0 0 5319 2158 5 MP stroke
c9
0 0 10 0 0 0 5329 2158 4 MP
PP
0 sg
-10 0 0 0 10 0 0 0 5329 2158 5 MP stroke
c9
0 0 10 0 0 0 5339 2158 4 MP
PP
0 sg
-10 0 0 0 10 0 0 0 5339 2158 5 MP stroke
c9
0 0 10 0 0 0 5349 2158 4 MP
PP
0 sg
-10 0 0 0 10 0 0 0 5349 2158 5 MP stroke
c9
0 0 11 0 0 0 5359 2158 4 MP
PP
0 sg
-11 0 0 0 11 0 0 0 5359 2158 5 MP stroke
c9
0 0 10 0 0 0 5370 2158 4 MP
PP
0 sg
-10 0 0 0 10 0 0 0 5370 2158 5 MP stroke
c9
0 0 10 0 0 0 5380 2158 4 MP
PP
0 sg
-10 0 0 0 10 0 0 0 5380 2158 5 MP stroke
c9
0 0 10 0 0 0 5390 2158 4 MP
PP
0 sg
-10 0 0 0 10 0 0 0 5390 2158 5 MP stroke
c9
0 0 10 0 0 0 5400 2158 4 MP
PP
0 sg
-10 0 0 0 10 0 0 0 5400 2158 5 MP stroke
c9
0 0 10 0 0 0 5410 2158 4 MP
PP
0 sg
-10 0 0 0 10 0 0 0 5410 2158 5 MP stroke
c9
0 0 10 0 0 0 5420 2158 4 MP
PP
0 sg
-10 0 0 0 10 0 0 0 5420 2158 5 MP stroke
c9
0 0 10 0 0 0 5430 2158 4 MP
PP
0 sg
-10 0 0 0 10 0 0 0 5430 2158 5 MP stroke
c9
0 0 11 0 0 0 5440 2158 4 MP
PP
0 sg
-11 0 0 0 11 0 0 0 5440 2158 5 MP stroke
c9
0 0 10 0 0 0 5451 2158 4 MP
PP
0 sg
-10 0 0 0 10 0 0 0 5451 2158 5 MP stroke
c9
0 0 10 0 0 0 5461 2158 4 MP
PP
0 sg
-10 0 0 0 10 0 0 0 5461 2158 5 MP stroke
c9
0 0 10 0 0 0 5471 2158 4 MP
PP
0 sg
-10 0 0 0 10 0 0 0 5471 2158 5 MP stroke
c9
0 0 10 0 0 0 5481 2158 4 MP
PP
0 sg
-10 0 0 0 10 0 0 0 5481 2158 5 MP stroke
c9
0 0 10 0 0 0 5491 2158 4 MP
PP
0 sg
-10 0 0 0 10 0 0 0 5491 2158 5 MP stroke
c9
0 0 10 0 0 0 5501 2158 4 MP
PP
0 sg
-10 0 0 0 10 0 0 0 5501 2158 5 MP stroke
c9
0 0 11 0 0 0 5511 2158 4 MP
PP
0 sg
-11 0 0 0 11 0 0 0 5511 2158 5 MP stroke
c9
0 0 10 0 0 0 5522 2158 4 MP
PP
0 sg
-10 0 0 0 10 0 0 0 5522 2158 5 MP stroke
c9
0 0 10 0 0 0 5532 2158 4 MP
PP
0 sg
-10 0 0 0 10 0 0 0 5532 2158 5 MP stroke
c9
0 0 10 0 0 0 5542 2158 4 MP
PP
0 sg
-10 0 0 0 10 0 0 0 5542 2158 5 MP stroke
c9
0 0 10 0 0 0 5552 2158 4 MP
PP
0 sg
-10 0 0 0 10 0 0 0 5552 2158 5 MP stroke
c9
0 0 10 0 0 0 5562 2158 4 MP
PP
0 sg
-10 0 0 0 10 0 0 0 5562 2158 5 MP stroke
c9
0 0 10 0 0 0 5572 2158 4 MP
PP
0 sg
-10 0 0 0 10 0 0 0 5572 2158 5 MP stroke
c9
0 0 11 0 0 0 5582 2158 4 MP
PP
0 sg
-11 0 0 0 11 0 0 0 5582 2158 5 MP stroke
c9
0 0 10 0 0 0 5593 2158 4 MP
PP
0 sg
-10 0 0 0 10 0 0 0 5593 2158 5 MP stroke
c9
0 0 10 0 0 0 5603 2158 4 MP
PP
0 sg
-10 0 0 0 10 0 0 0 5603 2158 5 MP stroke
c9
0 0 10 0 0 0 5613 2158 4 MP
PP
0 sg
-10 0 0 0 10 0 0 0 5613 2158 5 MP stroke
c9
0 222 10 0 0 -222 5623 2158 4 MP
PP
0 sg
-10 0 0 222 10 0 0 -222 5623 2158 5 MP stroke
4877 2446 mt 
(Time \(s\)) s
3759 1434 mt  -90 rotate
(Count) s
90 rotate
4996  294 mt 
(n=3) s
1 sg
0 1769 2313 0 0 -1769 899 4615 4 MP
PP
-2313 0 0 1769 2313 0 0 -1769 899 4615 5 MP stroke
4 w
DO
SO
6 w
0 sg
 899 4615 mt 3212 4615 L
 899 2846 mt 3212 2846 L
 899 4615 mt  899 2846 L
3212 4615 mt 3212 2846 L
 899 4615 mt 3212 4615 L
 899 4615 mt  899 2846 L
 899 4615 mt  899 4591 L
 899 2846 mt  899 2869 L
 866 4760 mt 
(0) s
1477 4615 mt 1477 4591 L
1477 2846 mt 1477 2869 L
1394 4760 mt 
(0.5) s
2055 4615 mt 2055 4591 L
2055 2846 mt 2055 2869 L
2022 4760 mt 
(1) s
2633 4615 mt 2633 4591 L
2633 2846 mt 2633 2869 L
2550 4760 mt 
(1.5) s
3212 4615 mt 3212 4591 L
3212 2846 mt 3212 2869 L
3179 4760 mt 
(2) s
2942 4962 mt 
(x 10) s
%%IncludeResource: font Helvetica
/Helvetica /ISOLatin1Encoding 80 FMSR

3168 4888 mt 
(5) s
 899 4615 mt  922 4615 L
3212 4615 mt 3188 4615 L
%%IncludeResource: font Helvetica
/Helvetica /ISOLatin1Encoding 120 FMSR

 798 4659 mt 
(0) s
 899 4320 mt  922 4320 L
3212 4320 mt 3188 4320 L
 731 4364 mt 
(20) s
 899 4025 mt  922 4025 L
3212 4025 mt 3188 4025 L
 731 4069 mt 
(40) s
 899 3730 mt  922 3730 L
3212 3730 mt 3188 3730 L
 731 3774 mt 
(60) s
 899 3435 mt  922 3435 L
3212 3435 mt 3188 3435 L
 731 3479 mt 
(80) s
 899 3140 mt  922 3140 L
3212 3140 mt 3188 3140 L
 664 3184 mt 
(100) s
 899 2846 mt  922 2846 L
3212 2846 mt 3188 2846 L
 664 2890 mt 
(120) s
 899 4615 mt 3212 4615 L
 899 2846 mt 3212 2846 L
 899 4615 mt  899 2846 L
3212 4615 mt 3212 2846 L
24 w
c8
0 -1769 906 4615 2 MP stroke
c9
0 1755 12 0 0 -1755 899 4615 4 MP
PP
6 w
0 sg
-12 0 0 1755 12 0 0 -1755 899 4615 5 MP stroke
c9
0 354 13 0 0 -354 911 4615 4 MP
PP
0 sg
-13 0 0 354 13 0 0 -354 911 4615 5 MP stroke
c9
0 192 13 0 0 -192 924 4615 4 MP
PP
0 sg
-13 0 0 192 13 0 0 -192 924 4615 5 MP stroke
c9
0 148 13 0 0 -148 937 4615 4 MP
PP
0 sg
-13 0 0 148 13 0 0 -148 937 4615 5 MP stroke
c9
0 118 13 0 0 -118 950 4615 4 MP
PP
0 sg
-13 0 0 118 13 0 0 -118 950 4615 5 MP stroke
c9
0 0 13 0 0 0 963 4615 4 MP
PP
0 sg
-13 0 0 0 13 0 0 0 963 4615 5 MP stroke
c9
0 30 13 0 0 -30 976 4615 4 MP
PP
0 sg
-13 0 0 30 13 0 0 -30 976 4615 5 MP stroke
c9
0 74 13 0 0 -74 989 4615 4 MP
PP
0 sg
-13 0 0 74 13 0 0 -74 989 4615 5 MP stroke
c9
0 30 13 0 0 -30 1002 4615 4 MP
PP
0 sg
-13 0 0 30 13 0 0 -30 1002 4615 5 MP stroke
c9
0 15 12 0 0 -15 1015 4615 4 MP
PP
0 sg
-12 0 0 15 12 0 0 -15 1015 4615 5 MP stroke
c9
0 15 13 0 0 -15 1027 4615 4 MP
PP
0 sg
-13 0 0 15 13 0 0 -15 1027 4615 5 MP stroke
c9
0 15 13 0 0 -15 1040 4615 4 MP
PP
0 sg
-13 0 0 15 13 0 0 -15 1040 4615 5 MP stroke
c9
0 15 13 0 0 -15 1053 4615 4 MP
PP
0 sg
-13 0 0 15 13 0 0 -15 1053 4615 5 MP stroke
c9
0 15 13 0 0 -15 1066 4615 4 MP
PP
0 sg
-13 0 0 15 13 0 0 -15 1066 4615 5 MP stroke
c9
0 15 13 0 0 -15 1079 4615 4 MP
PP
0 sg
-13 0 0 15 13 0 0 -15 1079 4615 5 MP stroke
c9
0 30 13 0 0 -30 1092 4615 4 MP
PP
0 sg
-13 0 0 30 13 0 0 -30 1092 4615 5 MP stroke
c9
0 15 13 0 0 -15 1105 4615 4 MP
PP
0 sg
-13 0 0 15 13 0 0 -15 1105 4615 5 MP stroke
c9
0 0 13 0 0 0 1118 4615 4 MP
PP
0 sg
-13 0 0 0 13 0 0 0 1118 4615 5 MP stroke
c9
0 0 13 0 0 0 1131 4615 4 MP
PP
0 sg
-13 0 0 0 13 0 0 0 1131 4615 5 MP stroke
c9
0 15 12 0 0 -15 1144 4615 4 MP
PP
0 sg
-12 0 0 15 12 0 0 -15 1144 4615 5 MP stroke
c9
0 0 13 0 0 0 1156 4615 4 MP
PP
0 sg
-13 0 0 0 13 0 0 0 1156 4615 5 MP stroke
c9
0 0 13 0 0 0 1169 4615 4 MP
PP
0 sg
-13 0 0 0 13 0 0 0 1169 4615 5 MP stroke
c9
0 0 13 0 0 0 1182 4615 4 MP
PP
0 sg
-13 0 0 0 13 0 0 0 1182 4615 5 MP stroke
c9
0 30 13 0 0 -30 1195 4615 4 MP
PP
0 sg
-13 0 0 30 13 0 0 -30 1195 4615 5 MP stroke
c9
0 0 13 0 0 0 1208 4615 4 MP
PP
0 sg
-13 0 0 0 13 0 0 0 1208 4615 5 MP stroke
c9
0 0 13 0 0 0 1221 4615 4 MP
PP
0 sg
-13 0 0 0 13 0 0 0 1221 4615 5 MP stroke
c9
0 0 13 0 0 0 1234 4615 4 MP
PP
0 sg
-13 0 0 0 13 0 0 0 1234 4615 5 MP stroke
c9
0 0 13 0 0 0 1247 4615 4 MP
PP
0 sg
-13 0 0 0 13 0 0 0 1247 4615 5 MP stroke
c9
0 15 12 0 0 -15 1260 4615 4 MP
PP
0 sg
-12 0 0 15 12 0 0 -15 1260 4615 5 MP stroke
c9
0 0 13 0 0 0 1272 4615 4 MP
PP
0 sg
-13 0 0 0 13 0 0 0 1272 4615 5 MP stroke
c9
0 0 13 0 0 0 1285 4615 4 MP
PP
0 sg
-13 0 0 0 13 0 0 0 1285 4615 5 MP stroke
c9
0 0 13 0 0 0 1298 4615 4 MP
PP
0 sg
-13 0 0 0 13 0 0 0 1298 4615 5 MP stroke
c9
0 0 13 0 0 0 1311 4615 4 MP
PP
0 sg
-13 0 0 0 13 0 0 0 1311 4615 5 MP stroke
c9
0 0 13 0 0 0 1324 4615 4 MP
PP
0 sg
-13 0 0 0 13 0 0 0 1324 4615 5 MP stroke
c9
0 0 13 0 0 0 1337 4615 4 MP
PP
0 sg
-13 0 0 0 13 0 0 0 1337 4615 5 MP stroke
c9
0 0 13 0 0 0 1350 4615 4 MP
PP
0 sg
-13 0 0 0 13 0 0 0 1350 4615 5 MP stroke
c9
0 0 13 0 0 0 1363 4615 4 MP
PP
0 sg
-13 0 0 0 13 0 0 0 1363 4615 5 MP stroke
c9
0 0 13 0 0 0 1376 4615 4 MP
PP
0 sg
-13 0 0 0 13 0 0 0 1376 4615 5 MP stroke
c9
0 0 12 0 0 0 1389 4615 4 MP
PP
0 sg
-12 0 0 0 12 0 0 0 1389 4615 5 MP stroke
c9
0 0 13 0 0 0 1401 4615 4 MP
PP
0 sg
-13 0 0 0 13 0 0 0 1401 4615 5 MP stroke
c9
0 0 13 0 0 0 1414 4615 4 MP
PP
0 sg
-13 0 0 0 13 0 0 0 1414 4615 5 MP stroke
c9
0 15 13 0 0 -15 1427 4615 4 MP
PP
0 sg
-13 0 0 15 13 0 0 -15 1427 4615 5 MP stroke
c9
0 0 13 0 0 0 1440 4615 4 MP
PP
0 sg
-13 0 0 0 13 0 0 0 1440 4615 5 MP stroke
c9
0 0 13 0 0 0 1453 4615 4 MP
PP
0 sg
-13 0 0 0 13 0 0 0 1453 4615 5 MP stroke
c9
0 0 13 0 0 0 1466 4615 4 MP
PP
0 sg
-13 0 0 0 13 0 0 0 1466 4615 5 MP stroke
c9
0 0 13 0 0 0 1479 4615 4 MP
PP
0 sg
-13 0 0 0 13 0 0 0 1479 4615 5 MP stroke
c9
0 0 13 0 0 0 1492 4615 4 MP
PP
0 sg
-13 0 0 0 13 0 0 0 1492 4615 5 MP stroke
c9
0 0 12 0 0 0 1505 4615 4 MP
PP
0 sg
-12 0 0 0 12 0 0 0 1505 4615 5 MP stroke
c9
0 0 13 0 0 0 1517 4615 4 MP
PP
0 sg
-13 0 0 0 13 0 0 0 1517 4615 5 MP stroke
c9
0 0 13 0 0 0 1530 4615 4 MP
PP
0 sg
-13 0 0 0 13 0 0 0 1530 4615 5 MP stroke
c9
0 0 13 0 0 0 1543 4615 4 MP
PP
0 sg
-13 0 0 0 13 0 0 0 1543 4615 5 MP stroke
c9
0 0 13 0 0 0 1556 4615 4 MP
PP
0 sg
-13 0 0 0 13 0 0 0 1556 4615 5 MP stroke
c9
0 0 13 0 0 0 1569 4615 4 MP
PP
0 sg
-13 0 0 0 13 0 0 0 1569 4615 5 MP stroke
c9
0 0 13 0 0 0 1582 4615 4 MP
PP
0 sg
-13 0 0 0 13 0 0 0 1582 4615 5 MP stroke
c9
0 0 13 0 0 0 1595 4615 4 MP
PP
0 sg
-13 0 0 0 13 0 0 0 1595 4615 5 MP stroke
c9
0 0 13 0 0 0 1608 4615 4 MP
PP
0 sg
-13 0 0 0 13 0 0 0 1608 4615 5 MP stroke
c9
0 0 13 0 0 0 1621 4615 4 MP
PP
0 sg
-13 0 0 0 13 0 0 0 1621 4615 5 MP stroke
c9
0 0 12 0 0 0 1634 4615 4 MP
PP
0 sg
-12 0 0 0 12 0 0 0 1634 4615 5 MP stroke
c9
0 0 13 0 0 0 1646 4615 4 MP
PP
0 sg
-13 0 0 0 13 0 0 0 1646 4615 5 MP stroke
c9
0 0 13 0 0 0 1659 4615 4 MP
PP
0 sg
-13 0 0 0 13 0 0 0 1659 4615 5 MP stroke
c9
0 0 13 0 0 0 1672 4615 4 MP
PP
0 sg
-13 0 0 0 13 0 0 0 1672 4615 5 MP stroke
c9
0 0 13 0 0 0 1685 4615 4 MP
PP
0 sg
-13 0 0 0 13 0 0 0 1685 4615 5 MP stroke
c9
0 0 13 0 0 0 1698 4615 4 MP
PP
0 sg
-13 0 0 0 13 0 0 0 1698 4615 5 MP stroke
c9
0 0 13 0 0 0 1711 4615 4 MP
PP
0 sg
-13 0 0 0 13 0 0 0 1711 4615 5 MP stroke
c9
0 0 13 0 0 0 1724 4615 4 MP
PP
0 sg
-13 0 0 0 13 0 0 0 1724 4615 5 MP stroke
c9
0 0 13 0 0 0 1737 4615 4 MP
PP
0 sg
-13 0 0 0 13 0 0 0 1737 4615 5 MP stroke
c9
0 0 12 0 0 0 1750 4615 4 MP
PP
0 sg
-12 0 0 0 12 0 0 0 1750 4615 5 MP stroke
c9
0 15 13 0 0 -15 1762 4615 4 MP
PP
0 sg
-13 0 0 15 13 0 0 -15 1762 4615 5 MP stroke
c9
0 0 13 0 0 0 1775 4615 4 MP
PP
0 sg
-13 0 0 0 13 0 0 0 1775 4615 5 MP stroke
c9
0 0 13 0 0 0 1788 4615 4 MP
PP
0 sg
-13 0 0 0 13 0 0 0 1788 4615 5 MP stroke
c9
0 0 13 0 0 0 1801 4615 4 MP
PP
0 sg
-13 0 0 0 13 0 0 0 1801 4615 5 MP stroke
c9
0 0 13 0 0 0 1814 4615 4 MP
PP
0 sg
-13 0 0 0 13 0 0 0 1814 4615 5 MP stroke
c9
0 0 13 0 0 0 1827 4615 4 MP
PP
0 sg
-13 0 0 0 13 0 0 0 1827 4615 5 MP stroke
c9
0 0 13 0 0 0 1840 4615 4 MP
PP
0 sg
-13 0 0 0 13 0 0 0 1840 4615 5 MP stroke
c9
0 0 13 0 0 0 1853 4615 4 MP
PP
0 sg
-13 0 0 0 13 0 0 0 1853 4615 5 MP stroke
c9
0 0 13 0 0 0 1866 4615 4 MP
PP
0 sg
-13 0 0 0 13 0 0 0 1866 4615 5 MP stroke
c9
0 0 12 0 0 0 1879 4615 4 MP
PP
0 sg
-12 0 0 0 12 0 0 0 1879 4615 5 MP stroke
c9
0 0 13 0 0 0 1891 4615 4 MP
PP
0 sg
-13 0 0 0 13 0 0 0 1891 4615 5 MP stroke
c9
0 0 13 0 0 0 1904 4615 4 MP
PP
0 sg
-13 0 0 0 13 0 0 0 1904 4615 5 MP stroke
c9
0 0 13 0 0 0 1917 4615 4 MP
PP
0 sg
-13 0 0 0 13 0 0 0 1917 4615 5 MP stroke
c9
0 0 13 0 0 0 1930 4615 4 MP
PP
0 sg
-13 0 0 0 13 0 0 0 1930 4615 5 MP stroke
c9
0 0 13 0 0 0 1943 4615 4 MP
PP
0 sg
-13 0 0 0 13 0 0 0 1943 4615 5 MP stroke
c9
0 0 13 0 0 0 1956 4615 4 MP
PP
0 sg
-13 0 0 0 13 0 0 0 1956 4615 5 MP stroke
c9
0 0 13 0 0 0 1969 4615 4 MP
PP
0 sg
-13 0 0 0 13 0 0 0 1969 4615 5 MP stroke
c9
0 0 13 0 0 0 1982 4615 4 MP
PP
0 sg
-13 0 0 0 13 0 0 0 1982 4615 5 MP stroke
c9
0 0 12 0 0 0 1995 4615 4 MP
PP
0 sg
-12 0 0 0 12 0 0 0 1995 4615 5 MP stroke
c9
0 0 13 0 0 0 2007 4615 4 MP
PP
0 sg
-13 0 0 0 13 0 0 0 2007 4615 5 MP stroke
c9
0 0 13 0 0 0 2020 4615 4 MP
PP
0 sg
-13 0 0 0 13 0 0 0 2020 4615 5 MP stroke
c9
0 0 13 0 0 0 2033 4615 4 MP
PP
0 sg
-13 0 0 0 13 0 0 0 2033 4615 5 MP stroke
c9
0 0 13 0 0 0 2046 4615 4 MP
PP
0 sg
-13 0 0 0 13 0 0 0 2046 4615 5 MP stroke
c9
0 0 13 0 0 0 2059 4615 4 MP
PP
0 sg
-13 0 0 0 13 0 0 0 2059 4615 5 MP stroke
c9
0 0 13 0 0 0 2072 4615 4 MP
PP
0 sg
-13 0 0 0 13 0 0 0 2072 4615 5 MP stroke
c9
0 0 13 0 0 0 2085 4615 4 MP
PP
0 sg
-13 0 0 0 13 0 0 0 2085 4615 5 MP stroke
c9
0 0 13 0 0 0 2098 4615 4 MP
PP
0 sg
-13 0 0 0 13 0 0 0 2098 4615 5 MP stroke
c9
0 0 13 0 0 0 2111 4615 4 MP
PP
0 sg
-13 0 0 0 13 0 0 0 2111 4615 5 MP stroke
c9
0 0 12 0 0 0 2124 4615 4 MP
PP
0 sg
-12 0 0 0 12 0 0 0 2124 4615 5 MP stroke
c9
0 0 13 0 0 0 2136 4615 4 MP
PP
0 sg
-13 0 0 0 13 0 0 0 2136 4615 5 MP stroke
c9
0 0 13 0 0 0 2149 4615 4 MP
PP
0 sg
-13 0 0 0 13 0 0 0 2149 4615 5 MP stroke
c9
0 0 13 0 0 0 2162 4615 4 MP
PP
0 sg
-13 0 0 0 13 0 0 0 2162 4615 5 MP stroke
c9
0 0 13 0 0 0 2175 4615 4 MP
PP
0 sg
-13 0 0 0 13 0 0 0 2175 4615 5 MP stroke
c9
0 0 13 0 0 0 2188 4615 4 MP
PP
0 sg
-13 0 0 0 13 0 0 0 2188 4615 5 MP stroke
c9
0 0 13 0 0 0 2201 4615 4 MP
PP
0 sg
-13 0 0 0 13 0 0 0 2201 4615 5 MP stroke
c9
0 0 13 0 0 0 2214 4615 4 MP
PP
0 sg
-13 0 0 0 13 0 0 0 2214 4615 5 MP stroke
c9
0 0 13 0 0 0 2227 4615 4 MP
PP
0 sg
-13 0 0 0 13 0 0 0 2227 4615 5 MP stroke
c9
0 0 12 0 0 0 2240 4615 4 MP
PP
0 sg
-12 0 0 0 12 0 0 0 2240 4615 5 MP stroke
c9
0 0 13 0 0 0 2252 4615 4 MP
PP
0 sg
-13 0 0 0 13 0 0 0 2252 4615 5 MP stroke
c9
0 0 13 0 0 0 2265 4615 4 MP
PP
0 sg
-13 0 0 0 13 0 0 0 2265 4615 5 MP stroke
c9
0 0 13 0 0 0 2278 4615 4 MP
PP
0 sg
-13 0 0 0 13 0 0 0 2278 4615 5 MP stroke
c9
0 0 13 0 0 0 2291 4615 4 MP
PP
0 sg
-13 0 0 0 13 0 0 0 2291 4615 5 MP stroke
c9
0 0 13 0 0 0 2304 4615 4 MP
PP
0 sg
-13 0 0 0 13 0 0 0 2304 4615 5 MP stroke
c9
0 0 13 0 0 0 2317 4615 4 MP
PP
0 sg
-13 0 0 0 13 0 0 0 2317 4615 5 MP stroke
c9
0 0 13 0 0 0 2330 4615 4 MP
PP
0 sg
-13 0 0 0 13 0 0 0 2330 4615 5 MP stroke
c9
0 0 13 0 0 0 2343 4615 4 MP
PP
0 sg
-13 0 0 0 13 0 0 0 2343 4615 5 MP stroke
c9
0 0 13 0 0 0 2356 4615 4 MP
PP
0 sg
-13 0 0 0 13 0 0 0 2356 4615 5 MP stroke
c9
0 0 12 0 0 0 2369 4615 4 MP
PP
0 sg
-12 0 0 0 12 0 0 0 2369 4615 5 MP stroke
c9
0 0 13 0 0 0 2381 4615 4 MP
PP
0 sg
-13 0 0 0 13 0 0 0 2381 4615 5 MP stroke
c9
0 0 13 0 0 0 2394 4615 4 MP
PP
0 sg
-13 0 0 0 13 0 0 0 2394 4615 5 MP stroke
c9
0 0 13 0 0 0 2407 4615 4 MP
PP
0 sg
-13 0 0 0 13 0 0 0 2407 4615 5 MP stroke
c9
0 0 13 0 0 0 2420 4615 4 MP
PP
0 sg
-13 0 0 0 13 0 0 0 2420 4615 5 MP stroke
c9
0 0 13 0 0 0 2433 4615 4 MP
PP
0 sg
-13 0 0 0 13 0 0 0 2433 4615 5 MP stroke
c9
0 0 13 0 0 0 2446 4615 4 MP
PP
0 sg
-13 0 0 0 13 0 0 0 2446 4615 5 MP stroke
c9
0 0 13 0 0 0 2459 4615 4 MP
PP
0 sg
-13 0 0 0 13 0 0 0 2459 4615 5 MP stroke
c9
0 0 13 0 0 0 2472 4615 4 MP
PP
0 sg
-13 0 0 0 13 0 0 0 2472 4615 5 MP stroke
c9
0 0 12 0 0 0 2485 4615 4 MP
PP
0 sg
-12 0 0 0 12 0 0 0 2485 4615 5 MP stroke
c9
0 0 13 0 0 0 2497 4615 4 MP
PP
0 sg
-13 0 0 0 13 0 0 0 2497 4615 5 MP stroke
c9
0 0 13 0 0 0 2510 4615 4 MP
PP
0 sg
-13 0 0 0 13 0 0 0 2510 4615 5 MP stroke
c9
0 0 13 0 0 0 2523 4615 4 MP
PP
0 sg
-13 0 0 0 13 0 0 0 2523 4615 5 MP stroke
c9
0 0 13 0 0 0 2536 4615 4 MP
PP
0 sg
-13 0 0 0 13 0 0 0 2536 4615 5 MP stroke
c9
0 0 13 0 0 0 2549 4615 4 MP
PP
0 sg
-13 0 0 0 13 0 0 0 2549 4615 5 MP stroke
c9
0 0 13 0 0 0 2562 4615 4 MP
PP
0 sg
-13 0 0 0 13 0 0 0 2562 4615 5 MP stroke
c9
0 0 13 0 0 0 2575 4615 4 MP
PP
0 sg
-13 0 0 0 13 0 0 0 2575 4615 5 MP stroke
c9
0 0 13 0 0 0 2588 4615 4 MP
PP
0 sg
-13 0 0 0 13 0 0 0 2588 4615 5 MP stroke
c9
0 0 13 0 0 0 2601 4615 4 MP
PP
0 sg
-13 0 0 0 13 0 0 0 2601 4615 5 MP stroke
c9
0 0 12 0 0 0 2614 4615 4 MP
PP
0 sg
-12 0 0 0 12 0 0 0 2614 4615 5 MP stroke
c9
0 0 13 0 0 0 2626 4615 4 MP
PP
0 sg
-13 0 0 0 13 0 0 0 2626 4615 5 MP stroke
c9
0 0 13 0 0 0 2639 4615 4 MP
PP
0 sg
-13 0 0 0 13 0 0 0 2639 4615 5 MP stroke
c9
0 0 13 0 0 0 2652 4615 4 MP
PP
0 sg
-13 0 0 0 13 0 0 0 2652 4615 5 MP stroke
c9
0 0 13 0 0 0 2665 4615 4 MP
PP
0 sg
-13 0 0 0 13 0 0 0 2665 4615 5 MP stroke
c9
0 0 13 0 0 0 2678 4615 4 MP
PP
0 sg
-13 0 0 0 13 0 0 0 2678 4615 5 MP stroke
c9
0 0 13 0 0 0 2691 4615 4 MP
PP
0 sg
-13 0 0 0 13 0 0 0 2691 4615 5 MP stroke
c9
0 0 13 0 0 0 2704 4615 4 MP
PP
0 sg
-13 0 0 0 13 0 0 0 2704 4615 5 MP stroke
c9
0 0 13 0 0 0 2717 4615 4 MP
PP
0 sg
-13 0 0 0 13 0 0 0 2717 4615 5 MP stroke
c9
0 0 12 0 0 0 2730 4615 4 MP
PP
0 sg
-12 0 0 0 12 0 0 0 2730 4615 5 MP stroke
c9
0 0 13 0 0 0 2742 4615 4 MP
PP
0 sg
-13 0 0 0 13 0 0 0 2742 4615 5 MP stroke
c9
0 0 13 0 0 0 2755 4615 4 MP
PP
0 sg
-13 0 0 0 13 0 0 0 2755 4615 5 MP stroke
c9
0 0 13 0 0 0 2768 4615 4 MP
PP
0 sg
-13 0 0 0 13 0 0 0 2768 4615 5 MP stroke
c9
0 0 13 0 0 0 2781 4615 4 MP
PP
0 sg
-13 0 0 0 13 0 0 0 2781 4615 5 MP stroke
c9
0 0 13 0 0 0 2794 4615 4 MP
PP
0 sg
-13 0 0 0 13 0 0 0 2794 4615 5 MP stroke
c9
0 0 13 0 0 0 2807 4615 4 MP
PP
0 sg
-13 0 0 0 13 0 0 0 2807 4615 5 MP stroke
c9
0 15 13 0 0 -15 2820 4615 4 MP
PP
0 sg
-13 0 0 15 13 0 0 -15 2820 4615 5 MP stroke
1834 4903 mt 
(Time \(s\)) s
 582 3891 mt  -90 rotate
(Count) s
90 rotate
1953 2751 mt 
(n=4) s

end %%Color Dict

eplot
%%EndObject

epage
end

showpage

%%Trailer
%%EOF
