%!PS-Adobe-2.0 EPSF-1.2
%%Creator: MATLAB, The MathWorks, Inc. Version 8.2.0.701 (R2013b). Operating System: Linux 3.2.0-61-generic #92-Ubuntu SMP Mon Mar 31 23:47:59 UTC 2014 x86_64.
%%Title: ../graphs/dist_1.eps
%%CreationDate: 04/29/2014  20:05:03
%%DocumentNeededFonts: Helvetica
%%DocumentProcessColors: Cyan Magenta Yellow Black
%%Extensions: CMYK
%%Pages: 1
%%BoundingBox:    55   198   546   602
%%EndComments

%%BeginProlog
% MathWorks dictionary
/MathWorks 160 dict begin
% definition operators
/bdef {bind def} bind def
/ldef {load def} bind def
/xdef {exch def} bdef
/xstore {exch store} bdef
% operator abbreviations
/c  /clip ldef
/cc /concat ldef
/cp /closepath ldef
/gr /grestore ldef
/gs /gsave ldef
/mt /moveto ldef
/np /newpath ldef
/cm /currentmatrix ldef
/sm /setmatrix ldef
/rm /rmoveto ldef
/rl /rlineto ldef
/s {show newpath} bdef
/sc {setcmykcolor} bdef
/sr /setrgbcolor ldef
/sg /setgray ldef
/w /setlinewidth ldef
/j /setlinejoin ldef
/cap /setlinecap ldef
/rc {rectclip} bdef
/rf {rectfill} bdef
% page state control
/pgsv () def
/bpage {/pgsv save def} bdef
/epage {pgsv restore} bdef
/bplot /gsave ldef
/eplot {stroke grestore} bdef
% orientation switch
/portraitMode 0 def /landscapeMode 1 def /rotateMode 2 def
% coordinate system mappings
/dpi2point 0 def
% font control
/FontSize 0 def
/FMS {/FontSize xstore findfont [FontSize 0 0 FontSize neg 0 0]
  makefont setfont} bdef
/reencode {exch dup where {pop load} {pop StandardEncoding} ifelse
  exch dup 3 1 roll findfont dup length dict begin
  { 1 index /FID ne {def}{pop pop} ifelse } forall
  /Encoding exch def currentdict end definefont pop} bdef
/isroman {findfont /CharStrings get /Agrave known} bdef
/FMSR {3 1 roll 1 index dup isroman {reencode} {pop pop} ifelse
  exch FMS} bdef
/csm {1 dpi2point div -1 dpi2point div scale neg translate
 dup landscapeMode eq {pop -90 rotate}
  {rotateMode eq {90 rotate} if} ifelse} bdef
% line types: solid, dotted, dashed, dotdash
/SO { [] 0 setdash } bdef
/DO { [.5 dpi2point mul 4 dpi2point mul] 0 setdash } bdef
/DA { [6 dpi2point mul] 0 setdash } bdef
/DD { [.5 dpi2point mul 4 dpi2point mul 6 dpi2point mul 4
  dpi2point mul] 0 setdash } bdef
% macros for lines and objects
/L {lineto stroke} bdef
/MP {3 1 roll moveto 1 sub {rlineto} repeat} bdef
/AP {{rlineto} repeat} bdef
/PDlw -1 def
/W {/PDlw currentlinewidth def setlinewidth} def
/PP {closepath eofill} bdef
/DP {closepath stroke} bdef
/MR {4 -2 roll moveto dup  0 exch rlineto exch 0 rlineto
  neg 0 exch rlineto closepath} bdef
/FR {MR stroke} bdef
/PR {MR fill} bdef
/L1i {{currentfile picstr readhexstring pop} image} bdef
/tMatrix matrix def
/MakeOval {newpath tMatrix currentmatrix pop translate scale
0 0 1 0 360 arc tMatrix setmatrix} bdef
/FO {MakeOval stroke} bdef
/PO {MakeOval fill} bdef
/PD {currentlinewidth 2 div 0 360 arc fill
   PDlw -1 eq not {PDlw w /PDlw -1 def} if} def
/FA {newpath tMatrix currentmatrix pop translate scale
  0 0 1 5 -2 roll arc tMatrix setmatrix stroke} bdef
/PA {newpath tMatrix currentmatrix pop	translate 0 0 moveto scale
  0 0 1 5 -2 roll arc closepath tMatrix setmatrix fill} bdef
/FAn {newpath tMatrix currentmatrix pop translate scale
  0 0 1 5 -2 roll arcn tMatrix setmatrix stroke} bdef
/PAn {newpath tMatrix currentmatrix pop translate 0 0 moveto scale
  0 0 1 5 -2 roll arcn closepath tMatrix setmatrix fill} bdef
/vradius 0 def /hradius 0 def /lry 0 def
/lrx 0 def /uly 0 def /ulx 0 def /rad 0 def
/MRR {/vradius xdef /hradius xdef /lry xdef /lrx xdef /uly xdef
  /ulx xdef newpath tMatrix currentmatrix pop ulx hradius add uly
  vradius add translate hradius vradius scale 0 0 1 180 270 arc 
  tMatrix setmatrix lrx hradius sub uly vradius add translate
  hradius vradius scale 0 0 1 270 360 arc tMatrix setmatrix
  lrx hradius sub lry vradius sub translate hradius vradius scale
  0 0 1 0 90 arc tMatrix setmatrix ulx hradius add lry vradius sub
  translate hradius vradius scale 0 0 1 90 180 arc tMatrix setmatrix
  closepath} bdef
/FRR {MRR stroke } bdef
/PRR {MRR fill } bdef
/MlrRR {/lry xdef /lrx xdef /uly xdef /ulx xdef /rad lry uly sub 2 div def
  newpath tMatrix currentmatrix pop ulx rad add uly rad add translate
  rad rad scale 0 0 1 90 270 arc tMatrix setmatrix lrx rad sub lry rad
  sub translate rad rad scale 0 0 1 270 90 arc tMatrix setmatrix
  closepath} bdef
/FlrRR {MlrRR stroke } bdef
/PlrRR {MlrRR fill } bdef
/MtbRR {/lry xdef /lrx xdef /uly xdef /ulx xdef /rad lrx ulx sub 2 div def
  newpath tMatrix currentmatrix pop ulx rad add uly rad add translate
  rad rad scale 0 0 1 180 360 arc tMatrix setmatrix lrx rad sub lry rad
  sub translate rad rad scale 0 0 1 0 180 arc tMatrix setmatrix
  closepath} bdef
/FtbRR {MtbRR stroke } bdef
/PtbRR {MtbRR fill } bdef
/stri 6 array def /dtri 6 array def
/smat 6 array def /dmat 6 array def
/tmat1 6 array def /tmat2 6 array def /dif 3 array def
/asub {/ind2 exch def /ind1 exch def dup dup
  ind1 get exch ind2 get sub exch } bdef
/tri_to_matrix {
  2 0 asub 3 1 asub 4 0 asub 5 1 asub
  dup 0 get exch 1 get 7 -1 roll astore } bdef
/compute_transform {
  dmat dtri tri_to_matrix tmat1 invertmatrix 
  smat stri tri_to_matrix tmat2 concatmatrix } bdef
/ds {stri astore pop} bdef
/dt {dtri astore pop} bdef
/db {2 copy /cols xdef /rows xdef mul dup 3 mul string
  currentfile exch readhexstring pop
  dup 0 3 index getinterval /rbmap xdef
  dup 2 index dup getinterval /gbmap xdef
  1 index dup 2 mul exch getinterval /bbmap xdef pop pop}bdef
/it {gs np dtri aload pop moveto lineto lineto cp c
  cols rows 8 compute_transform 
  rbmap gbmap bbmap true 3 colorimage gr}bdef
/il {newpath moveto lineto stroke}bdef
currentdict end def
%%EndProlog

%%BeginSetup
MathWorks begin

0 cap

end
%%EndSetup

%%Page: 1 1
%%BeginPageSetup
%%PageBoundingBox:    55   198   546   602
MathWorks begin
bpage
%%EndPageSetup

%%BeginObject: obj1
bplot

/dpi2point 12 def
portraitMode 0216 7344 csm

  446   110  5891  4853 MR c np
76 dict begin %Colortable dictionary
/c0 { 0.000000 0.000000 0.000000 sr} bdef
/c1 { 1.000000 1.000000 1.000000 sr} bdef
/c2 { 0.900000 0.000000 0.000000 sr} bdef
/c3 { 0.000000 0.820000 0.000000 sr} bdef
/c4 { 0.000000 0.000000 0.800000 sr} bdef
/c5 { 0.910000 0.820000 0.320000 sr} bdef
/c6 { 1.000000 0.260000 0.820000 sr} bdef
/c7 { 0.000000 0.820000 0.820000 sr} bdef
c0
1 j
1 sg
   0    0 6913 5186 PR
6 w
0 1770 2313 0 0 -1770 899 2158 4 MP
PP
-2313 0 0 1770 2313 0 0 -1770 899 2158 5 MP stroke
4 w
DO
SO
6 w
0 sg
 899 2158 mt 3212 2158 L
 899  388 mt 3212  388 L
 899 2158 mt  899  388 L
3212 2158 mt 3212  388 L
 899 2158 mt 3212 2158 L
 899 2158 mt  899  388 L
 899 2158 mt  899 2134 L
 899  389 mt  899  412 L
%%IncludeResource: font Helvetica
/Helvetica /ISOLatin1Encoding 120 FMSR

 866 2303 mt 
(0) s
1361 2158 mt 1361 2134 L
1361  389 mt 1361  412 L
1211 2303 mt 
(0.002) s
1824 2158 mt 1824 2134 L
1824  389 mt 1824  412 L
1674 2303 mt 
(0.004) s
2286 2158 mt 2286 2134 L
2286  389 mt 2286  412 L
2136 2303 mt 
(0.006) s
2749 2158 mt 2749 2134 L
2749  389 mt 2749  412 L
2599 2303 mt 
(0.008) s
3212 2158 mt 3212 2134 L
3212  389 mt 3212  412 L
3096 2303 mt 
(0.01) s
 899 2158 mt  922 2158 L
3212 2158 mt 3188 2158 L
 798 2202 mt 
(0) s
 899 1715 mt  922 1715 L
3212 1715 mt 3188 1715 L
 731 1759 mt 
(50) s
 899 1273 mt  922 1273 L
3212 1273 mt 3188 1273 L
 664 1317 mt 
(100) s
 899  831 mt  922  831 L
3212  831 mt 3188  831 L
 664  875 mt 
(150) s
 899  389 mt  922  389 L
3212  389 mt 3188  389 L
 664  433 mt 
(200) s
 899 2158 mt 3212 2158 L
 899  388 mt 3212  388 L
 899 2158 mt  899  388 L
3212 2158 mt 3212  388 L
24 w
/c8 { 1.000000 0.000000 0.000000 sr} bdef
c8
0 -1769 899 2158 2 MP stroke
/c9 { 0.000000 0.000000 0.562500 sr} bdef
c9
0 1628 15 0 0 -1628 899 2158 4 MP
PP
6 w
0 sg
-15 0 0 1628 15 0 0 -1628 899 2158 5 MP stroke
c9
0 0 15 0 0 0 914 2158 4 MP
PP
0 sg
-15 0 0 0 15 0 0 0 914 2158 5 MP stroke
c9
0 0 16 0 0 0 929 2158 4 MP
PP
0 sg
-16 0 0 0 16 0 0 0 929 2158 5 MP stroke
c9
0 0 15 0 0 0 945 2158 4 MP
PP
0 sg
-15 0 0 0 15 0 0 0 945 2158 5 MP stroke
c9
0 0 16 0 0 0 960 2158 4 MP
PP
0 sg
-16 0 0 0 16 0 0 0 960 2158 5 MP stroke
c9
0 0 15 0 0 0 976 2158 4 MP
PP
0 sg
-15 0 0 0 15 0 0 0 976 2158 5 MP stroke
c9
0 0 15 0 0 0 991 2158 4 MP
PP
0 sg
-15 0 0 0 15 0 0 0 991 2158 5 MP stroke
c9
0 0 16 0 0 0 1006 2158 4 MP
PP
0 sg
-16 0 0 0 16 0 0 0 1006 2158 5 MP stroke
c9
0 0 15 0 0 0 1022 2158 4 MP
PP
0 sg
-15 0 0 0 15 0 0 0 1022 2158 5 MP stroke
c9
0 0 16 0 0 0 1037 2158 4 MP
PP
0 sg
-16 0 0 0 16 0 0 0 1037 2158 5 MP stroke
c9
0 0 15 0 0 0 1053 2158 4 MP
PP
0 sg
-15 0 0 0 15 0 0 0 1053 2158 5 MP stroke
c9
0 0 16 0 0 0 1068 2158 4 MP
PP
0 sg
-16 0 0 0 16 0 0 0 1068 2158 5 MP stroke
c9
0 0 15 0 0 0 1084 2158 4 MP
PP
0 sg
-15 0 0 0 15 0 0 0 1084 2158 5 MP stroke
c9
0 0 15 0 0 0 1099 2158 4 MP
PP
0 sg
-15 0 0 0 15 0 0 0 1099 2158 5 MP stroke
c9
0 0 16 0 0 0 1114 2158 4 MP
PP
0 sg
-16 0 0 0 16 0 0 0 1114 2158 5 MP stroke
c9
0 0 15 0 0 0 1130 2158 4 MP
PP
0 sg
-15 0 0 0 15 0 0 0 1130 2158 5 MP stroke
c9
0 0 16 0 0 0 1145 2158 4 MP
PP
0 sg
-16 0 0 0 16 0 0 0 1145 2158 5 MP stroke
c9
0 0 15 0 0 0 1161 2158 4 MP
PP
0 sg
-15 0 0 0 15 0 0 0 1161 2158 5 MP stroke
c9
0 0 15 0 0 0 1176 2158 4 MP
PP
0 sg
-15 0 0 0 15 0 0 0 1176 2158 5 MP stroke
c9
0 0 16 0 0 0 1191 2158 4 MP
PP
0 sg
-16 0 0 0 16 0 0 0 1191 2158 5 MP stroke
c9
0 0 15 0 0 0 1207 2158 4 MP
PP
0 sg
-15 0 0 0 15 0 0 0 1207 2158 5 MP stroke
c9
0 0 16 0 0 0 1222 2158 4 MP
PP
0 sg
-16 0 0 0 16 0 0 0 1222 2158 5 MP stroke
c9
0 0 15 0 0 0 1238 2158 4 MP
PP
0 sg
-15 0 0 0 15 0 0 0 1238 2158 5 MP stroke
c9
0 0 16 0 0 0 1253 2158 4 MP
PP
0 sg
-16 0 0 0 16 0 0 0 1253 2158 5 MP stroke
c9
0 0 15 0 0 0 1269 2158 4 MP
PP
0 sg
-15 0 0 0 15 0 0 0 1269 2158 5 MP stroke
c9
0 0 15 0 0 0 1284 2158 4 MP
PP
0 sg
-15 0 0 0 15 0 0 0 1284 2158 5 MP stroke
c9
0 0 16 0 0 0 1299 2158 4 MP
PP
0 sg
-16 0 0 0 16 0 0 0 1299 2158 5 MP stroke
c9
0 0 15 0 0 0 1315 2158 4 MP
PP
0 sg
-15 0 0 0 15 0 0 0 1315 2158 5 MP stroke
c9
0 0 16 0 0 0 1330 2158 4 MP
PP
0 sg
-16 0 0 0 16 0 0 0 1330 2158 5 MP stroke
c9
0 0 15 0 0 0 1346 2158 4 MP
PP
0 sg
-15 0 0 0 15 0 0 0 1346 2158 5 MP stroke
c9
0 0 16 0 0 0 1361 2158 4 MP
PP
0 sg
-16 0 0 0 16 0 0 0 1361 2158 5 MP stroke
c9
0 0 15 0 0 0 1377 2158 4 MP
PP
0 sg
-15 0 0 0 15 0 0 0 1377 2158 5 MP stroke
c9
0 0 15 0 0 0 1392 2158 4 MP
PP
0 sg
-15 0 0 0 15 0 0 0 1392 2158 5 MP stroke
c9
0 0 16 0 0 0 1407 2158 4 MP
PP
0 sg
-16 0 0 0 16 0 0 0 1407 2158 5 MP stroke
c9
0 0 15 0 0 0 1423 2158 4 MP
PP
0 sg
-15 0 0 0 15 0 0 0 1423 2158 5 MP stroke
c9
0 0 16 0 0 0 1438 2158 4 MP
PP
0 sg
-16 0 0 0 16 0 0 0 1438 2158 5 MP stroke
c9
0 0 15 0 0 0 1454 2158 4 MP
PP
0 sg
-15 0 0 0 15 0 0 0 1454 2158 5 MP stroke
c9
0 0 15 0 0 0 1469 2158 4 MP
PP
0 sg
-15 0 0 0 15 0 0 0 1469 2158 5 MP stroke
c9
0 0 16 0 0 0 1484 2158 4 MP
PP
0 sg
-16 0 0 0 16 0 0 0 1484 2158 5 MP stroke
c9
0 0 15 0 0 0 1500 2158 4 MP
PP
0 sg
-15 0 0 0 15 0 0 0 1500 2158 5 MP stroke
c9
0 0 16 0 0 0 1515 2158 4 MP
PP
0 sg
-16 0 0 0 16 0 0 0 1515 2158 5 MP stroke
c9
0 0 15 0 0 0 1531 2158 4 MP
PP
0 sg
-15 0 0 0 15 0 0 0 1531 2158 5 MP stroke
c9
0 0 16 0 0 0 1546 2158 4 MP
PP
0 sg
-16 0 0 0 16 0 0 0 1546 2158 5 MP stroke
c9
0 0 15 0 0 0 1562 2158 4 MP
PP
0 sg
-15 0 0 0 15 0 0 0 1562 2158 5 MP stroke
c9
0 0 15 0 0 0 1577 2158 4 MP
PP
0 sg
-15 0 0 0 15 0 0 0 1577 2158 5 MP stroke
c9
0 0 16 0 0 0 1592 2158 4 MP
PP
0 sg
-16 0 0 0 16 0 0 0 1592 2158 5 MP stroke
c9
0 0 15 0 0 0 1608 2158 4 MP
PP
0 sg
-15 0 0 0 15 0 0 0 1608 2158 5 MP stroke
c9
0 0 16 0 0 0 1623 2158 4 MP
PP
0 sg
-16 0 0 0 16 0 0 0 1623 2158 5 MP stroke
c9
0 0 15 0 0 0 1639 2158 4 MP
PP
0 sg
-15 0 0 0 15 0 0 0 1639 2158 5 MP stroke
c9
0 54 16 0 0 -54 1654 2158 4 MP
PP
0 sg
-16 0 0 54 16 0 0 -54 1654 2158 5 MP stroke
c9
0 18 15 0 0 -18 1670 2158 4 MP
PP
0 sg
-15 0 0 18 15 0 0 -18 1670 2158 5 MP stroke
c9
0 0 15 0 0 0 1685 2158 4 MP
PP
0 sg
-15 0 0 0 15 0 0 0 1685 2158 5 MP stroke
c9
0 0 16 0 0 0 1700 2158 4 MP
PP
0 sg
-16 0 0 0 16 0 0 0 1700 2158 5 MP stroke
c9
0 0 15 0 0 0 1716 2158 4 MP
PP
0 sg
-15 0 0 0 15 0 0 0 1716 2158 5 MP stroke
c9
0 0 16 0 0 0 1731 2158 4 MP
PP
0 sg
-16 0 0 0 16 0 0 0 1731 2158 5 MP stroke
c9
0 0 15 0 0 0 1747 2158 4 MP
PP
0 sg
-15 0 0 0 15 0 0 0 1747 2158 5 MP stroke
c9
0 0 15 0 0 0 1762 2158 4 MP
PP
0 sg
-15 0 0 0 15 0 0 0 1762 2158 5 MP stroke
c9
0 0 16 0 0 0 1777 2158 4 MP
PP
0 sg
-16 0 0 0 16 0 0 0 1777 2158 5 MP stroke
c9
0 0 15 0 0 0 1793 2158 4 MP
PP
0 sg
-15 0 0 0 15 0 0 0 1793 2158 5 MP stroke
c9
0 0 16 0 0 0 1808 2158 4 MP
PP
0 sg
-16 0 0 0 16 0 0 0 1808 2158 5 MP stroke
c9
0 0 15 0 0 0 1824 2158 4 MP
PP
0 sg
-15 0 0 0 15 0 0 0 1824 2158 5 MP stroke
c9
0 0 16 0 0 0 1839 2158 4 MP
PP
0 sg
-16 0 0 0 16 0 0 0 1839 2158 5 MP stroke
c9
0 0 15 0 0 0 1855 2158 4 MP
PP
0 sg
-15 0 0 0 15 0 0 0 1855 2158 5 MP stroke
c9
0 0 15 0 0 0 1870 2158 4 MP
PP
0 sg
-15 0 0 0 15 0 0 0 1870 2158 5 MP stroke
c9
0 0 16 0 0 0 1885 2158 4 MP
PP
0 sg
-16 0 0 0 16 0 0 0 1885 2158 5 MP stroke
c9
0 0 15 0 0 0 1901 2158 4 MP
PP
0 sg
-15 0 0 0 15 0 0 0 1901 2158 5 MP stroke
c9
0 0 16 0 0 0 1916 2158 4 MP
PP
0 sg
-16 0 0 0 16 0 0 0 1916 2158 5 MP stroke
c9
0 0 15 0 0 0 1932 2158 4 MP
PP
0 sg
-15 0 0 0 15 0 0 0 1932 2158 5 MP stroke
c9
0 0 15 0 0 0 1947 2158 4 MP
PP
0 sg
-15 0 0 0 15 0 0 0 1947 2158 5 MP stroke
c9
0 0 16 0 0 0 1962 2158 4 MP
PP
0 sg
-16 0 0 0 16 0 0 0 1962 2158 5 MP stroke
c9
0 0 15 0 0 0 1978 2158 4 MP
PP
0 sg
-15 0 0 0 15 0 0 0 1978 2158 5 MP stroke
c9
0 0 16 0 0 0 1993 2158 4 MP
PP
0 sg
-16 0 0 0 16 0 0 0 1993 2158 5 MP stroke
c9
0 0 15 0 0 0 2009 2158 4 MP
PP
0 sg
-15 0 0 0 15 0 0 0 2009 2158 5 MP stroke
c9
0 0 16 0 0 0 2024 2158 4 MP
PP
0 sg
-16 0 0 0 16 0 0 0 2024 2158 5 MP stroke
c9
0 0 15 0 0 0 2040 2158 4 MP
PP
0 sg
-15 0 0 0 15 0 0 0 2040 2158 5 MP stroke
c9
0 0 15 0 0 0 2055 2158 4 MP
PP
0 sg
-15 0 0 0 15 0 0 0 2055 2158 5 MP stroke
c9
0 0 16 0 0 0 2070 2158 4 MP
PP
0 sg
-16 0 0 0 16 0 0 0 2070 2158 5 MP stroke
c9
0 0 15 0 0 0 2086 2158 4 MP
PP
0 sg
-15 0 0 0 15 0 0 0 2086 2158 5 MP stroke
c9
0 0 16 0 0 0 2101 2158 4 MP
PP
0 sg
-16 0 0 0 16 0 0 0 2101 2158 5 MP stroke
c9
0 0 15 0 0 0 2117 2158 4 MP
PP
0 sg
-15 0 0 0 15 0 0 0 2117 2158 5 MP stroke
c9
0 0 16 0 0 0 2132 2158 4 MP
PP
0 sg
-16 0 0 0 16 0 0 0 2132 2158 5 MP stroke
c9
0 0 15 0 0 0 2148 2158 4 MP
PP
0 sg
-15 0 0 0 15 0 0 0 2148 2158 5 MP stroke
c9
0 0 15 0 0 0 2163 2158 4 MP
PP
0 sg
-15 0 0 0 15 0 0 0 2163 2158 5 MP stroke
c9
0 0 16 0 0 0 2178 2158 4 MP
PP
0 sg
-16 0 0 0 16 0 0 0 2178 2158 5 MP stroke
c9
0 0 15 0 0 0 2194 2158 4 MP
PP
0 sg
-15 0 0 0 15 0 0 0 2194 2158 5 MP stroke
c9
0 0 16 0 0 0 2209 2158 4 MP
PP
0 sg
-16 0 0 0 16 0 0 0 2209 2158 5 MP stroke
c9
0 0 15 0 0 0 2225 2158 4 MP
PP
0 sg
-15 0 0 0 15 0 0 0 2225 2158 5 MP stroke
c9
0 0 15 0 0 0 2240 2158 4 MP
PP
0 sg
-15 0 0 0 15 0 0 0 2240 2158 5 MP stroke
c9
0 0 16 0 0 0 2255 2158 4 MP
PP
0 sg
-16 0 0 0 16 0 0 0 2255 2158 5 MP stroke
c9
0 0 15 0 0 0 2271 2158 4 MP
PP
0 sg
-15 0 0 0 15 0 0 0 2271 2158 5 MP stroke
c9
0 0 16 0 0 0 2286 2158 4 MP
PP
0 sg
-16 0 0 0 16 0 0 0 2286 2158 5 MP stroke
c9
0 0 15 0 0 0 2302 2158 4 MP
PP
0 sg
-15 0 0 0 15 0 0 0 2302 2158 5 MP stroke
c9
0 0 16 0 0 0 2317 2158 4 MP
PP
0 sg
-16 0 0 0 16 0 0 0 2317 2158 5 MP stroke
c9
0 0 15 0 0 0 2333 2158 4 MP
PP
0 sg
-15 0 0 0 15 0 0 0 2333 2158 5 MP stroke
c9
0 0 15 0 0 0 2348 2158 4 MP
PP
0 sg
-15 0 0 0 15 0 0 0 2348 2158 5 MP stroke
c9
0 0 16 0 0 0 2363 2158 4 MP
PP
0 sg
-16 0 0 0 16 0 0 0 2363 2158 5 MP stroke
c9
0 0 15 0 0 0 2379 2158 4 MP
PP
0 sg
-15 0 0 0 15 0 0 0 2379 2158 5 MP stroke
c9
0 0 16 0 0 0 2394 2158 4 MP
PP
0 sg
-16 0 0 0 16 0 0 0 2394 2158 5 MP stroke
c9
0 0 15 0 0 0 2410 2158 4 MP
PP
0 sg
-15 0 0 0 15 0 0 0 2410 2158 5 MP stroke
c9
0 9 16 0 0 -9 2425 2158 4 MP
PP
0 sg
-16 0 0 9 16 0 0 -9 2425 2158 5 MP stroke
c9
0 9 15 0 0 -9 2441 2158 4 MP
PP
0 sg
-15 0 0 9 15 0 0 -9 2441 2158 5 MP stroke
c9
0 0 15 0 0 0 2456 2158 4 MP
PP
0 sg
-15 0 0 0 15 0 0 0 2456 2158 5 MP stroke
c9
0 0 16 0 0 0 2471 2158 4 MP
PP
0 sg
-16 0 0 0 16 0 0 0 2471 2158 5 MP stroke
c9
0 0 15 0 0 0 2487 2158 4 MP
PP
0 sg
-15 0 0 0 15 0 0 0 2487 2158 5 MP stroke
c9
0 0 16 0 0 0 2502 2158 4 MP
PP
0 sg
-16 0 0 0 16 0 0 0 2502 2158 5 MP stroke
c9
0 0 15 0 0 0 2518 2158 4 MP
PP
0 sg
-15 0 0 0 15 0 0 0 2518 2158 5 MP stroke
c9
0 0 15 0 0 0 2533 2158 4 MP
PP
0 sg
-15 0 0 0 15 0 0 0 2533 2158 5 MP stroke
c9
0 0 16 0 0 0 2548 2158 4 MP
PP
0 sg
-16 0 0 0 16 0 0 0 2548 2158 5 MP stroke
c9
0 0 15 0 0 0 2564 2158 4 MP
PP
0 sg
-15 0 0 0 15 0 0 0 2564 2158 5 MP stroke
c9
0 0 16 0 0 0 2579 2158 4 MP
PP
0 sg
-16 0 0 0 16 0 0 0 2579 2158 5 MP stroke
c9
0 0 15 0 0 0 2595 2158 4 MP
PP
0 sg
-15 0 0 0 15 0 0 0 2595 2158 5 MP stroke
c9
0 0 16 0 0 0 2610 2158 4 MP
PP
0 sg
-16 0 0 0 16 0 0 0 2610 2158 5 MP stroke
c9
0 0 15 0 0 0 2626 2158 4 MP
PP
0 sg
-15 0 0 0 15 0 0 0 2626 2158 5 MP stroke
c9
0 0 15 0 0 0 2641 2158 4 MP
PP
0 sg
-15 0 0 0 15 0 0 0 2641 2158 5 MP stroke
c9
0 0 16 0 0 0 2656 2158 4 MP
PP
0 sg
-16 0 0 0 16 0 0 0 2656 2158 5 MP stroke
c9
0 0 15 0 0 0 2672 2158 4 MP
PP
0 sg
-15 0 0 0 15 0 0 0 2672 2158 5 MP stroke
c9
0 0 16 0 0 0 2687 2158 4 MP
PP
0 sg
-16 0 0 0 16 0 0 0 2687 2158 5 MP stroke
c9
0 0 15 0 0 0 2703 2158 4 MP
PP
0 sg
-15 0 0 0 15 0 0 0 2703 2158 5 MP stroke
c9
0 0 15 0 0 0 2718 2158 4 MP
PP
0 sg
-15 0 0 0 15 0 0 0 2718 2158 5 MP stroke
c9
0 0 16 0 0 0 2733 2158 4 MP
PP
0 sg
-16 0 0 0 16 0 0 0 2733 2158 5 MP stroke
c9
0 0 15 0 0 0 2749 2158 4 MP
PP
0 sg
-15 0 0 0 15 0 0 0 2749 2158 5 MP stroke
c9
0 0 16 0 0 0 2764 2158 4 MP
PP
0 sg
-16 0 0 0 16 0 0 0 2764 2158 5 MP stroke
c9
0 0 15 0 0 0 2780 2158 4 MP
PP
0 sg
-15 0 0 0 15 0 0 0 2780 2158 5 MP stroke
c9
0 0 16 0 0 0 2795 2158 4 MP
PP
0 sg
-16 0 0 0 16 0 0 0 2795 2158 5 MP stroke
c9
0 0 15 0 0 0 2811 2158 4 MP
PP
0 sg
-15 0 0 0 15 0 0 0 2811 2158 5 MP stroke
c9
0 0 15 0 0 0 2826 2158 4 MP
PP
0 sg
-15 0 0 0 15 0 0 0 2826 2158 5 MP stroke
c9
0 0 16 0 0 0 2841 2158 4 MP
PP
0 sg
-16 0 0 0 16 0 0 0 2841 2158 5 MP stroke
c9
0 0 15 0 0 0 2857 2158 4 MP
PP
0 sg
-15 0 0 0 15 0 0 0 2857 2158 5 MP stroke
c9
0 0 16 0 0 0 2872 2158 4 MP
PP
0 sg
-16 0 0 0 16 0 0 0 2872 2158 5 MP stroke
c9
0 0 15 0 0 0 2888 2158 4 MP
PP
0 sg
-15 0 0 0 15 0 0 0 2888 2158 5 MP stroke
c9
0 0 16 0 0 0 2903 2158 4 MP
PP
0 sg
-16 0 0 0 16 0 0 0 2903 2158 5 MP stroke
c9
0 0 15 0 0 0 2919 2158 4 MP
PP
0 sg
-15 0 0 0 15 0 0 0 2919 2158 5 MP stroke
c9
0 0 15 0 0 0 2934 2158 4 MP
PP
0 sg
-15 0 0 0 15 0 0 0 2934 2158 5 MP stroke
c9
0 0 16 0 0 0 2949 2158 4 MP
PP
0 sg
-16 0 0 0 16 0 0 0 2949 2158 5 MP stroke
c9
0 0 15 0 0 0 2965 2158 4 MP
PP
0 sg
-15 0 0 0 15 0 0 0 2965 2158 5 MP stroke
c9
0 0 16 0 0 0 2980 2158 4 MP
PP
0 sg
-16 0 0 0 16 0 0 0 2980 2158 5 MP stroke
c9
0 0 15 0 0 0 2996 2158 4 MP
PP
0 sg
-15 0 0 0 15 0 0 0 2996 2158 5 MP stroke
c9
0 0 15 0 0 0 3011 2158 4 MP
PP
0 sg
-15 0 0 0 15 0 0 0 3011 2158 5 MP stroke
c9
0 0 16 0 0 0 3026 2158 4 MP
PP
0 sg
-16 0 0 0 16 0 0 0 3026 2158 5 MP stroke
c9
0 0 15 0 0 0 3042 2158 4 MP
PP
0 sg
-15 0 0 0 15 0 0 0 3042 2158 5 MP stroke
c9
0 0 16 0 0 0 3057 2158 4 MP
PP
0 sg
-16 0 0 0 16 0 0 0 3057 2158 5 MP stroke
c9
0 0 15 0 0 0 3073 2158 4 MP
PP
0 sg
-15 0 0 0 15 0 0 0 3073 2158 5 MP stroke
c9
0 0 16 0 0 0 3088 2158 4 MP
PP
0 sg
-16 0 0 0 16 0 0 0 3088 2158 5 MP stroke
c9
0 0 15 0 0 0 3104 2158 4 MP
PP
0 sg
-15 0 0 0 15 0 0 0 3104 2158 5 MP stroke
c9
0 0 15 0 0 0 3119 2158 4 MP
PP
0 sg
-15 0 0 0 15 0 0 0 3119 2158 5 MP stroke
c9
0 0 16 0 0 0 3134 2158 4 MP
PP
0 sg
-16 0 0 0 16 0 0 0 3134 2158 5 MP stroke
c9
0 0 15 0 0 0 3150 2158 4 MP
PP
0 sg
-15 0 0 0 15 0 0 0 3150 2158 5 MP stroke
c9
0 0 16 0 0 0 3165 2158 4 MP
PP
0 sg
-16 0 0 0 16 0 0 0 3165 2158 5 MP stroke
c9
0 0 15 0 0 0 3181 2158 4 MP
PP
0 sg
-15 0 0 0 15 0 0 0 3181 2158 5 MP stroke
c9
0 9 16 0 0 -9 3196 2158 4 MP
PP
0 sg
-16 0 0 9 16 0 0 -9 3196 2158 5 MP stroke
1834 2446 mt 
(Time \(s\)) s
 582 1434 mt  -90 rotate
(Count) s
90 rotate
1953  294 mt 
(n=2) s
1 sg
0 1769 2313 0 0 -1769 3942 2158 4 MP
PP
-2313 0 0 1769 2313 0 0 -1769 3942 2158 5 MP stroke
4 w
DO
SO
6 w
0 sg
3942 2158 mt 6255 2158 L
3942  389 mt 6255  389 L
3942 2158 mt 3942  389 L
6255 2158 mt 6255  389 L
3942 2158 mt 6255 2158 L
3942 2158 mt 3942  389 L
3942 2158 mt 3942 2134 L
3942  389 mt 3942  412 L
3909 2303 mt 
(0) s
4520 2158 mt 4520 2134 L
4520  389 mt 4520  412 L
4487 2303 mt 
(1) s
5098 2158 mt 5098 2134 L
5098  389 mt 5098  412 L
5065 2303 mt 
(2) s
5676 2158 mt 5676 2134 L
5676  389 mt 5676  412 L
5643 2303 mt 
(3) s
6255 2158 mt 6255 2134 L
6255  389 mt 6255  412 L
6222 2303 mt 
(4) s
3942 2158 mt 3965 2158 L
6255 2158 mt 6231 2158 L
3841 2202 mt 
(0) s
3942 1863 mt 3965 1863 L
6255 1863 mt 6231 1863 L
3774 1907 mt 
(20) s
3942 1568 mt 3965 1568 L
6255 1568 mt 6231 1568 L
3774 1612 mt 
(40) s
3942 1273 mt 3965 1273 L
6255 1273 mt 6231 1273 L
3774 1317 mt 
(60) s
3942  978 mt 3965  978 L
6255  978 mt 6231  978 L
3774 1022 mt 
(80) s
3942  683 mt 3965  683 L
6255  683 mt 6231  683 L
3707  727 mt 
(100) s
3942  389 mt 3965  389 L
6255  389 mt 6231  389 L
3707  433 mt 
(120) s
3942 2158 mt 6255 2158 L
3942  389 mt 6255  389 L
3942 2158 mt 3942  389 L
6255 2158 mt 6255  389 L
24 w
c8
0 -1769 3947 2158 2 MP stroke
c9
0 1548 13 0 0 -1548 3942 2158 4 MP
PP
6 w
0 sg
-13 0 0 1548 13 0 0 -1548 3942 2158 5 MP stroke
c9
0 251 14 0 0 -251 3955 2158 4 MP
PP
0 sg
-14 0 0 251 14 0 0 -251 3955 2158 5 MP stroke
c9
0 89 13 0 0 -89 3969 2158 4 MP
PP
0 sg
-13 0 0 89 13 0 0 -89 3969 2158 5 MP stroke
c9
0 30 14 0 0 -30 3982 2158 4 MP
PP
0 sg
-14 0 0 30 14 0 0 -30 3982 2158 5 MP stroke
c9
0 74 13 0 0 -74 3996 2158 4 MP
PP
0 sg
-13 0 0 74 13 0 0 -74 3996 2158 5 MP stroke
c9
0 30 14 0 0 -30 4009 2158 4 MP
PP
0 sg
-14 0 0 30 14 0 0 -30 4009 2158 5 MP stroke
c9
0 45 13 0 0 -45 4023 2158 4 MP
PP
0 sg
-13 0 0 45 13 0 0 -45 4023 2158 5 MP stroke
c9
0 0 14 0 0 0 4036 2158 4 MP
PP
0 sg
-14 0 0 0 14 0 0 0 4036 2158 5 MP stroke
c9
0 15 13 0 0 -15 4050 2158 4 MP
PP
0 sg
-13 0 0 15 13 0 0 -15 4050 2158 5 MP stroke
c9
0 0 14 0 0 0 4063 2158 4 MP
PP
0 sg
-14 0 0 0 14 0 0 0 4063 2158 5 MP stroke
c9
0 15 13 0 0 -15 4077 2158 4 MP
PP
0 sg
-13 0 0 15 13 0 0 -15 4077 2158 5 MP stroke
c9
0 15 14 0 0 -15 4090 2158 4 MP
PP
0 sg
-14 0 0 15 14 0 0 -15 4090 2158 5 MP stroke
c9
0 0 14 0 0 0 4104 2158 4 MP
PP
0 sg
-14 0 0 0 14 0 0 0 4104 2158 5 MP stroke
c9
0 0 13 0 0 0 4118 2158 4 MP
PP
0 sg
-13 0 0 0 13 0 0 0 4118 2158 5 MP stroke
c9
0 0 14 0 0 0 4131 2158 4 MP
PP
0 sg
-14 0 0 0 14 0 0 0 4131 2158 5 MP stroke
c9
0 0 13 0 0 0 4145 2158 4 MP
PP
0 sg
-13 0 0 0 13 0 0 0 4145 2158 5 MP stroke
c9
0 0 14 0 0 0 4158 2158 4 MP
PP
0 sg
-14 0 0 0 14 0 0 0 4158 2158 5 MP stroke
c9
0 15 13 0 0 -15 4172 2158 4 MP
PP
0 sg
-13 0 0 15 13 0 0 -15 4172 2158 5 MP stroke
c9
0 0 14 0 0 0 4185 2158 4 MP
PP
0 sg
-14 0 0 0 14 0 0 0 4185 2158 5 MP stroke
c9
0 0 13 0 0 0 4199 2158 4 MP
PP
0 sg
-13 0 0 0 13 0 0 0 4199 2158 5 MP stroke
c9
0 0 14 0 0 0 4212 2158 4 MP
PP
0 sg
-14 0 0 0 14 0 0 0 4212 2158 5 MP stroke
c9
0 15 13 0 0 -15 4226 2158 4 MP
PP
0 sg
-13 0 0 15 13 0 0 -15 4226 2158 5 MP stroke
c9
0 0 14 0 0 0 4239 2158 4 MP
PP
0 sg
-14 0 0 0 14 0 0 0 4239 2158 5 MP stroke
c9
0 0 14 0 0 0 4253 2158 4 MP
PP
0 sg
-14 0 0 0 14 0 0 0 4253 2158 5 MP stroke
c9
0 0 13 0 0 0 4267 2158 4 MP
PP
0 sg
-13 0 0 0 13 0 0 0 4267 2158 5 MP stroke
c9
0 0 14 0 0 0 4280 2158 4 MP
PP
0 sg
-14 0 0 0 14 0 0 0 4280 2158 5 MP stroke
c9
0 15 13 0 0 -15 4294 2158 4 MP
PP
0 sg
-13 0 0 15 13 0 0 -15 4294 2158 5 MP stroke
c9
0 0 14 0 0 0 4307 2158 4 MP
PP
0 sg
-14 0 0 0 14 0 0 0 4307 2158 5 MP stroke
c9
0 0 13 0 0 0 4321 2158 4 MP
PP
0 sg
-13 0 0 0 13 0 0 0 4321 2158 5 MP stroke
c9
0 0 14 0 0 0 4334 2158 4 MP
PP
0 sg
-14 0 0 0 14 0 0 0 4334 2158 5 MP stroke
c9
0 0 13 0 0 0 4348 2158 4 MP
PP
0 sg
-13 0 0 0 13 0 0 0 4348 2158 5 MP stroke
c9
0 0 14 0 0 0 4361 2158 4 MP
PP
0 sg
-14 0 0 0 14 0 0 0 4361 2158 5 MP stroke
c9
0 0 13 0 0 0 4375 2158 4 MP
PP
0 sg
-13 0 0 0 13 0 0 0 4375 2158 5 MP stroke
c9
0 0 14 0 0 0 4388 2158 4 MP
PP
0 sg
-14 0 0 0 14 0 0 0 4388 2158 5 MP stroke
c9
0 0 14 0 0 0 4402 2158 4 MP
PP
0 sg
-14 0 0 0 14 0 0 0 4402 2158 5 MP stroke
c9
0 0 13 0 0 0 4416 2158 4 MP
PP
0 sg
-13 0 0 0 13 0 0 0 4416 2158 5 MP stroke
c9
0 0 14 0 0 0 4429 2158 4 MP
PP
0 sg
-14 0 0 0 14 0 0 0 4429 2158 5 MP stroke
c9
0 0 13 0 0 0 4443 2158 4 MP
PP
0 sg
-13 0 0 0 13 0 0 0 4443 2158 5 MP stroke
c9
0 0 14 0 0 0 4456 2158 4 MP
PP
0 sg
-14 0 0 0 14 0 0 0 4456 2158 5 MP stroke
c9
0 0 13 0 0 0 4470 2158 4 MP
PP
0 sg
-13 0 0 0 13 0 0 0 4470 2158 5 MP stroke
c9
0 0 14 0 0 0 4483 2158 4 MP
PP
0 sg
-14 0 0 0 14 0 0 0 4483 2158 5 MP stroke
c9
0 0 13 0 0 0 4497 2158 4 MP
PP
0 sg
-13 0 0 0 13 0 0 0 4497 2158 5 MP stroke
c9
0 0 14 0 0 0 4510 2158 4 MP
PP
0 sg
-14 0 0 0 14 0 0 0 4510 2158 5 MP stroke
c9
0 15 13 0 0 -15 4524 2158 4 MP
PP
0 sg
-13 0 0 15 13 0 0 -15 4524 2158 5 MP stroke
c9
0 0 14 0 0 0 4537 2158 4 MP
PP
0 sg
-14 0 0 0 14 0 0 0 4537 2158 5 MP stroke
c9
0 0 14 0 0 0 4551 2158 4 MP
PP
0 sg
-14 0 0 0 14 0 0 0 4551 2158 5 MP stroke
c9
0 0 13 0 0 0 4565 2158 4 MP
PP
0 sg
-13 0 0 0 13 0 0 0 4565 2158 5 MP stroke
c9
0 0 14 0 0 0 4578 2158 4 MP
PP
0 sg
-14 0 0 0 14 0 0 0 4578 2158 5 MP stroke
c9
0 0 13 0 0 0 4592 2158 4 MP
PP
0 sg
-13 0 0 0 13 0 0 0 4592 2158 5 MP stroke
c9
0 0 14 0 0 0 4605 2158 4 MP
PP
0 sg
-14 0 0 0 14 0 0 0 4605 2158 5 MP stroke
c9
0 0 13 0 0 0 4619 2158 4 MP
PP
0 sg
-13 0 0 0 13 0 0 0 4619 2158 5 MP stroke
c9
0 0 14 0 0 0 4632 2158 4 MP
PP
0 sg
-14 0 0 0 14 0 0 0 4632 2158 5 MP stroke
c9
0 0 13 0 0 0 4646 2158 4 MP
PP
0 sg
-13 0 0 0 13 0 0 0 4646 2158 5 MP stroke
c9
0 15 14 0 0 -15 4659 2158 4 MP
PP
0 sg
-14 0 0 15 14 0 0 -15 4659 2158 5 MP stroke
c9
0 0 13 0 0 0 4673 2158 4 MP
PP
0 sg
-13 0 0 0 13 0 0 0 4673 2158 5 MP stroke
c9
0 0 14 0 0 0 4686 2158 4 MP
PP
0 sg
-14 0 0 0 14 0 0 0 4686 2158 5 MP stroke
c9
0 0 14 0 0 0 4700 2158 4 MP
PP
0 sg
-14 0 0 0 14 0 0 0 4700 2158 5 MP stroke
c9
0 0 13 0 0 0 4714 2158 4 MP
PP
0 sg
-13 0 0 0 13 0 0 0 4714 2158 5 MP stroke
c9
0 0 14 0 0 0 4727 2158 4 MP
PP
0 sg
-14 0 0 0 14 0 0 0 4727 2158 5 MP stroke
c9
0 0 13 0 0 0 4741 2158 4 MP
PP
0 sg
-13 0 0 0 13 0 0 0 4741 2158 5 MP stroke
c9
0 0 14 0 0 0 4754 2158 4 MP
PP
0 sg
-14 0 0 0 14 0 0 0 4754 2158 5 MP stroke
c9
0 0 13 0 0 0 4768 2158 4 MP
PP
0 sg
-13 0 0 0 13 0 0 0 4768 2158 5 MP stroke
c9
0 0 14 0 0 0 4781 2158 4 MP
PP
0 sg
-14 0 0 0 14 0 0 0 4781 2158 5 MP stroke
c9
0 0 13 0 0 0 4795 2158 4 MP
PP
0 sg
-13 0 0 0 13 0 0 0 4795 2158 5 MP stroke
c9
0 0 14 0 0 0 4808 2158 4 MP
PP
0 sg
-14 0 0 0 14 0 0 0 4808 2158 5 MP stroke
c9
0 0 13 0 0 0 4822 2158 4 MP
PP
0 sg
-13 0 0 0 13 0 0 0 4822 2158 5 MP stroke
c9
0 0 14 0 0 0 4835 2158 4 MP
PP
0 sg
-14 0 0 0 14 0 0 0 4835 2158 5 MP stroke
c9
0 0 13 0 0 0 4849 2158 4 MP
PP
0 sg
-13 0 0 0 13 0 0 0 4849 2158 5 MP stroke
c9
0 0 14 0 0 0 4862 2158 4 MP
PP
0 sg
-14 0 0 0 14 0 0 0 4862 2158 5 MP stroke
c9
0 0 14 0 0 0 4876 2158 4 MP
PP
0 sg
-14 0 0 0 14 0 0 0 4876 2158 5 MP stroke
c9
0 0 13 0 0 0 4890 2158 4 MP
PP
0 sg
-13 0 0 0 13 0 0 0 4890 2158 5 MP stroke
c9
0 0 14 0 0 0 4903 2158 4 MP
PP
0 sg
-14 0 0 0 14 0 0 0 4903 2158 5 MP stroke
c9
0 0 13 0 0 0 4917 2158 4 MP
PP
0 sg
-13 0 0 0 13 0 0 0 4917 2158 5 MP stroke
c9
0 0 14 0 0 0 4930 2158 4 MP
PP
0 sg
-14 0 0 0 14 0 0 0 4930 2158 5 MP stroke
c9
0 0 13 0 0 0 4944 2158 4 MP
PP
0 sg
-13 0 0 0 13 0 0 0 4944 2158 5 MP stroke
c9
0 0 14 0 0 0 4957 2158 4 MP
PP
0 sg
-14 0 0 0 14 0 0 0 4957 2158 5 MP stroke
c9
0 0 13 0 0 0 4971 2158 4 MP
PP
0 sg
-13 0 0 0 13 0 0 0 4971 2158 5 MP stroke
c9
0 0 14 0 0 0 4984 2158 4 MP
PP
0 sg
-14 0 0 0 14 0 0 0 4984 2158 5 MP stroke
c9
0 0 13 0 0 0 4998 2158 4 MP
PP
0 sg
-13 0 0 0 13 0 0 0 4998 2158 5 MP stroke
c9
0 0 14 0 0 0 5011 2158 4 MP
PP
0 sg
-14 0 0 0 14 0 0 0 5011 2158 5 MP stroke
c9
0 0 14 0 0 0 5025 2158 4 MP
PP
0 sg
-14 0 0 0 14 0 0 0 5025 2158 5 MP stroke
c9
0 0 13 0 0 0 5039 2158 4 MP
PP
0 sg
-13 0 0 0 13 0 0 0 5039 2158 5 MP stroke
c9
0 0 14 0 0 0 5052 2158 4 MP
PP
0 sg
-14 0 0 0 14 0 0 0 5052 2158 5 MP stroke
c9
0 0 13 0 0 0 5066 2158 4 MP
PP
0 sg
-13 0 0 0 13 0 0 0 5066 2158 5 MP stroke
c9
0 0 14 0 0 0 5079 2158 4 MP
PP
0 sg
-14 0 0 0 14 0 0 0 5079 2158 5 MP stroke
c9
0 0 13 0 0 0 5093 2158 4 MP
PP
0 sg
-13 0 0 0 13 0 0 0 5093 2158 5 MP stroke
c9
0 0 14 0 0 0 5106 2158 4 MP
PP
0 sg
-14 0 0 0 14 0 0 0 5106 2158 5 MP stroke
c9
0 0 13 0 0 0 5120 2158 4 MP
PP
0 sg
-13 0 0 0 13 0 0 0 5120 2158 5 MP stroke
c9
0 0 14 0 0 0 5133 2158 4 MP
PP
0 sg
-14 0 0 0 14 0 0 0 5133 2158 5 MP stroke
c9
0 0 13 0 0 0 5147 2158 4 MP
PP
0 sg
-13 0 0 0 13 0 0 0 5147 2158 5 MP stroke
c9
0 0 14 0 0 0 5160 2158 4 MP
PP
0 sg
-14 0 0 0 14 0 0 0 5160 2158 5 MP stroke
c9
0 0 14 0 0 0 5174 2158 4 MP
PP
0 sg
-14 0 0 0 14 0 0 0 5174 2158 5 MP stroke
c9
0 0 13 0 0 0 5188 2158 4 MP
PP
0 sg
-13 0 0 0 13 0 0 0 5188 2158 5 MP stroke
c9
0 0 14 0 0 0 5201 2158 4 MP
PP
0 sg
-14 0 0 0 14 0 0 0 5201 2158 5 MP stroke
c9
0 0 13 0 0 0 5215 2158 4 MP
PP
0 sg
-13 0 0 0 13 0 0 0 5215 2158 5 MP stroke
c9
0 0 14 0 0 0 5228 2158 4 MP
PP
0 sg
-14 0 0 0 14 0 0 0 5228 2158 5 MP stroke
c9
0 0 13 0 0 0 5242 2158 4 MP
PP
0 sg
-13 0 0 0 13 0 0 0 5242 2158 5 MP stroke
c9
0 0 14 0 0 0 5255 2158 4 MP
PP
0 sg
-14 0 0 0 14 0 0 0 5255 2158 5 MP stroke
c9
0 0 13 0 0 0 5269 2158 4 MP
PP
0 sg
-13 0 0 0 13 0 0 0 5269 2158 5 MP stroke
c9
0 0 14 0 0 0 5282 2158 4 MP
PP
0 sg
-14 0 0 0 14 0 0 0 5282 2158 5 MP stroke
c9
0 0 13 0 0 0 5296 2158 4 MP
PP
0 sg
-13 0 0 0 13 0 0 0 5296 2158 5 MP stroke
c9
0 0 14 0 0 0 5309 2158 4 MP
PP
0 sg
-14 0 0 0 14 0 0 0 5309 2158 5 MP stroke
c9
0 0 14 0 0 0 5323 2158 4 MP
PP
0 sg
-14 0 0 0 14 0 0 0 5323 2158 5 MP stroke
c9
0 0 13 0 0 0 5337 2158 4 MP
PP
0 sg
-13 0 0 0 13 0 0 0 5337 2158 5 MP stroke
c9
0 0 14 0 0 0 5350 2158 4 MP
PP
0 sg
-14 0 0 0 14 0 0 0 5350 2158 5 MP stroke
c9
0 0 13 0 0 0 5364 2158 4 MP
PP
0 sg
-13 0 0 0 13 0 0 0 5364 2158 5 MP stroke
c9
0 0 14 0 0 0 5377 2158 4 MP
PP
0 sg
-14 0 0 0 14 0 0 0 5377 2158 5 MP stroke
c9
0 0 13 0 0 0 5391 2158 4 MP
PP
0 sg
-13 0 0 0 13 0 0 0 5391 2158 5 MP stroke
c9
0 0 14 0 0 0 5404 2158 4 MP
PP
0 sg
-14 0 0 0 14 0 0 0 5404 2158 5 MP stroke
c9
0 0 13 0 0 0 5418 2158 4 MP
PP
0 sg
-13 0 0 0 13 0 0 0 5418 2158 5 MP stroke
c9
0 0 14 0 0 0 5431 2158 4 MP
PP
0 sg
-14 0 0 0 14 0 0 0 5431 2158 5 MP stroke
c9
0 0 13 0 0 0 5445 2158 4 MP
PP
0 sg
-13 0 0 0 13 0 0 0 5445 2158 5 MP stroke
c9
0 0 14 0 0 0 5458 2158 4 MP
PP
0 sg
-14 0 0 0 14 0 0 0 5458 2158 5 MP stroke
c9
0 0 14 0 0 0 5472 2158 4 MP
PP
0 sg
-14 0 0 0 14 0 0 0 5472 2158 5 MP stroke
c9
0 0 13 0 0 0 5486 2158 4 MP
PP
0 sg
-13 0 0 0 13 0 0 0 5486 2158 5 MP stroke
c9
0 15 14 0 0 -15 5499 2158 4 MP
PP
0 sg
-14 0 0 15 14 0 0 -15 5499 2158 5 MP stroke
c9
0 0 13 0 0 0 5513 2158 4 MP
PP
0 sg
-13 0 0 0 13 0 0 0 5513 2158 5 MP stroke
c9
0 0 14 0 0 0 5526 2158 4 MP
PP
0 sg
-14 0 0 0 14 0 0 0 5526 2158 5 MP stroke
c9
0 0 13 0 0 0 5540 2158 4 MP
PP
0 sg
-13 0 0 0 13 0 0 0 5540 2158 5 MP stroke
c9
0 0 14 0 0 0 5553 2158 4 MP
PP
0 sg
-14 0 0 0 14 0 0 0 5553 2158 5 MP stroke
c9
0 0 13 0 0 0 5567 2158 4 MP
PP
0 sg
-13 0 0 0 13 0 0 0 5567 2158 5 MP stroke
c9
0 0 14 0 0 0 5580 2158 4 MP
PP
0 sg
-14 0 0 0 14 0 0 0 5580 2158 5 MP stroke
c9
0 0 13 0 0 0 5594 2158 4 MP
PP
0 sg
-13 0 0 0 13 0 0 0 5594 2158 5 MP stroke
c9
0 0 14 0 0 0 5607 2158 4 MP
PP
0 sg
-14 0 0 0 14 0 0 0 5607 2158 5 MP stroke
c9
0 0 13 0 0 0 5621 2158 4 MP
PP
0 sg
-13 0 0 0 13 0 0 0 5621 2158 5 MP stroke
c9
0 0 14 0 0 0 5634 2158 4 MP
PP
0 sg
-14 0 0 0 14 0 0 0 5634 2158 5 MP stroke
c9
0 0 14 0 0 0 5648 2158 4 MP
PP
0 sg
-14 0 0 0 14 0 0 0 5648 2158 5 MP stroke
c9
0 0 13 0 0 0 5662 2158 4 MP
PP
0 sg
-13 0 0 0 13 0 0 0 5662 2158 5 MP stroke
c9
0 0 14 0 0 0 5675 2158 4 MP
PP
0 sg
-14 0 0 0 14 0 0 0 5675 2158 5 MP stroke
c9
0 0 13 0 0 0 5689 2158 4 MP
PP
0 sg
-13 0 0 0 13 0 0 0 5689 2158 5 MP stroke
c9
0 0 14 0 0 0 5702 2158 4 MP
PP
0 sg
-14 0 0 0 14 0 0 0 5702 2158 5 MP stroke
c9
0 0 13 0 0 0 5716 2158 4 MP
PP
0 sg
-13 0 0 0 13 0 0 0 5716 2158 5 MP stroke
c9
0 0 14 0 0 0 5729 2158 4 MP
PP
0 sg
-14 0 0 0 14 0 0 0 5729 2158 5 MP stroke
c9
0 0 13 0 0 0 5743 2158 4 MP
PP
0 sg
-13 0 0 0 13 0 0 0 5743 2158 5 MP stroke
c9
0 0 14 0 0 0 5756 2158 4 MP
PP
0 sg
-14 0 0 0 14 0 0 0 5756 2158 5 MP stroke
c9
0 0 13 0 0 0 5770 2158 4 MP
PP
0 sg
-13 0 0 0 13 0 0 0 5770 2158 5 MP stroke
c9
0 0 14 0 0 0 5783 2158 4 MP
PP
0 sg
-14 0 0 0 14 0 0 0 5783 2158 5 MP stroke
c9
0 0 14 0 0 0 5797 2158 4 MP
PP
0 sg
-14 0 0 0 14 0 0 0 5797 2158 5 MP stroke
c9
0 0 13 0 0 0 5811 2158 4 MP
PP
0 sg
-13 0 0 0 13 0 0 0 5811 2158 5 MP stroke
c9
0 0 14 0 0 0 5824 2158 4 MP
PP
0 sg
-14 0 0 0 14 0 0 0 5824 2158 5 MP stroke
c9
0 0 13 0 0 0 5838 2158 4 MP
PP
0 sg
-13 0 0 0 13 0 0 0 5838 2158 5 MP stroke
c9
0 0 14 0 0 0 5851 2158 4 MP
PP
0 sg
-14 0 0 0 14 0 0 0 5851 2158 5 MP stroke
c9
0 0 13 0 0 0 5865 2158 4 MP
PP
0 sg
-13 0 0 0 13 0 0 0 5865 2158 5 MP stroke
c9
0 0 14 0 0 0 5878 2158 4 MP
PP
0 sg
-14 0 0 0 14 0 0 0 5878 2158 5 MP stroke
c9
0 0 13 0 0 0 5892 2158 4 MP
PP
0 sg
-13 0 0 0 13 0 0 0 5892 2158 5 MP stroke
c9
0 0 14 0 0 0 5905 2158 4 MP
PP
0 sg
-14 0 0 0 14 0 0 0 5905 2158 5 MP stroke
c9
0 0 13 0 0 0 5919 2158 4 MP
PP
0 sg
-13 0 0 0 13 0 0 0 5919 2158 5 MP stroke
c9
0 0 14 0 0 0 5932 2158 4 MP
PP
0 sg
-14 0 0 0 14 0 0 0 5932 2158 5 MP stroke
c9
0 0 14 0 0 0 5946 2158 4 MP
PP
0 sg
-14 0 0 0 14 0 0 0 5946 2158 5 MP stroke
c9
0 15 13 0 0 -15 5960 2158 4 MP
PP
0 sg
-13 0 0 15 13 0 0 -15 5960 2158 5 MP stroke
4877 2446 mt 
(Time \(s\)) s
3625 1434 mt  -90 rotate
(Count) s
90 rotate
4996  294 mt 
(n=3) s
1 sg
0 1769 2313 0 0 -1769 899 4615 4 MP
PP
-2313 0 0 1769 2313 0 0 -1769 899 4615 5 MP stroke
4 w
DO
SO
6 w
0 sg
 899 4615 mt 3212 4615 L
 899 2846 mt 3212 2846 L
 899 4615 mt  899 2846 L
3212 4615 mt 3212 2846 L
 899 4615 mt 3212 4615 L
 899 4615 mt  899 2846 L
 899 4615 mt  899 4591 L
 899 2846 mt  899 2869 L
 866 4760 mt 
(0) s
1477 4615 mt 1477 4591 L
1477 2846 mt 1477 2869 L
1394 4760 mt 
(0.5) s
2055 4615 mt 2055 4591 L
2055 2846 mt 2055 2869 L
2022 4760 mt 
(1) s
2633 4615 mt 2633 4591 L
2633 2846 mt 2633 2869 L
2550 4760 mt 
(1.5) s
3212 4615 mt 3212 4591 L
3212 2846 mt 3212 2869 L
3179 4760 mt 
(2) s
2942 4962 mt 
(x 10) s
%%IncludeResource: font Helvetica
/Helvetica /ISOLatin1Encoding 80 FMSR

3168 4888 mt 
(5) s
 899 4615 mt  922 4615 L
3212 4615 mt 3188 4615 L
%%IncludeResource: font Helvetica
/Helvetica /ISOLatin1Encoding 120 FMSR

 798 4659 mt 
(0) s
 899 4261 mt  922 4261 L
3212 4261 mt 3188 4261 L
 698 4305 mt 
(0.2) s
 899 3907 mt  922 3907 L
3212 3907 mt 3188 3907 L
 698 3951 mt 
(0.4) s
 899 3553 mt  922 3553 L
3212 3553 mt 3188 3553 L
 698 3597 mt 
(0.6) s
 899 3199 mt  922 3199 L
3212 3199 mt 3188 3199 L
 698 3243 mt 
(0.8) s
 899 2846 mt  922 2846 L
3212 2846 mt 3188 2846 L
 798 2890 mt 
(1) s
 899 4615 mt 3212 4615 L
 899 2846 mt 3212 2846 L
 899 4615 mt  899 2846 L
3212 4615 mt 3212 2846 L
24 w
c8
0 -1769 1088 4615 2 MP stroke
c9
0 1769 15 0 0 -1769 905 4615 4 MP
PP
6 w
0 sg
-15 0 0 1769 15 0 0 -1769 905 4615 5 MP stroke
c9
0 0 15 0 0 0 920 4615 4 MP
PP
0 sg
-15 0 0 0 15 0 0 0 920 4615 5 MP stroke
c9
0 0 15 0 0 0 935 4615 4 MP
PP
0 sg
-15 0 0 0 15 0 0 0 935 4615 5 MP stroke
c9
0 0 15 0 0 0 950 4615 4 MP
PP
0 sg
-15 0 0 0 15 0 0 0 950 4615 5 MP stroke
c9
0 0 15 0 0 0 965 4615 4 MP
PP
0 sg
-15 0 0 0 15 0 0 0 965 4615 5 MP stroke
c9
0 0 15 0 0 0 980 4615 4 MP
PP
0 sg
-15 0 0 0 15 0 0 0 980 4615 5 MP stroke
c9
0 0 15 0 0 0 995 4615 4 MP
PP
0 sg
-15 0 0 0 15 0 0 0 995 4615 5 MP stroke
c9
0 0 15 0 0 0 1010 4615 4 MP
PP
0 sg
-15 0 0 0 15 0 0 0 1010 4615 5 MP stroke
c9
0 0 15 0 0 0 1025 4615 4 MP
PP
0 sg
-15 0 0 0 15 0 0 0 1025 4615 5 MP stroke
c9
0 0 15 0 0 0 1040 4615 4 MP
PP
0 sg
-15 0 0 0 15 0 0 0 1040 4615 5 MP stroke
c9
0 0 15 0 0 0 1055 4615 4 MP
PP
0 sg
-15 0 0 0 15 0 0 0 1055 4615 5 MP stroke
c9
0 0 15 0 0 0 1070 4615 4 MP
PP
0 sg
-15 0 0 0 15 0 0 0 1070 4615 5 MP stroke
c9
0 1769 15 0 0 -1769 1085 4615 4 MP
PP
0 sg
-15 0 0 1769 15 0 0 -1769 1085 4615 5 MP stroke
c9
0 0 15 0 0 0 1100 4615 4 MP
PP
0 sg
-15 0 0 0 15 0 0 0 1100 4615 5 MP stroke
c9
0 0 15 0 0 0 1115 4615 4 MP
PP
0 sg
-15 0 0 0 15 0 0 0 1115 4615 5 MP stroke
c9
0 0 15 0 0 0 1130 4615 4 MP
PP
0 sg
-15 0 0 0 15 0 0 0 1130 4615 5 MP stroke
c9
0 0 15 0 0 0 1145 4615 4 MP
PP
0 sg
-15 0 0 0 15 0 0 0 1145 4615 5 MP stroke
c9
0 0 15 0 0 0 1160 4615 4 MP
PP
0 sg
-15 0 0 0 15 0 0 0 1160 4615 5 MP stroke
c9
0 0 15 0 0 0 1175 4615 4 MP
PP
0 sg
-15 0 0 0 15 0 0 0 1175 4615 5 MP stroke
c9
0 0 14 0 0 0 1190 4615 4 MP
PP
0 sg
-14 0 0 0 14 0 0 0 1190 4615 5 MP stroke
c9
0 0 15 0 0 0 1204 4615 4 MP
PP
0 sg
-15 0 0 0 15 0 0 0 1204 4615 5 MP stroke
c9
0 0 15 0 0 0 1219 4615 4 MP
PP
0 sg
-15 0 0 0 15 0 0 0 1219 4615 5 MP stroke
c9
0 0 15 0 0 0 1234 4615 4 MP
PP
0 sg
-15 0 0 0 15 0 0 0 1234 4615 5 MP stroke
c9
0 0 15 0 0 0 1249 4615 4 MP
PP
0 sg
-15 0 0 0 15 0 0 0 1249 4615 5 MP stroke
c9
0 0 15 0 0 0 1264 4615 4 MP
PP
0 sg
-15 0 0 0 15 0 0 0 1264 4615 5 MP stroke
c9
0 0 15 0 0 0 1279 4615 4 MP
PP
0 sg
-15 0 0 0 15 0 0 0 1279 4615 5 MP stroke
c9
0 0 15 0 0 0 1294 4615 4 MP
PP
0 sg
-15 0 0 0 15 0 0 0 1294 4615 5 MP stroke
c9
0 0 15 0 0 0 1309 4615 4 MP
PP
0 sg
-15 0 0 0 15 0 0 0 1309 4615 5 MP stroke
c9
0 0 15 0 0 0 1324 4615 4 MP
PP
0 sg
-15 0 0 0 15 0 0 0 1324 4615 5 MP stroke
c9
0 0 15 0 0 0 1339 4615 4 MP
PP
0 sg
-15 0 0 0 15 0 0 0 1339 4615 5 MP stroke
c9
0 0 15 0 0 0 1354 4615 4 MP
PP
0 sg
-15 0 0 0 15 0 0 0 1354 4615 5 MP stroke
c9
0 0 15 0 0 0 1369 4615 4 MP
PP
0 sg
-15 0 0 0 15 0 0 0 1369 4615 5 MP stroke
c9
0 0 15 0 0 0 1384 4615 4 MP
PP
0 sg
-15 0 0 0 15 0 0 0 1384 4615 5 MP stroke
c9
0 0 15 0 0 0 1399 4615 4 MP
PP
0 sg
-15 0 0 0 15 0 0 0 1399 4615 5 MP stroke
c9
0 0 15 0 0 0 1414 4615 4 MP
PP
0 sg
-15 0 0 0 15 0 0 0 1414 4615 5 MP stroke
c9
0 0 15 0 0 0 1429 4615 4 MP
PP
0 sg
-15 0 0 0 15 0 0 0 1429 4615 5 MP stroke
c9
0 0 15 0 0 0 1444 4615 4 MP
PP
0 sg
-15 0 0 0 15 0 0 0 1444 4615 5 MP stroke
c9
0 0 15 0 0 0 1459 4615 4 MP
PP
0 sg
-15 0 0 0 15 0 0 0 1459 4615 5 MP stroke
c9
0 0 15 0 0 0 1474 4615 4 MP
PP
0 sg
-15 0 0 0 15 0 0 0 1474 4615 5 MP stroke
c9
0 0 15 0 0 0 1489 4615 4 MP
PP
0 sg
-15 0 0 0 15 0 0 0 1489 4615 5 MP stroke
c9
0 0 15 0 0 0 1504 4615 4 MP
PP
0 sg
-15 0 0 0 15 0 0 0 1504 4615 5 MP stroke
c9
0 0 15 0 0 0 1519 4615 4 MP
PP
0 sg
-15 0 0 0 15 0 0 0 1519 4615 5 MP stroke
c9
0 0 15 0 0 0 1534 4615 4 MP
PP
0 sg
-15 0 0 0 15 0 0 0 1534 4615 5 MP stroke
c9
0 0 15 0 0 0 1549 4615 4 MP
PP
0 sg
-15 0 0 0 15 0 0 0 1549 4615 5 MP stroke
c9
0 0 15 0 0 0 1564 4615 4 MP
PP
0 sg
-15 0 0 0 15 0 0 0 1564 4615 5 MP stroke
c9
0 0 15 0 0 0 1579 4615 4 MP
PP
0 sg
-15 0 0 0 15 0 0 0 1579 4615 5 MP stroke
c9
0 0 15 0 0 0 1594 4615 4 MP
PP
0 sg
-15 0 0 0 15 0 0 0 1594 4615 5 MP stroke
c9
0 0 15 0 0 0 1609 4615 4 MP
PP
0 sg
-15 0 0 0 15 0 0 0 1609 4615 5 MP stroke
c9
0 0 15 0 0 0 1624 4615 4 MP
PP
0 sg
-15 0 0 0 15 0 0 0 1624 4615 5 MP stroke
c9
0 0 15 0 0 0 1639 4615 4 MP
PP
0 sg
-15 0 0 0 15 0 0 0 1639 4615 5 MP stroke
c9
0 0 15 0 0 0 1654 4615 4 MP
PP
0 sg
-15 0 0 0 15 0 0 0 1654 4615 5 MP stroke
c9
0 0 15 0 0 0 1669 4615 4 MP
PP
0 sg
-15 0 0 0 15 0 0 0 1669 4615 5 MP stroke
c9
0 0 15 0 0 0 1684 4615 4 MP
PP
0 sg
-15 0 0 0 15 0 0 0 1684 4615 5 MP stroke
c9
0 0 15 0 0 0 1699 4615 4 MP
PP
0 sg
-15 0 0 0 15 0 0 0 1699 4615 5 MP stroke
c9
0 0 15 0 0 0 1714 4615 4 MP
PP
0 sg
-15 0 0 0 15 0 0 0 1714 4615 5 MP stroke
c9
0 0 15 0 0 0 1729 4615 4 MP
PP
0 sg
-15 0 0 0 15 0 0 0 1729 4615 5 MP stroke
c9
0 0 15 0 0 0 1744 4615 4 MP
PP
0 sg
-15 0 0 0 15 0 0 0 1744 4615 5 MP stroke
c9
0 0 15 0 0 0 1759 4615 4 MP
PP
0 sg
-15 0 0 0 15 0 0 0 1759 4615 5 MP stroke
c9
0 0 14 0 0 0 1774 4615 4 MP
PP
0 sg
-14 0 0 0 14 0 0 0 1774 4615 5 MP stroke
c9
0 0 15 0 0 0 1788 4615 4 MP
PP
0 sg
-15 0 0 0 15 0 0 0 1788 4615 5 MP stroke
c9
0 0 15 0 0 0 1803 4615 4 MP
PP
0 sg
-15 0 0 0 15 0 0 0 1803 4615 5 MP stroke
c9
0 0 15 0 0 0 1818 4615 4 MP
PP
0 sg
-15 0 0 0 15 0 0 0 1818 4615 5 MP stroke
c9
0 0 15 0 0 0 1833 4615 4 MP
PP
0 sg
-15 0 0 0 15 0 0 0 1833 4615 5 MP stroke
c9
0 0 15 0 0 0 1848 4615 4 MP
PP
0 sg
-15 0 0 0 15 0 0 0 1848 4615 5 MP stroke
c9
0 0 15 0 0 0 1863 4615 4 MP
PP
0 sg
-15 0 0 0 15 0 0 0 1863 4615 5 MP stroke
c9
0 0 15 0 0 0 1878 4615 4 MP
PP
0 sg
-15 0 0 0 15 0 0 0 1878 4615 5 MP stroke
c9
0 0 15 0 0 0 1893 4615 4 MP
PP
0 sg
-15 0 0 0 15 0 0 0 1893 4615 5 MP stroke
c9
0 0 15 0 0 0 1908 4615 4 MP
PP
0 sg
-15 0 0 0 15 0 0 0 1908 4615 5 MP stroke
c9
0 0 15 0 0 0 1923 4615 4 MP
PP
0 sg
-15 0 0 0 15 0 0 0 1923 4615 5 MP stroke
c9
0 0 15 0 0 0 1938 4615 4 MP
PP
0 sg
-15 0 0 0 15 0 0 0 1938 4615 5 MP stroke
c9
0 0 15 0 0 0 1953 4615 4 MP
PP
0 sg
-15 0 0 0 15 0 0 0 1953 4615 5 MP stroke
c9
0 0 15 0 0 0 1968 4615 4 MP
PP
0 sg
-15 0 0 0 15 0 0 0 1968 4615 5 MP stroke
c9
0 0 15 0 0 0 1983 4615 4 MP
PP
0 sg
-15 0 0 0 15 0 0 0 1983 4615 5 MP stroke
c9
0 0 15 0 0 0 1998 4615 4 MP
PP
0 sg
-15 0 0 0 15 0 0 0 1998 4615 5 MP stroke
c9
0 0 15 0 0 0 2013 4615 4 MP
PP
0 sg
-15 0 0 0 15 0 0 0 2013 4615 5 MP stroke
c9
0 0 15 0 0 0 2028 4615 4 MP
PP
0 sg
-15 0 0 0 15 0 0 0 2028 4615 5 MP stroke
c9
0 0 15 0 0 0 2043 4615 4 MP
PP
0 sg
-15 0 0 0 15 0 0 0 2043 4615 5 MP stroke
c9
0 0 15 0 0 0 2058 4615 4 MP
PP
0 sg
-15 0 0 0 15 0 0 0 2058 4615 5 MP stroke
c9
0 0 15 0 0 0 2073 4615 4 MP
PP
0 sg
-15 0 0 0 15 0 0 0 2073 4615 5 MP stroke
c9
0 0 15 0 0 0 2088 4615 4 MP
PP
0 sg
-15 0 0 0 15 0 0 0 2088 4615 5 MP stroke
c9
0 0 15 0 0 0 2103 4615 4 MP
PP
0 sg
-15 0 0 0 15 0 0 0 2103 4615 5 MP stroke
c9
0 0 15 0 0 0 2118 4615 4 MP
PP
0 sg
-15 0 0 0 15 0 0 0 2118 4615 5 MP stroke
c9
0 0 15 0 0 0 2133 4615 4 MP
PP
0 sg
-15 0 0 0 15 0 0 0 2133 4615 5 MP stroke
c9
0 0 15 0 0 0 2148 4615 4 MP
PP
0 sg
-15 0 0 0 15 0 0 0 2148 4615 5 MP stroke
c9
0 0 15 0 0 0 2163 4615 4 MP
PP
0 sg
-15 0 0 0 15 0 0 0 2163 4615 5 MP stroke
c9
0 0 15 0 0 0 2178 4615 4 MP
PP
0 sg
-15 0 0 0 15 0 0 0 2178 4615 5 MP stroke
c9
0 0 15 0 0 0 2193 4615 4 MP
PP
0 sg
-15 0 0 0 15 0 0 0 2193 4615 5 MP stroke
c9
0 0 15 0 0 0 2208 4615 4 MP
PP
0 sg
-15 0 0 0 15 0 0 0 2208 4615 5 MP stroke
c9
0 0 15 0 0 0 2223 4615 4 MP
PP
0 sg
-15 0 0 0 15 0 0 0 2223 4615 5 MP stroke
c9
0 0 15 0 0 0 2238 4615 4 MP
PP
0 sg
-15 0 0 0 15 0 0 0 2238 4615 5 MP stroke
c9
0 0 15 0 0 0 2253 4615 4 MP
PP
0 sg
-15 0 0 0 15 0 0 0 2253 4615 5 MP stroke
c9
0 0 15 0 0 0 2268 4615 4 MP
PP
0 sg
-15 0 0 0 15 0 0 0 2268 4615 5 MP stroke
c9
0 0 15 0 0 0 2283 4615 4 MP
PP
0 sg
-15 0 0 0 15 0 0 0 2283 4615 5 MP stroke
c9
0 0 15 0 0 0 2298 4615 4 MP
PP
0 sg
-15 0 0 0 15 0 0 0 2298 4615 5 MP stroke
c9
0 0 15 0 0 0 2313 4615 4 MP
PP
0 sg
-15 0 0 0 15 0 0 0 2313 4615 5 MP stroke
c9
0 0 15 0 0 0 2328 4615 4 MP
PP
0 sg
-15 0 0 0 15 0 0 0 2328 4615 5 MP stroke
c9
0 0 15 0 0 0 2343 4615 4 MP
PP
0 sg
-15 0 0 0 15 0 0 0 2343 4615 5 MP stroke
c9
0 0 14 0 0 0 2358 4615 4 MP
PP
0 sg
-14 0 0 0 14 0 0 0 2358 4615 5 MP stroke
c9
0 0 15 0 0 0 2372 4615 4 MP
PP
0 sg
-15 0 0 0 15 0 0 0 2372 4615 5 MP stroke
c9
0 0 15 0 0 0 2387 4615 4 MP
PP
0 sg
-15 0 0 0 15 0 0 0 2387 4615 5 MP stroke
c9
0 0 15 0 0 0 2402 4615 4 MP
PP
0 sg
-15 0 0 0 15 0 0 0 2402 4615 5 MP stroke
c9
0 0 15 0 0 0 2417 4615 4 MP
PP
0 sg
-15 0 0 0 15 0 0 0 2417 4615 5 MP stroke
c9
0 0 15 0 0 0 2432 4615 4 MP
PP
0 sg
-15 0 0 0 15 0 0 0 2432 4615 5 MP stroke
c9
0 0 15 0 0 0 2447 4615 4 MP
PP
0 sg
-15 0 0 0 15 0 0 0 2447 4615 5 MP stroke
c9
0 0 15 0 0 0 2462 4615 4 MP
PP
0 sg
-15 0 0 0 15 0 0 0 2462 4615 5 MP stroke
c9
0 0 15 0 0 0 2477 4615 4 MP
PP
0 sg
-15 0 0 0 15 0 0 0 2477 4615 5 MP stroke
c9
0 0 15 0 0 0 2492 4615 4 MP
PP
0 sg
-15 0 0 0 15 0 0 0 2492 4615 5 MP stroke
c9
0 0 15 0 0 0 2507 4615 4 MP
PP
0 sg
-15 0 0 0 15 0 0 0 2507 4615 5 MP stroke
c9
0 0 15 0 0 0 2522 4615 4 MP
PP
0 sg
-15 0 0 0 15 0 0 0 2522 4615 5 MP stroke
c9
0 0 15 0 0 0 2537 4615 4 MP
PP
0 sg
-15 0 0 0 15 0 0 0 2537 4615 5 MP stroke
c9
0 0 15 0 0 0 2552 4615 4 MP
PP
0 sg
-15 0 0 0 15 0 0 0 2552 4615 5 MP stroke
c9
0 0 15 0 0 0 2567 4615 4 MP
PP
0 sg
-15 0 0 0 15 0 0 0 2567 4615 5 MP stroke
c9
0 0 15 0 0 0 2582 4615 4 MP
PP
0 sg
-15 0 0 0 15 0 0 0 2582 4615 5 MP stroke
c9
0 0 15 0 0 0 2597 4615 4 MP
PP
0 sg
-15 0 0 0 15 0 0 0 2597 4615 5 MP stroke
c9
0 0 15 0 0 0 2612 4615 4 MP
PP
0 sg
-15 0 0 0 15 0 0 0 2612 4615 5 MP stroke
c9
0 0 15 0 0 0 2627 4615 4 MP
PP
0 sg
-15 0 0 0 15 0 0 0 2627 4615 5 MP stroke
c9
0 0 15 0 0 0 2642 4615 4 MP
PP
0 sg
-15 0 0 0 15 0 0 0 2642 4615 5 MP stroke
c9
0 0 15 0 0 0 2657 4615 4 MP
PP
0 sg
-15 0 0 0 15 0 0 0 2657 4615 5 MP stroke
c9
0 0 15 0 0 0 2672 4615 4 MP
PP
0 sg
-15 0 0 0 15 0 0 0 2672 4615 5 MP stroke
c9
0 0 15 0 0 0 2687 4615 4 MP
PP
0 sg
-15 0 0 0 15 0 0 0 2687 4615 5 MP stroke
c9
0 0 15 0 0 0 2702 4615 4 MP
PP
0 sg
-15 0 0 0 15 0 0 0 2702 4615 5 MP stroke
c9
0 0 15 0 0 0 2717 4615 4 MP
PP
0 sg
-15 0 0 0 15 0 0 0 2717 4615 5 MP stroke
c9
0 0 15 0 0 0 2732 4615 4 MP
PP
0 sg
-15 0 0 0 15 0 0 0 2732 4615 5 MP stroke
c9
0 0 15 0 0 0 2747 4615 4 MP
PP
0 sg
-15 0 0 0 15 0 0 0 2747 4615 5 MP stroke
c9
0 0 15 0 0 0 2762 4615 4 MP
PP
0 sg
-15 0 0 0 15 0 0 0 2762 4615 5 MP stroke
c9
0 0 15 0 0 0 2777 4615 4 MP
PP
0 sg
-15 0 0 0 15 0 0 0 2777 4615 5 MP stroke
c9
0 0 15 0 0 0 2792 4615 4 MP
PP
0 sg
-15 0 0 0 15 0 0 0 2792 4615 5 MP stroke
c9
0 0 15 0 0 0 2807 4615 4 MP
PP
0 sg
-15 0 0 0 15 0 0 0 2807 4615 5 MP stroke
c9
0 0 15 0 0 0 2822 4615 4 MP
PP
0 sg
-15 0 0 0 15 0 0 0 2822 4615 5 MP stroke
c9
0 0 15 0 0 0 2837 4615 4 MP
PP
0 sg
-15 0 0 0 15 0 0 0 2837 4615 5 MP stroke
c9
0 0 15 0 0 0 2852 4615 4 MP
PP
0 sg
-15 0 0 0 15 0 0 0 2852 4615 5 MP stroke
c9
0 0 15 0 0 0 2867 4615 4 MP
PP
0 sg
-15 0 0 0 15 0 0 0 2867 4615 5 MP stroke
c9
0 0 15 0 0 0 2882 4615 4 MP
PP
0 sg
-15 0 0 0 15 0 0 0 2882 4615 5 MP stroke
c9
0 0 15 0 0 0 2897 4615 4 MP
PP
0 sg
-15 0 0 0 15 0 0 0 2897 4615 5 MP stroke
c9
0 0 15 0 0 0 2912 4615 4 MP
PP
0 sg
-15 0 0 0 15 0 0 0 2912 4615 5 MP stroke
c9
0 0 15 0 0 0 2927 4615 4 MP
PP
0 sg
-15 0 0 0 15 0 0 0 2927 4615 5 MP stroke
c9
0 0 14 0 0 0 2942 4615 4 MP
PP
0 sg
-14 0 0 0 14 0 0 0 2942 4615 5 MP stroke
c9
0 0 15 0 0 0 2956 4615 4 MP
PP
0 sg
-15 0 0 0 15 0 0 0 2956 4615 5 MP stroke
c9
0 0 15 0 0 0 2971 4615 4 MP
PP
0 sg
-15 0 0 0 15 0 0 0 2971 4615 5 MP stroke
c9
0 0 15 0 0 0 2986 4615 4 MP
PP
0 sg
-15 0 0 0 15 0 0 0 2986 4615 5 MP stroke
c9
0 0 15 0 0 0 3001 4615 4 MP
PP
0 sg
-15 0 0 0 15 0 0 0 3001 4615 5 MP stroke
c9
0 0 15 0 0 0 3016 4615 4 MP
PP
0 sg
-15 0 0 0 15 0 0 0 3016 4615 5 MP stroke
c9
0 0 15 0 0 0 3031 4615 4 MP
PP
0 sg
-15 0 0 0 15 0 0 0 3031 4615 5 MP stroke
c9
0 0 15 0 0 0 3046 4615 4 MP
PP
0 sg
-15 0 0 0 15 0 0 0 3046 4615 5 MP stroke
c9
0 0 15 0 0 0 3061 4615 4 MP
PP
0 sg
-15 0 0 0 15 0 0 0 3061 4615 5 MP stroke
c9
0 0 15 0 0 0 3076 4615 4 MP
PP
0 sg
-15 0 0 0 15 0 0 0 3076 4615 5 MP stroke
c9
0 0 15 0 0 0 3091 4615 4 MP
PP
0 sg
-15 0 0 0 15 0 0 0 3091 4615 5 MP stroke
c9
0 0 15 0 0 0 3106 4615 4 MP
PP
0 sg
-15 0 0 0 15 0 0 0 3106 4615 5 MP stroke
c9
0 0 15 0 0 0 3121 4615 4 MP
PP
0 sg
-15 0 0 0 15 0 0 0 3121 4615 5 MP stroke
c9
0 1769 15 0 0 -1769 3136 4615 4 MP
PP
0 sg
-15 0 0 1769 15 0 0 -1769 3136 4615 5 MP stroke
1834 4903 mt 
(Time \(s\)) s
 616 3891 mt  -90 rotate
(Count) s
90 rotate
1953 2751 mt 
(n=4) s

end %%Color Dict

eplot
%%EndObject

epage
end

showpage

%%Trailer
%%EOF
