%!PS-Adobe-2.0 EPSF-1.2
%%Creator: MATLAB, The MathWorks, Inc. Version 8.2.0.701 (R2013b). Operating System: Linux 3.2.0-61-generic #92-Ubuntu SMP Mon Mar 31 23:47:59 UTC 2014 x86_64.
%%Title: ../graphs/scaling_all.eps
%%CreationDate: 04/29/2014  14:40:21
%%DocumentNeededFonts: Helvetica
%%DocumentProcessColors: Cyan Magenta Yellow Black
%%Extensions: CMYK
%%Pages: 1
%%BoundingBox:    60   199   548   602
%%EndComments

%%BeginProlog
% MathWorks dictionary
/MathWorks 160 dict begin
% definition operators
/bdef {bind def} bind def
/ldef {load def} bind def
/xdef {exch def} bdef
/xstore {exch store} bdef
% operator abbreviations
/c  /clip ldef
/cc /concat ldef
/cp /closepath ldef
/gr /grestore ldef
/gs /gsave ldef
/mt /moveto ldef
/np /newpath ldef
/cm /currentmatrix ldef
/sm /setmatrix ldef
/rm /rmoveto ldef
/rl /rlineto ldef
/s {show newpath} bdef
/sc {setcmykcolor} bdef
/sr /setrgbcolor ldef
/sg /setgray ldef
/w /setlinewidth ldef
/j /setlinejoin ldef
/cap /setlinecap ldef
/rc {rectclip} bdef
/rf {rectfill} bdef
% page state control
/pgsv () def
/bpage {/pgsv save def} bdef
/epage {pgsv restore} bdef
/bplot /gsave ldef
/eplot {stroke grestore} bdef
% orientation switch
/portraitMode 0 def /landscapeMode 1 def /rotateMode 2 def
% coordinate system mappings
/dpi2point 0 def
% font control
/FontSize 0 def
/FMS {/FontSize xstore findfont [FontSize 0 0 FontSize neg 0 0]
  makefont setfont} bdef
/reencode {exch dup where {pop load} {pop StandardEncoding} ifelse
  exch dup 3 1 roll findfont dup length dict begin
  { 1 index /FID ne {def}{pop pop} ifelse } forall
  /Encoding exch def currentdict end definefont pop} bdef
/isroman {findfont /CharStrings get /Agrave known} bdef
/FMSR {3 1 roll 1 index dup isroman {reencode} {pop pop} ifelse
  exch FMS} bdef
/csm {1 dpi2point div -1 dpi2point div scale neg translate
 dup landscapeMode eq {pop -90 rotate}
  {rotateMode eq {90 rotate} if} ifelse} bdef
% line types: solid, dotted, dashed, dotdash
/SO { [] 0 setdash } bdef
/DO { [.5 dpi2point mul 4 dpi2point mul] 0 setdash } bdef
/DA { [6 dpi2point mul] 0 setdash } bdef
/DD { [.5 dpi2point mul 4 dpi2point mul 6 dpi2point mul 4
  dpi2point mul] 0 setdash } bdef
% macros for lines and objects
/L {lineto stroke} bdef
/MP {3 1 roll moveto 1 sub {rlineto} repeat} bdef
/AP {{rlineto} repeat} bdef
/PDlw -1 def
/W {/PDlw currentlinewidth def setlinewidth} def
/PP {closepath eofill} bdef
/DP {closepath stroke} bdef
/MR {4 -2 roll moveto dup  0 exch rlineto exch 0 rlineto
  neg 0 exch rlineto closepath} bdef
/FR {MR stroke} bdef
/PR {MR fill} bdef
/L1i {{currentfile picstr readhexstring pop} image} bdef
/tMatrix matrix def
/MakeOval {newpath tMatrix currentmatrix pop translate scale
0 0 1 0 360 arc tMatrix setmatrix} bdef
/FO {MakeOval stroke} bdef
/PO {MakeOval fill} bdef
/PD {currentlinewidth 2 div 0 360 arc fill
   PDlw -1 eq not {PDlw w /PDlw -1 def} if} def
/FA {newpath tMatrix currentmatrix pop translate scale
  0 0 1 5 -2 roll arc tMatrix setmatrix stroke} bdef
/PA {newpath tMatrix currentmatrix pop	translate 0 0 moveto scale
  0 0 1 5 -2 roll arc closepath tMatrix setmatrix fill} bdef
/FAn {newpath tMatrix currentmatrix pop translate scale
  0 0 1 5 -2 roll arcn tMatrix setmatrix stroke} bdef
/PAn {newpath tMatrix currentmatrix pop translate 0 0 moveto scale
  0 0 1 5 -2 roll arcn closepath tMatrix setmatrix fill} bdef
/vradius 0 def /hradius 0 def /lry 0 def
/lrx 0 def /uly 0 def /ulx 0 def /rad 0 def
/MRR {/vradius xdef /hradius xdef /lry xdef /lrx xdef /uly xdef
  /ulx xdef newpath tMatrix currentmatrix pop ulx hradius add uly
  vradius add translate hradius vradius scale 0 0 1 180 270 arc 
  tMatrix setmatrix lrx hradius sub uly vradius add translate
  hradius vradius scale 0 0 1 270 360 arc tMatrix setmatrix
  lrx hradius sub lry vradius sub translate hradius vradius scale
  0 0 1 0 90 arc tMatrix setmatrix ulx hradius add lry vradius sub
  translate hradius vradius scale 0 0 1 90 180 arc tMatrix setmatrix
  closepath} bdef
/FRR {MRR stroke } bdef
/PRR {MRR fill } bdef
/MlrRR {/lry xdef /lrx xdef /uly xdef /ulx xdef /rad lry uly sub 2 div def
  newpath tMatrix currentmatrix pop ulx rad add uly rad add translate
  rad rad scale 0 0 1 90 270 arc tMatrix setmatrix lrx rad sub lry rad
  sub translate rad rad scale 0 0 1 270 90 arc tMatrix setmatrix
  closepath} bdef
/FlrRR {MlrRR stroke } bdef
/PlrRR {MlrRR fill } bdef
/MtbRR {/lry xdef /lrx xdef /uly xdef /ulx xdef /rad lrx ulx sub 2 div def
  newpath tMatrix currentmatrix pop ulx rad add uly rad add translate
  rad rad scale 0 0 1 180 360 arc tMatrix setmatrix lrx rad sub lry rad
  sub translate rad rad scale 0 0 1 0 180 arc tMatrix setmatrix
  closepath} bdef
/FtbRR {MtbRR stroke } bdef
/PtbRR {MtbRR fill } bdef
/stri 6 array def /dtri 6 array def
/smat 6 array def /dmat 6 array def
/tmat1 6 array def /tmat2 6 array def /dif 3 array def
/asub {/ind2 exch def /ind1 exch def dup dup
  ind1 get exch ind2 get sub exch } bdef
/tri_to_matrix {
  2 0 asub 3 1 asub 4 0 asub 5 1 asub
  dup 0 get exch 1 get 7 -1 roll astore } bdef
/compute_transform {
  dmat dtri tri_to_matrix tmat1 invertmatrix 
  smat stri tri_to_matrix tmat2 concatmatrix } bdef
/ds {stri astore pop} bdef
/dt {dtri astore pop} bdef
/db {2 copy /cols xdef /rows xdef mul dup 3 mul string
  currentfile exch readhexstring pop
  dup 0 3 index getinterval /rbmap xdef
  dup 2 index dup getinterval /gbmap xdef
  1 index dup 2 mul exch getinterval /bbmap xdef pop pop}bdef
/it {gs np dtri aload pop moveto lineto lineto cp c
  cols rows 8 compute_transform 
  rbmap gbmap bbmap true 3 colorimage gr}bdef
/il {newpath moveto lineto stroke}bdef
currentdict end def
%%EndProlog

%%BeginSetup
MathWorks begin

0 cap

end
%%EndSetup

%%Page: 1 1
%%BeginPageSetup
%%PageBoundingBox:    60   199   548   602
MathWorks begin
bpage
%%EndPageSetup

%%BeginObject: obj1
bplot

/dpi2point 12 def
portraitMode 0216 7344 csm

  513   110  5858  4845 MR c np
76 dict begin %Colortable dictionary
/c0 { 0.000000 0.000000 0.000000 sr} bdef
/c1 { 1.000000 1.000000 1.000000 sr} bdef
/c2 { 0.900000 0.000000 0.000000 sr} bdef
/c3 { 0.000000 0.820000 0.000000 sr} bdef
/c4 { 0.000000 0.000000 0.800000 sr} bdef
/c5 { 0.910000 0.820000 0.320000 sr} bdef
/c6 { 1.000000 0.260000 0.820000 sr} bdef
/c7 { 0.000000 0.820000 0.820000 sr} bdef
c0
1 j
1 sg
   0    0 6913 5186 PR
6 w
0 4226 5356 0 0 -4226 899 4615 4 MP
PP
-5356 0 0 4226 5356 0 0 -4226 899 4615 5 MP stroke
4 w
DO
SO
6 w
0 sg
 899 4615 mt 6255 4615 L
 899  389 mt 6255  389 L
 899 4615 mt  899  389 L
6255 4615 mt 6255  389 L
 899 4615 mt 6255 4615 L
 899 4615 mt  899  389 L
 899 4615 mt  899 4561 L
 899  389 mt  899  442 L
%%IncludeResource: font Helvetica
/Helvetica /ISOLatin1Encoding 120 FMSR

 866 4760 mt 
(0) s
1434 4615 mt 1434 4561 L
1434  389 mt 1434  442 L
1401 4760 mt 
(1) s
1970 4615 mt 1970 4561 L
1970  389 mt 1970  442 L
1937 4760 mt 
(2) s
2505 4615 mt 2505 4561 L
2505  389 mt 2505  442 L
2472 4760 mt 
(3) s
3041 4615 mt 3041 4561 L
3041  389 mt 3041  442 L
3008 4760 mt 
(4) s
3577 4615 mt 3577 4561 L
3577  389 mt 3577  442 L
3544 4760 mt 
(5) s
4112 4615 mt 4112 4561 L
4112  389 mt 4112  442 L
4079 4760 mt 
(6) s
4648 4615 mt 4648 4561 L
4648  389 mt 4648  442 L
4615 4760 mt 
(7) s
5183 4615 mt 5183 4561 L
5183  389 mt 5183  442 L
5150 4760 mt 
(8) s
5719 4615 mt 5719 4561 L
5719  389 mt 5719  442 L
5686 4760 mt 
(9) s
6255 4615 mt 6255 4561 L
6255  389 mt 6255  442 L
6189 4760 mt 
(10) s
 899 4615 mt  952 4615 L
6255 4615 mt 6201 4615 L
 798 4659 mt 
(0) s
 899 3910 mt  952 3910 L
6255 3910 mt 6201 3910 L
 731 3954 mt 
(10) s
 899 3206 mt  952 3206 L
6255 3206 mt 6201 3206 L
 731 3250 mt 
(20) s
 899 2502 mt  952 2502 L
6255 2502 mt 6201 2502 L
 731 2546 mt 
(30) s
 899 1797 mt  952 1797 L
6255 1797 mt 6201 1797 L
 731 1841 mt 
(40) s
 899 1093 mt  952 1093 L
6255 1093 mt 6201 1093 L
 731 1137 mt 
(50) s
 899  389 mt  952  389 L
6255  389 mt 6201  389 L
 731  433 mt 
(60) s
 899 4615 mt 6255 4615 L
 899  389 mt 6255  389 L
 899 4615 mt  899  389 L
6255 4615 mt 6255  389 L
DA
/c8 { 1.000000 0.000000 0.000000 sr} bdef
c8
54 -101 53 -101 54 -100 53 -101 54 -101 53 -100 54 -101 54 -101 
53 -101 54 -100 53 -101 54 -101 53 -101 54 -100 53 -101 54 -101 
54 -101 53 -100 54 -101 53 -101 1970 2600 21 MP stroke
0 sg
3460 4903 mt 
(Size) s
 649 2676 mt  -90 rotate
(beta*n) s
90 rotate
2594  294 mt 
(Scaling \(all algorithms, beta variable\)) s
 882 4658 mt 
( ) s
6239  431 mt 
( ) s
SO
c8
54 -47 53 -48 54 -47 53 -48 54 -48 53 -47 54 -48 54 -47 
53 -48 54 -47 53 -48 54 -47 53 -48 54 -47 53 -48 54 -48 
54 -47 53 -48 54 -47 53 -48 1970 3664 21 MP stroke
DA
0 sg
54 -41 54 -41 53 -40 54 -41 53 -41 54 -40 53 -41 54 -41 
54 -40 53 -41 54 -41 53 -40 54 -41 53 -41 54 -40 53 -41 
54 -41 54 -41 53 -40 54 -41 53 -41 54 -40 53 -41 54 -41 
53 -40 54 -41 54 -41 53 -40 54 -41 53 -41 1970 3801 31 MP stroke
SO
54 -46 54 -46 53 -46 54 -47 53 -46 54 -46 53 -46 54 -46 
54 -46 53 -46 54 -46 53 -46 54 -46 53 -46 54 -46 53 -46 
54 -46 54 -46 53 -47 54 -46 53 -46 54 -46 53 -46 54 -46 
53 -46 54 -46 54 -46 53 -46 54 -46 53 -46 1970 3693 31 MP stroke
DA
/c9 { 0.000000 0.000000 1.000000 sr} bdef
c9
54 -12 54 -11 53 -12 54 -12 53 -12 54 -11 53 -12 54 -12 
54 -12 53 -11 54 -12 53 -12 54 -11 53 -12 54 -12 53 -12 
54 -11 54 -12 53 -12 54 -12 53 -11 54 -12 53 -12 54 -12 
53 -11 54 -12 54 -12 53 -11 54 -12 53 -12 1970 4380 31 MP stroke
SO
54 -57 53 -57 54 -57 53 -56 54 -57 53 -57 54 -57 54 -57 
53 -57 54 -56 53 -57 54 -57 53 -57 54 -57 53 -57 54 -56 
54 -57 53 -57 54 -57 53 -57 1970 3478 21 MP stroke
1 sg
0 918 1658 0 0 -918 4538 1367 4 MP
PP
-1658 0 0 918 1658 0 0 -918 4538 1367 5 MP stroke
4 w
DO
SO
6 w
0 sg
4538 1367 mt 6196 1367 L
4538  449 mt 6196  449 L
4538 1367 mt 4538  449 L
6196 1367 mt 6196  449 L
4538 1367 mt 6196 1367 L
4538 1367 mt 4538  449 L
4538 1367 mt 6196 1367 L
4538  449 mt 6196  449 L
4538 1367 mt 4538  449 L
6196 1367 mt 6196  449 L
5000  583 mt 
(Brute-force) s
DA
c8
355 0 4609 541 2 MP stroke
SO
0 sg
5000  730 mt 
(Pen-and-paper) s
c8
355 0 4609 688 2 MP stroke
0 sg
5000  877 mt 
(Exact Cover \(Haskell\)) s
DA
355 0 4609 834 2 MP stroke
SO
5000 1024 mt 
(Exact Cover \(Python\)) s
355 0 4609 981 2 MP stroke
5000 1171 mt 
(SAT Reduction) s
DA
c9
355 0 4609 1127 2 MP stroke
SO
0 sg
5000 1318 mt 
(CSP) s
c9
355 0 4609 1274 2 MP stroke

end %%Color Dict

eplot
%%EndObject

epage
end

showpage

%%Trailer
%%EOF
