%!PS-Adobe-2.0 EPSF-1.2
%%Creator: MATLAB, The MathWorks, Inc. Version 8.2.0.701 (R2013b). Operating System: Linux 3.2.0-61-generic #92-Ubuntu SMP Mon Mar 31 23:47:59 UTC 2014 x86_64.
%%Title: ../graphs/scaling_5+6_log.eps
%%CreationDate: 04/29/2014  20:04:57
%%DocumentNeededFonts: Helvetica
%%DocumentProcessColors: Cyan Magenta Yellow Black
%%Extensions: CMYK
%%Pages: 1
%%BoundingBox:    53   199   546   602
%%EndComments

%%BeginProlog
% MathWorks dictionary
/MathWorks 160 dict begin
% definition operators
/bdef {bind def} bind def
/ldef {load def} bind def
/xdef {exch def} bdef
/xstore {exch store} bdef
% operator abbreviations
/c  /clip ldef
/cc /concat ldef
/cp /closepath ldef
/gr /grestore ldef
/gs /gsave ldef
/mt /moveto ldef
/np /newpath ldef
/cm /currentmatrix ldef
/sm /setmatrix ldef
/rm /rmoveto ldef
/rl /rlineto ldef
/s {show newpath} bdef
/sc {setcmykcolor} bdef
/sr /setrgbcolor ldef
/sg /setgray ldef
/w /setlinewidth ldef
/j /setlinejoin ldef
/cap /setlinecap ldef
/rc {rectclip} bdef
/rf {rectfill} bdef
% page state control
/pgsv () def
/bpage {/pgsv save def} bdef
/epage {pgsv restore} bdef
/bplot /gsave ldef
/eplot {stroke grestore} bdef
% orientation switch
/portraitMode 0 def /landscapeMode 1 def /rotateMode 2 def
% coordinate system mappings
/dpi2point 0 def
% font control
/FontSize 0 def
/FMS {/FontSize xstore findfont [FontSize 0 0 FontSize neg 0 0]
  makefont setfont} bdef
/reencode {exch dup where {pop load} {pop StandardEncoding} ifelse
  exch dup 3 1 roll findfont dup length dict begin
  { 1 index /FID ne {def}{pop pop} ifelse } forall
  /Encoding exch def currentdict end definefont pop} bdef
/isroman {findfont /CharStrings get /Agrave known} bdef
/FMSR {3 1 roll 1 index dup isroman {reencode} {pop pop} ifelse
  exch FMS} bdef
/csm {1 dpi2point div -1 dpi2point div scale neg translate
 dup landscapeMode eq {pop -90 rotate}
  {rotateMode eq {90 rotate} if} ifelse} bdef
% line types: solid, dotted, dashed, dotdash
/SO { [] 0 setdash } bdef
/DO { [.5 dpi2point mul 4 dpi2point mul] 0 setdash } bdef
/DA { [6 dpi2point mul] 0 setdash } bdef
/DD { [.5 dpi2point mul 4 dpi2point mul 6 dpi2point mul 4
  dpi2point mul] 0 setdash } bdef
% macros for lines and objects
/L {lineto stroke} bdef
/MP {3 1 roll moveto 1 sub {rlineto} repeat} bdef
/AP {{rlineto} repeat} bdef
/PDlw -1 def
/W {/PDlw currentlinewidth def setlinewidth} def
/PP {closepath eofill} bdef
/DP {closepath stroke} bdef
/MR {4 -2 roll moveto dup  0 exch rlineto exch 0 rlineto
  neg 0 exch rlineto closepath} bdef
/FR {MR stroke} bdef
/PR {MR fill} bdef
/L1i {{currentfile picstr readhexstring pop} image} bdef
/tMatrix matrix def
/MakeOval {newpath tMatrix currentmatrix pop translate scale
0 0 1 0 360 arc tMatrix setmatrix} bdef
/FO {MakeOval stroke} bdef
/PO {MakeOval fill} bdef
/PD {currentlinewidth 2 div 0 360 arc fill
   PDlw -1 eq not {PDlw w /PDlw -1 def} if} def
/FA {newpath tMatrix currentmatrix pop translate scale
  0 0 1 5 -2 roll arc tMatrix setmatrix stroke} bdef
/PA {newpath tMatrix currentmatrix pop	translate 0 0 moveto scale
  0 0 1 5 -2 roll arc closepath tMatrix setmatrix fill} bdef
/FAn {newpath tMatrix currentmatrix pop translate scale
  0 0 1 5 -2 roll arcn tMatrix setmatrix stroke} bdef
/PAn {newpath tMatrix currentmatrix pop translate 0 0 moveto scale
  0 0 1 5 -2 roll arcn closepath tMatrix setmatrix fill} bdef
/vradius 0 def /hradius 0 def /lry 0 def
/lrx 0 def /uly 0 def /ulx 0 def /rad 0 def
/MRR {/vradius xdef /hradius xdef /lry xdef /lrx xdef /uly xdef
  /ulx xdef newpath tMatrix currentmatrix pop ulx hradius add uly
  vradius add translate hradius vradius scale 0 0 1 180 270 arc 
  tMatrix setmatrix lrx hradius sub uly vradius add translate
  hradius vradius scale 0 0 1 270 360 arc tMatrix setmatrix
  lrx hradius sub lry vradius sub translate hradius vradius scale
  0 0 1 0 90 arc tMatrix setmatrix ulx hradius add lry vradius sub
  translate hradius vradius scale 0 0 1 90 180 arc tMatrix setmatrix
  closepath} bdef
/FRR {MRR stroke } bdef
/PRR {MRR fill } bdef
/MlrRR {/lry xdef /lrx xdef /uly xdef /ulx xdef /rad lry uly sub 2 div def
  newpath tMatrix currentmatrix pop ulx rad add uly rad add translate
  rad rad scale 0 0 1 90 270 arc tMatrix setmatrix lrx rad sub lry rad
  sub translate rad rad scale 0 0 1 270 90 arc tMatrix setmatrix
  closepath} bdef
/FlrRR {MlrRR stroke } bdef
/PlrRR {MlrRR fill } bdef
/MtbRR {/lry xdef /lrx xdef /uly xdef /ulx xdef /rad lrx ulx sub 2 div def
  newpath tMatrix currentmatrix pop ulx rad add uly rad add translate
  rad rad scale 0 0 1 180 360 arc tMatrix setmatrix lrx rad sub lry rad
  sub translate rad rad scale 0 0 1 0 180 arc tMatrix setmatrix
  closepath} bdef
/FtbRR {MtbRR stroke } bdef
/PtbRR {MtbRR fill } bdef
/stri 6 array def /dtri 6 array def
/smat 6 array def /dmat 6 array def
/tmat1 6 array def /tmat2 6 array def /dif 3 array def
/asub {/ind2 exch def /ind1 exch def dup dup
  ind1 get exch ind2 get sub exch } bdef
/tri_to_matrix {
  2 0 asub 3 1 asub 4 0 asub 5 1 asub
  dup 0 get exch 1 get 7 -1 roll astore } bdef
/compute_transform {
  dmat dtri tri_to_matrix tmat1 invertmatrix 
  smat stri tri_to_matrix tmat2 concatmatrix } bdef
/ds {stri astore pop} bdef
/dt {dtri astore pop} bdef
/db {2 copy /cols xdef /rows xdef mul dup 3 mul string
  currentfile exch readhexstring pop
  dup 0 3 index getinterval /rbmap xdef
  dup 2 index dup getinterval /gbmap xdef
  1 index dup 2 mul exch getinterval /bbmap xdef pop pop}bdef
/it {gs np dtri aload pop moveto lineto lineto cp c
  cols rows 8 compute_transform 
  rbmap gbmap bbmap true 3 colorimage gr}bdef
/il {newpath moveto lineto stroke}bdef
currentdict end def
%%EndProlog

%%BeginSetup
MathWorks begin

0 cap

end
%%EndSetup

%%Page: 1 1
%%BeginPageSetup
%%PageBoundingBox:    53   199   546   602
MathWorks begin
bpage
%%EndPageSetup

%%BeginObject: obj1
bplot

/dpi2point 12 def
portraitMode 0216 7344 csm

  422   109  5923  4846 MR c np
76 dict begin %Colortable dictionary
/c0 { 0.000000 0.000000 0.000000 sr} bdef
/c1 { 1.000000 1.000000 1.000000 sr} bdef
/c2 { 0.900000 0.000000 0.000000 sr} bdef
/c3 { 0.000000 0.820000 0.000000 sr} bdef
/c4 { 0.000000 0.000000 0.800000 sr} bdef
/c5 { 0.910000 0.820000 0.320000 sr} bdef
/c6 { 1.000000 0.260000 0.820000 sr} bdef
/c7 { 0.000000 0.820000 0.820000 sr} bdef
c0
1 j
1 sg
   0    0 6913 5186 PR
6 w
0 1769 5356 0 0 -1769 899 2158 4 MP
PP
-5356 0 0 1769 5356 0 0 -1769 899 2158 5 MP stroke
4 w
DO
SO
6 w
0 sg
 899 2158 mt 6255 2158 L
 899  389 mt 6255  389 L
 899 2158 mt  899  389 L
6255 2158 mt 6255  389 L
 899 2158 mt 6255 2158 L
 899 2158 mt  899  389 L
 899 2158 mt  899 2104 L
 899  389 mt  899  442 L
%%IncludeResource: font Helvetica
/Helvetica /ISOLatin1Encoding 120 FMSR

 866 2303 mt 
(0) s
1791 2158 mt 1791 2104 L
1791  389 mt 1791  442 L
1758 2303 mt 
(1) s
2684 2158 mt 2684 2104 L
2684  389 mt 2684  442 L
2651 2303 mt 
(2) s
3577 2158 mt 3577 2104 L
3577  389 mt 3577  442 L
3544 2303 mt 
(3) s
4469 2158 mt 4469 2104 L
4469  389 mt 4469  442 L
4436 2303 mt 
(4) s
5362 2158 mt 5362 2104 L
5362  389 mt 5362  442 L
5329 2303 mt 
(5) s
6255 2158 mt 6255 2104 L
6255  389 mt 6255  442 L
6222 2303 mt 
(6) s
 899 2158 mt  925 2158 L
6255 2158 mt 6228 2158 L
 899 2158 mt  952 2158 L
6255 2158 mt 6201 2158 L
 640 2202 mt 
(10) s
%%IncludeResource: font Helvetica
/Helvetica /ISOLatin1Encoding 80 FMSR

 773 2128 mt 
(-3) s
 899 1980 mt  925 1980 L
6255 1980 mt 6228 1980 L
 899 1876 mt  925 1876 L
6255 1876 mt 6228 1876 L
 899 1802 mt  925 1802 L
6255 1802 mt 6228 1802 L
 899 1745 mt  925 1745 L
6255 1745 mt 6228 1745 L
 899 1699 mt  925 1699 L
6255 1699 mt 6228 1699 L
 899 1659 mt  925 1659 L
6255 1659 mt 6228 1659 L
 899 1625 mt  925 1625 L
6255 1625 mt 6228 1625 L
 899 1595 mt  925 1595 L
6255 1595 mt 6228 1595 L
 899 1568 mt  925 1568 L
6255 1568 mt 6228 1568 L
 899 1568 mt  952 1568 L
6255 1568 mt 6201 1568 L
%%IncludeResource: font Helvetica
/Helvetica /ISOLatin1Encoding 120 FMSR

 640 1612 mt 
(10) s
%%IncludeResource: font Helvetica
/Helvetica /ISOLatin1Encoding 80 FMSR

 773 1538 mt 
(-2) s
 899 1390 mt  925 1390 L
6255 1390 mt 6228 1390 L
 899 1286 mt  925 1286 L
6255 1286 mt 6228 1286 L
 899 1213 mt  925 1213 L
6255 1213 mt 6228 1213 L
 899 1156 mt  925 1156 L
6255 1156 mt 6228 1156 L
 899 1109 mt  925 1109 L
6255 1109 mt 6228 1109 L
 899 1070 mt  925 1070 L
6255 1070 mt 6228 1070 L
 899 1035 mt  925 1035 L
6255 1035 mt 6228 1035 L
 899 1005 mt  925 1005 L
6255 1005 mt 6228 1005 L
 899  978 mt  925  978 L
6255  978 mt 6228  978 L
 899  978 mt  952  978 L
6255  978 mt 6201  978 L
%%IncludeResource: font Helvetica
/Helvetica /ISOLatin1Encoding 120 FMSR

 640 1022 mt 
(10) s
%%IncludeResource: font Helvetica
/Helvetica /ISOLatin1Encoding 80 FMSR

 773  948 mt 
(-1) s
 899  801 mt  925  801 L
6255  801 mt 6228  801 L
 899  697 mt  925  697 L
6255  697 mt 6228  697 L
 899  623 mt  925  623 L
6255  623 mt 6228  623 L
 899  566 mt  925  566 L
6255  566 mt 6228  566 L
 899  519 mt  925  519 L
6255  519 mt 6228  519 L
 899  480 mt  925  480 L
6255  480 mt 6228  480 L
 899  446 mt  925  446 L
6255  446 mt 6228  446 L
 899  415 mt  925  415 L
6255  415 mt 6228  415 L
 899  389 mt  925  389 L
6255  389 mt 6228  389 L
 899  389 mt  952  389 L
6255  389 mt 6201  389 L
%%IncludeResource: font Helvetica
/Helvetica /ISOLatin1Encoding 120 FMSR

 640  433 mt 
(10) s
%%IncludeResource: font Helvetica
/Helvetica /ISOLatin1Encoding 80 FMSR

 773  359 mt 
(0) s
 899 2158 mt 6255 2158 L
 899  389 mt 6255  389 L
 899 2158 mt  899  389 L
6255 2158 mt 6255  389 L
DA
/c8 { 1.000000 0.000000 0.000000 sr} bdef
c8
89 -43 90 -42 89 -43 89 -43 89 -42 90 -43 89 -43 89 -42 
90 -43 89 -42 89 -43 89 -43 90 -42 89 -43 89 -43 89 -42 
90 -43 89 -43 89 -42 89 -43 90 -43 89 -42 89 -43 90 -43 
89 -42 89 -43 89 -43 90 -42 89 -43 89 -42 2684 1953 31 MP stroke
SO
60 W
/c9 { 0.000000 0.000000 1.000000 sr} bdef
c9
2684 1745 PD
60 W
3577 1543 PD
60 W
4469 1101 PD
60 W
5362 674 PD
0 sg
%%IncludeResource: font Helvetica
/Helvetica /ISOLatin1Encoding 120 FMSR

3460 2446 mt 
(Size) s
 558 1407 mt  -90 rotate
(Time) s
90 rotate
2845  293 mt 
(Algorithm 5: SAT Reduction) s
 882 2201 mt 
( ) s
6239  430 mt 
( ) s
1006  961 mt 
(f\(n\) = 7.931658e-05*exp\(1.665457n\)) s
1 sg
0 334 1093 0 0 -334 959 782 4 MP
PP
-1093 0 0 334 1093 0 0 -334 959 782 5 MP stroke
4 w
DO
SO
6 w
0 sg
 959  782 mt 2052  782 L
 959  448 mt 2052  448 L
 959  782 mt  959  448 L
2052  782 mt 2052  448 L
 959  782 mt 2052  782 L
 959  782 mt  959  448 L
 959  782 mt 2052  782 L
 959  448 mt 2052  448 L
 959  782 mt  959  448 L
2052  782 mt 2052  448 L
1423  583 mt 
(fitted curve) s
DA
c8
356 0 1030 541 2 MP stroke
SO
0 sg
1423  732 mt 
(data) s
60 W
c9
1208 688 PD
1 sg
0 1769 5356 0 0 -1769 899 4615 4 MP
PP
-5356 0 0 1769 5356 0 0 -1769 899 4615 5 MP stroke
4 w
DO
SO
6 w
0 sg
 899 4615 mt 6255 4615 L
 899 2846 mt 6255 2846 L
 899 4615 mt  899 2846 L
6255 4615 mt 6255 2846 L
 899 4615 mt 6255 4615 L
 899 4615 mt  899 2846 L
 899 4615 mt  899 4561 L
 899 2846 mt  899 2899 L
 866 4760 mt 
(0) s
1434 4615 mt 1434 4561 L
1434 2846 mt 1434 2899 L
1351 4760 mt 
(0.5) s
1970 4615 mt 1970 4561 L
1970 2846 mt 1970 2899 L
1937 4760 mt 
(1) s
2505 4615 mt 2505 4561 L
2505 2846 mt 2505 2899 L
2422 4760 mt 
(1.5) s
3041 4615 mt 3041 4561 L
3041 2846 mt 3041 2899 L
3008 4760 mt 
(2) s
3577 4615 mt 3577 4561 L
3577 2846 mt 3577 2899 L
3494 4760 mt 
(2.5) s
4112 4615 mt 4112 4561 L
4112 2846 mt 4112 2899 L
4079 4760 mt 
(3) s
4648 4615 mt 4648 4561 L
4648 2846 mt 4648 2899 L
4565 4760 mt 
(3.5) s
5183 4615 mt 5183 4561 L
5183 2846 mt 5183 2899 L
5150 4760 mt 
(4) s
5719 4615 mt 5719 4561 L
5719 2846 mt 5719 2899 L
5636 4760 mt 
(4.5) s
6255 4615 mt 6255 4561 L
6255 2846 mt 6255 2899 L
6222 4760 mt 
(5) s
 899 4615 mt  899 4615 L
 899 4615 mt  899 4615 L
 899 4615 mt  899 4615 L
 899 4615 mt  899 4615 L
 899 4615 mt  899 4615 L
 899 4615 mt  899 4615 L
 899 4615 mt  899 4615 L
 899 4615 mt  899 4615 L
 899 4615 mt  899 4615 L
 899 4615 mt  899 4615 L
 899 4615 mt  899 4615 L
 899 4615 mt  899 4615 L
 899 4615 mt  899 4615 L
 899 4615 mt  899 4615 L
 899 4615 mt  899 4615 L
 899 4615 mt  899 4615 L
 899 4615 mt  899 4615 L
 899 4615 mt  899 4615 L
 899 4615 mt  952 4615 L
6255 4615 mt 6201 4615 L
 640 4659 mt 
(10) s
%%IncludeResource: font Helvetica
/Helvetica /ISOLatin1Encoding 80 FMSR

 773 4585 mt 
(-5) s
 899 4615 mt  899 4615 L
 899 4615 mt  899 4615 L
 899 4615 mt  899 4615 L
 899 4615 mt  899 4615 L
 899 4615 mt  899 4615 L
 899 4615 mt  899 4615 L
 899 4615 mt  899 4615 L
 899 4615 mt  899 4615 L
 899 4615 mt  899 4615 L
 899 4615 mt  899 4615 L
 899 4615 mt  899 4615 L
 899 4615 mt  899 4615 L
 899 4615 mt  899 4615 L
 899 4615 mt  899 4615 L
 899 4615 mt  899 4615 L
 899 4615 mt  899 4615 L
 899 4615 mt  899 4615 L
 899 4615 mt  899 4615 L
 899 3730 mt  952 3730 L
6255 3730 mt 6201 3730 L
%%IncludeResource: font Helvetica
/Helvetica /ISOLatin1Encoding 120 FMSR

 640 3774 mt 
(10) s
%%IncludeResource: font Helvetica
/Helvetica /ISOLatin1Encoding 80 FMSR

 773 3700 mt 
(0) s
 899 4615 mt  899 4615 L
 899 4615 mt  899 4615 L
 899 4615 mt  899 4615 L
 899 4615 mt  899 4615 L
 899 4615 mt  899 4615 L
 899 4615 mt  899 4615 L
 899 4615 mt  899 4615 L
 899 4615 mt  899 4615 L
 899 4615 mt  899 4615 L
 899 4615 mt  899 4615 L
 899 4615 mt  899 4615 L
 899 4615 mt  899 4615 L
 899 4615 mt  899 4615 L
 899 4615 mt  899 4615 L
 899 4615 mt  899 4615 L
 899 4615 mt  899 4615 L
 899 4615 mt  899 4615 L
 899 4615 mt  899 4615 L
 899 2846 mt  952 2846 L
6255 2846 mt 6201 2846 L
%%IncludeResource: font Helvetica
/Helvetica /ISOLatin1Encoding 120 FMSR

 640 2890 mt 
(10) s
%%IncludeResource: font Helvetica
/Helvetica /ISOLatin1Encoding 80 FMSR

 773 2816 mt 
(5) s
 899 4615 mt  899 4615 L
 899 4615 mt  899 4615 L
 899 4615 mt  899 4615 L
 899 4615 mt  899 4615 L
 899 4615 mt  899 4615 L
 899 4615 mt  899 4615 L
 899 4615 mt  899 4615 L
 899 4615 mt  899 4615 L
 899 4615 mt  899 4615 L
 899 4615 mt  899 4615 L
 899 4615 mt  899 4615 L
 899 4615 mt  899 4615 L
 899 4615 mt  899 4615 L
 899 4615 mt  899 4615 L
 899 4615 mt  899 4615 L
 899 4615 mt  899 4615 L
 899 4615 mt  899 4615 L
 899 4615 mt  899 4615 L
 899 4615 mt 6255 4615 L
 899 2846 mt 6255 2846 L
 899 4615 mt  899 2846 L
6255 4615 mt 6255 2846 L
DA
c8
107 -62 107 -62 107 -62 107 -62 107 -62 107 -62 108 -62 107 -62 
107 -62 107 -62 107 -62 107 -62 107 -62 107 -62 107 -62 108 -62 
107 -62 107 -62 107 -62 107 -62 3041 4471 21 MP stroke
SO
60 W
c9
3041 3924 PD
60 W
4112 3851 PD
60 W
5183 3231 PD
0 sg
%%IncludeResource: font Helvetica
/Helvetica /ISOLatin1Encoding 120 FMSR

3460 4903 mt 
(Size) s
 558 3864 mt  -90 rotate
(Time) s
90 rotate
2405 2751 mt 
(Algorithm 6: Constraint Satisfaction Problem) s
 882 4658 mt 
( ) s
6239 2888 mt 
( ) s
1006 3595 mt 
(f\(n\) = 6.371785e-12*exp\(8.069722n\)) s
1 sg
0 334 1093 0 0 -334 959 3240 4 MP
PP
-1093 0 0 334 1093 0 0 -334 959 3240 5 MP stroke
4 w
DO
SO
6 w
0 sg
 959 3240 mt 2052 3240 L
 959 2906 mt 2052 2906 L
 959 3240 mt  959 2906 L
2052 3240 mt 2052 2906 L
 959 3240 mt 2052 3240 L
 959 3240 mt  959 2906 L
 959 3240 mt 2052 3240 L
 959 2906 mt 2052 2906 L
 959 3240 mt  959 2906 L
2052 3240 mt 2052 2906 L
1423 3041 mt 
(fitted curve) s
DA
c8
356 0 1030 2999 2 MP stroke
SO
0 sg
1423 3190 mt 
(data) s
60 W
c9
1208 3146 PD

end %%Color Dict

eplot
%%EndObject

epage
end

showpage

%%Trailer
%%EOF
