%!PS-Adobe-2.0 EPSF-1.2
%%Creator: MATLAB, The MathWorks, Inc. Version 8.2.0.701 (R2013b). Operating System: Linux 3.2.0-60-generic #91-Ubuntu SMP Wed Feb 19 03:54:44 UTC 2014 x86_64.
%%Title: ../graphs/scaling_3+4.eps
%%CreationDate: 04/13/2014  23:17:11
%%DocumentNeededFonts: Helvetica
%%DocumentProcessColors: Cyan Magenta Yellow Black
%%Extensions: CMYK
%%Pages: 1
%%BoundingBox:    44   199   546   602
%%EndComments

%%BeginProlog
% MathWorks dictionary
/MathWorks 160 dict begin
% definition operators
/bdef {bind def} bind def
/ldef {load def} bind def
/xdef {exch def} bdef
/xstore {exch store} bdef
% operator abbreviations
/c  /clip ldef
/cc /concat ldef
/cp /closepath ldef
/gr /grestore ldef
/gs /gsave ldef
/mt /moveto ldef
/np /newpath ldef
/cm /currentmatrix ldef
/sm /setmatrix ldef
/rm /rmoveto ldef
/rl /rlineto ldef
/s {show newpath} bdef
/sc {setcmykcolor} bdef
/sr /setrgbcolor ldef
/sg /setgray ldef
/w /setlinewidth ldef
/j /setlinejoin ldef
/cap /setlinecap ldef
/rc {rectclip} bdef
/rf {rectfill} bdef
% page state control
/pgsv () def
/bpage {/pgsv save def} bdef
/epage {pgsv restore} bdef
/bplot /gsave ldef
/eplot {stroke grestore} bdef
% orientation switch
/portraitMode 0 def /landscapeMode 1 def /rotateMode 2 def
% coordinate system mappings
/dpi2point 0 def
% font control
/FontSize 0 def
/FMS {/FontSize xstore findfont [FontSize 0 0 FontSize neg 0 0]
  makefont setfont} bdef
/reencode {exch dup where {pop load} {pop StandardEncoding} ifelse
  exch dup 3 1 roll findfont dup length dict begin
  { 1 index /FID ne {def}{pop pop} ifelse } forall
  /Encoding exch def currentdict end definefont pop} bdef
/isroman {findfont /CharStrings get /Agrave known} bdef
/FMSR {3 1 roll 1 index dup isroman {reencode} {pop pop} ifelse
  exch FMS} bdef
/csm {1 dpi2point div -1 dpi2point div scale neg translate
 dup landscapeMode eq {pop -90 rotate}
  {rotateMode eq {90 rotate} if} ifelse} bdef
% line types: solid, dotted, dashed, dotdash
/SO { [] 0 setdash } bdef
/DO { [.5 dpi2point mul 4 dpi2point mul] 0 setdash } bdef
/DA { [6 dpi2point mul] 0 setdash } bdef
/DD { [.5 dpi2point mul 4 dpi2point mul 6 dpi2point mul 4
  dpi2point mul] 0 setdash } bdef
% macros for lines and objects
/L {lineto stroke} bdef
/MP {3 1 roll moveto 1 sub {rlineto} repeat} bdef
/AP {{rlineto} repeat} bdef
/PDlw -1 def
/W {/PDlw currentlinewidth def setlinewidth} def
/PP {closepath eofill} bdef
/DP {closepath stroke} bdef
/MR {4 -2 roll moveto dup  0 exch rlineto exch 0 rlineto
  neg 0 exch rlineto closepath} bdef
/FR {MR stroke} bdef
/PR {MR fill} bdef
/L1i {{currentfile picstr readhexstring pop} image} bdef
/tMatrix matrix def
/MakeOval {newpath tMatrix currentmatrix pop translate scale
0 0 1 0 360 arc tMatrix setmatrix} bdef
/FO {MakeOval stroke} bdef
/PO {MakeOval fill} bdef
/PD {currentlinewidth 2 div 0 360 arc fill
   PDlw -1 eq not {PDlw w /PDlw -1 def} if} def
/FA {newpath tMatrix currentmatrix pop translate scale
  0 0 1 5 -2 roll arc tMatrix setmatrix stroke} bdef
/PA {newpath tMatrix currentmatrix pop	translate 0 0 moveto scale
  0 0 1 5 -2 roll arc closepath tMatrix setmatrix fill} bdef
/FAn {newpath tMatrix currentmatrix pop translate scale
  0 0 1 5 -2 roll arcn tMatrix setmatrix stroke} bdef
/PAn {newpath tMatrix currentmatrix pop translate 0 0 moveto scale
  0 0 1 5 -2 roll arcn closepath tMatrix setmatrix fill} bdef
/vradius 0 def /hradius 0 def /lry 0 def
/lrx 0 def /uly 0 def /ulx 0 def /rad 0 def
/MRR {/vradius xdef /hradius xdef /lry xdef /lrx xdef /uly xdef
  /ulx xdef newpath tMatrix currentmatrix pop ulx hradius add uly
  vradius add translate hradius vradius scale 0 0 1 180 270 arc 
  tMatrix setmatrix lrx hradius sub uly vradius add translate
  hradius vradius scale 0 0 1 270 360 arc tMatrix setmatrix
  lrx hradius sub lry vradius sub translate hradius vradius scale
  0 0 1 0 90 arc tMatrix setmatrix ulx hradius add lry vradius sub
  translate hradius vradius scale 0 0 1 90 180 arc tMatrix setmatrix
  closepath} bdef
/FRR {MRR stroke } bdef
/PRR {MRR fill } bdef
/MlrRR {/lry xdef /lrx xdef /uly xdef /ulx xdef /rad lry uly sub 2 div def
  newpath tMatrix currentmatrix pop ulx rad add uly rad add translate
  rad rad scale 0 0 1 90 270 arc tMatrix setmatrix lrx rad sub lry rad
  sub translate rad rad scale 0 0 1 270 90 arc tMatrix setmatrix
  closepath} bdef
/FlrRR {MlrRR stroke } bdef
/PlrRR {MlrRR fill } bdef
/MtbRR {/lry xdef /lrx xdef /uly xdef /ulx xdef /rad lrx ulx sub 2 div def
  newpath tMatrix currentmatrix pop ulx rad add uly rad add translate
  rad rad scale 0 0 1 180 360 arc tMatrix setmatrix lrx rad sub lry rad
  sub translate rad rad scale 0 0 1 0 180 arc tMatrix setmatrix
  closepath} bdef
/FtbRR {MtbRR stroke } bdef
/PtbRR {MtbRR fill } bdef
/stri 6 array def /dtri 6 array def
/smat 6 array def /dmat 6 array def
/tmat1 6 array def /tmat2 6 array def /dif 3 array def
/asub {/ind2 exch def /ind1 exch def dup dup
  ind1 get exch ind2 get sub exch } bdef
/tri_to_matrix {
  2 0 asub 3 1 asub 4 0 asub 5 1 asub
  dup 0 get exch 1 get 7 -1 roll astore } bdef
/compute_transform {
  dmat dtri tri_to_matrix tmat1 invertmatrix 
  smat stri tri_to_matrix tmat2 concatmatrix } bdef
/ds {stri astore pop} bdef
/dt {dtri astore pop} bdef
/db {2 copy /cols xdef /rows xdef mul dup 3 mul string
  currentfile exch readhexstring pop
  dup 0 3 index getinterval /rbmap xdef
  dup 2 index dup getinterval /gbmap xdef
  1 index dup 2 mul exch getinterval /bbmap xdef pop pop}bdef
/it {gs np dtri aload pop moveto lineto lineto cp c
  cols rows 8 compute_transform 
  rbmap gbmap bbmap true 3 colorimage gr}bdef
/il {newpath moveto lineto stroke}bdef
currentdict end def
%%EndProlog

%%BeginSetup
MathWorks begin

0 cap

end
%%EndSetup

%%Page: 1 1
%%BeginPageSetup
%%PageBoundingBox:    44   199   546   602
MathWorks begin
bpage
%%EndPageSetup

%%BeginObject: obj1
bplot

/dpi2point 12 def
portraitMode 0216 7344 csm

  313   110  6032  4845 MR c np
76 dict begin %Colortable dictionary
/c0 { 0.000000 0.000000 0.000000 sr} bdef
/c1 { 1.000000 1.000000 1.000000 sr} bdef
/c2 { 0.900000 0.000000 0.000000 sr} bdef
/c3 { 0.000000 0.820000 0.000000 sr} bdef
/c4 { 0.000000 0.000000 0.800000 sr} bdef
/c5 { 0.910000 0.820000 0.320000 sr} bdef
/c6 { 1.000000 0.260000 0.820000 sr} bdef
/c7 { 0.000000 0.820000 0.820000 sr} bdef
c0
1 j
1 sg
   0    0 6913 5186 PR
6 w
0 1769 5356 0 0 -1769 899 2158 4 MP
PP
-5356 0 0 1769 5356 0 0 -1769 899 2158 5 MP stroke
4 w
DO
SO
6 w
0 sg
 899 2158 mt 6255 2158 L
 899  389 mt 6255  389 L
 899 2158 mt  899  389 L
6255 2158 mt 6255  389 L
 899 2158 mt 6255 2158 L
 899 2158 mt  899  389 L
 899 2158 mt  899 2104 L
 899  389 mt  899  442 L
%%IncludeResource: font Helvetica
/Helvetica /ISOLatin1Encoding 120 FMSR

 866 2303 mt 
(0) s
1791 2158 mt 1791 2104 L
1791  389 mt 1791  442 L
1758 2303 mt 
(1) s
2684 2158 mt 2684 2104 L
2684  389 mt 2684  442 L
2651 2303 mt 
(2) s
3577 2158 mt 3577 2104 L
3577  389 mt 3577  442 L
3544 2303 mt 
(3) s
4469 2158 mt 4469 2104 L
4469  389 mt 4469  442 L
4436 2303 mt 
(4) s
5362 2158 mt 5362 2104 L
5362  389 mt 5362  442 L
5329 2303 mt 
(5) s
6255 2158 mt 6255 2104 L
6255  389 mt 6255  442 L
6222 2303 mt 
(6) s
 899 2158 mt  952 2158 L
6255 2158 mt 6201 2158 L
 798 2202 mt 
(0) s
 899 1905 mt  952 1905 L
6255 1905 mt 6201 1905 L
 598 1949 mt 
(2000) s
 899 1652 mt  952 1652 L
6255 1652 mt 6201 1652 L
 598 1696 mt 
(4000) s
 899 1399 mt  952 1399 L
6255 1399 mt 6201 1399 L
 598 1443 mt 
(6000) s
 899 1147 mt  952 1147 L
6255 1147 mt 6201 1147 L
 598 1191 mt 
(8000) s
 899  894 mt  952  894 L
6255  894 mt 6201  894 L
 531  938 mt 
(10000) s
 899  641 mt  952  641 L
6255  641 mt 6201  641 L
 531  685 mt 
(12000) s
 899  389 mt  952  389 L
6255  389 mt 6201  389 L
 531  433 mt 
(14000) s
 899 2158 mt 6255 2158 L
 899  389 mt 6255  389 L
 899 2158 mt  899  389 L
6255 2158 mt 6255  389 L
DA
/c8 { 1.000000 0.000000 0.000000 sr} bdef
c8
89 -689 90 -387 89 -217 89 -122 89 -68 90 -38 89 -22 89 -12 
90 -7 89 -4 89 -2 89 -1 90 -1 89 0 89 0 89 0 
90 0 89 0 89 0 89 0 90 0 89 0 89 0 90 0 
89 0 89 0 89 0 90 0 89 0 89 0 2684 2157 31 MP stroke
SO
60 W
/c9 { 0.000000 0.000000 1.000000 sr} bdef
c9
2684 2158 PD
60 W
3577 2157 PD
60 W
4469 2153 PD
60 W
5362 587 PD
0 sg
3460 2446 mt 
(Size) s
 449 1407 mt  -90 rotate
(Time) s
90 rotate
2378  294 mt 
(Algorithm 3: Exact Cover Reduction \(Haskell\)) s
 882 2201 mt 
( ) s
6239  431 mt 
( ) s
1006  961 mt 
(f\(x\) = 3.551408e-09*exp\(5.776687x\)) s
1 sg
0 334 1093 0 0 -334 959 783 4 MP
PP
-1093 0 0 334 1093 0 0 -334 959 783 5 MP stroke
4 w
DO
SO
6 w
0 sg
 959  783 mt 2052  783 L
 959  449 mt 2052  449 L
 959  783 mt  959  449 L
2052  783 mt 2052  449 L
 959  783 mt 2052  783 L
 959  783 mt  959  449 L
 959  783 mt 2052  783 L
 959  449 mt 2052  449 L
 959  783 mt  959  449 L
2052  783 mt 2052  449 L
1423  584 mt 
(fitted curve) s
DA
c8
356 0 1030 542 2 MP stroke
SO
0 sg
1423  733 mt 
(data) s
60 W
c9
1208 689 PD
1 sg
0 1769 5356 0 0 -1769 899 4615 4 MP
PP
-5356 0 0 1769 5356 0 0 -1769 899 4615 5 MP stroke
4 w
DO
SO
6 w
0 sg
 899 4615 mt 6255 4615 L
 899 2846 mt 6255 2846 L
 899 4615 mt  899 2846 L
6255 4615 mt 6255 2846 L
 899 4615 mt 6255 4615 L
 899 4615 mt  899 2846 L
 899 4615 mt  899 4561 L
 899 2846 mt  899 2899 L
 866 4760 mt 
(0) s
1791 4615 mt 1791 4561 L
1791 2846 mt 1791 2899 L
1758 4760 mt 
(1) s
2684 4615 mt 2684 4561 L
2684 2846 mt 2684 2899 L
2651 4760 mt 
(2) s
3577 4615 mt 3577 4561 L
3577 2846 mt 3577 2899 L
3544 4760 mt 
(3) s
4469 4615 mt 4469 4561 L
4469 2846 mt 4469 2899 L
4436 4760 mt 
(4) s
5362 4615 mt 5362 4561 L
5362 2846 mt 5362 2899 L
5329 4760 mt 
(5) s
6255 4615 mt 6255 4561 L
6255 2846 mt 6255 2899 L
6222 4760 mt 
(6) s
 899 4615 mt  952 4615 L
6255 4615 mt 6201 4615 L
 798 4659 mt 
(0) s
 899 4320 mt  952 4320 L
6255 4320 mt 6201 4320 L
 664 4364 mt 
(500) s
 899 4025 mt  952 4025 L
6255 4025 mt 6201 4025 L
 598 4069 mt 
(1000) s
 899 3730 mt  952 3730 L
6255 3730 mt 6201 3730 L
 598 3774 mt 
(1500) s
 899 3435 mt  952 3435 L
6255 3435 mt 6201 3435 L
 598 3479 mt 
(2000) s
 899 3140 mt  952 3140 L
6255 3140 mt 6201 3140 L
 598 3184 mt 
(2500) s
 899 2846 mt  952 2846 L
6255 2846 mt 6201 2846 L
 598 2890 mt 
(3000) s
 899 4615 mt 6255 4615 L
 899 2846 mt 6255 2846 L
 899 4615 mt  899 2846 L
6255 4615 mt 6255 2846 L
DA
c8
89 -785 90 -408 89 -213 89 -110 89 -57 90 -30 89 -16 89 -8 
90 -4 89 -2 89 -1 89 -1 90 0 89 0 89 0 89 0 
90 0 89 0 89 0 89 0 90 0 89 0 89 0 90 0 
89 0 89 0 89 0 90 0 89 0 89 0 2684 4614 31 MP stroke
SO
60 W
c9
2684 4615 PD
60 W
3577 4614 PD
60 W
4469 4612 PD
60 W
5362 2979 PD
0 sg
3460 4903 mt 
(Size) s
 516 3864 mt  -90 rotate
(Time) s
90 rotate
2387 2751 mt 
(Algorithm 4: Exact Cover Reduction \(Python\)) s
 882 4658 mt 
( ) s
6239 2888 mt 
( ) s
1006 3418 mt 
(f\(x\) = 1.737990e-11*exp\(6.540698x\)) s
1 sg
0 334 1093 0 0 -334 959 3240 4 MP
PP
-1093 0 0 334 1093 0 0 -334 959 3240 5 MP stroke
4 w
DO
SO
6 w
0 sg
 959 3240 mt 2052 3240 L
 959 2906 mt 2052 2906 L
 959 3240 mt  959 2906 L
2052 3240 mt 2052 2906 L
 959 3240 mt 2052 3240 L
 959 3240 mt  959 2906 L
 959 3240 mt 2052 3240 L
 959 2906 mt 2052 2906 L
 959 3240 mt  959 2906 L
2052 3240 mt 2052 2906 L
1423 3041 mt 
(fitted curve) s
DA
c8
356 0 1030 2999 2 MP stroke
SO
0 sg
1423 3190 mt 
(data) s
60 W
c9
1208 3146 PD

end %%Color Dict

eplot
%%EndObject

epage
end

showpage

%%Trailer
%%EOF
